PCBNEW-LibModule-V1 Sun Feb  5 17:58:09 2017
$INDEX
101-00271-82
$EndINDEX
$MODULE 101-00271-82
Po 0 0 0 15 589759A1 00000000 ~~
Li 101-00271-82
Sc 589759A1
At SMD
Op 0 0 0
T0 0 -150 200 200 0 40 N V 25 "101-00271-82"
T1 0 150 200 200 0 40 N I 25 "Val*"
$PAD
Sh "C8" R 905 393 0 0 0
At SMD N 00888000
Po -10826 5936
$EndPAD
$PAD
Sh "C4" R 905 393 0 0 0
At SMD N 00888000
Po -10826 5436
$EndPAD
$PAD
Sh "C7" R 905 393 0 0 0
At SMD N 00888000
Po -10826 4936
$EndPAD
$PAD
Sh "C3" R 905 393 0 0 0
At SMD N 00888000
Po -10826 4436
$EndPAD
$PAD
Sh "C6" R 905 393 0 0 0
At SMD N 00888000
Po -10826 3936
$EndPAD
$PAD
Sh "C2" R 905 393 0 0 0
At SMD N 00888000
Po -10826 3436
$EndPAD
$PAD
Sh "C5" R 905 393 0 0 0
At SMD N 00888000
Po -10826 2936
$EndPAD
$PAD
Sh "C1" R 905 393 0 0 0
At SMD N 00888000
Po -10826 2436
$EndPAD
$PAD
Sh "SW2" R 905 197 0 0 0
At SMD N 00888000
Po -10826 6428
$EndPAD
$PAD
Sh "SW1" R 905 197 0 0 0
At SMD N 00888000
Po -10826 6940
$EndPAD
$PAD
Sh "S2" R 1575 669 0 0 0
At SMD N 00888000
Po -1377 7558
$EndPAD
$PAD
Sh "S1" R 1575 668 0 0 0
At SMD N 00888000
Po -1377 -197
$EndPAD
DS 0 7362 0 0 39 21
DS 0 0 -10964 0 39 21
DS -10964 0 -10964 7362 39 21
DS -10964 7362 0 7362 39 21
$EndMODULE 101-00271-82
$EndLIBRARY
