PCBNEW-LibModule-V1 Sun Jul  2 19:01:24 2017
$INDEX
BGA-6
BGA-8
BGA-256
BGA-484
BGA-324
$EndINDEX
$MODULE BGA-6
Po 0 0 0 15 595926E4 00000000 ~~
Li BGA-6
Sc 595926E4
At SMD
Op 0 0 0
T0 0 -150 200 200 0 40 N V 25 "BGA-6"
T1 0 150 200 200 0 40 N I 25 "Val*"
$PAD
Sh "A1" O 104 104 0 0 0
At SMD N 00888000
Po 0 0
$EndPAD
$PAD
Sh "A2" O 106 104 0 0 0
At SMD N 00888000
Po 157 0
$EndPAD
$PAD
Sh "B1" O 104 106 0 0 0
At SMD N 00888000
Po 0 157
$EndPAD
$PAD
Sh "B2" O 106 106 0 0 0
At SMD N 00888000
Po 157 157
$EndPAD
$PAD
Sh "C1" O 104 105 0 0 0
At SMD N 00888000
Po 0 314
$EndPAD
$PAD
Sh "C2" O 106 105 0 0 0
At SMD N 00888000
Po 157 314
$EndPAD
DS 256 -115 256 430 50 21
DS 256 430 -99 430 50 21
DS -99 430 -99 -115 50 21
DS -99 -115 256 -115 50 21
DS 0 -115 -99 0 50 21
$EndMODULE BGA-6
$MODULE BGA-8
Po 0 0 0 15 595926E4 00000000 ~~
Li BGA-8
Sc 595926E4
At SMD
Op 0 0 0
T0 0 -150 200 200 0 40 N V 25 "BGA-8"
T1 0 150 200 200 0 40 N I 25 "Val*"
$PAD
Sh "A1" O 90 90 0 0 0
At SMD N 00888000
Po 0 0
$EndPAD
$PAD
Sh "A2" O 91 90 0 0 0
At SMD N 00888000
Po 196 0
$EndPAD
$PAD
Sh "B1" O 90 91 0 0 0
At SMD N 00888000
Po 0 196
$EndPAD
$PAD
Sh "B2" O 91 91 0 0 0
At SMD N 00888000
Po 196 196
$EndPAD
$PAD
Sh "C1" O 90 90 0 0 0
At SMD N 00888000
Po 0 393
$EndPAD
$PAD
Sh "C2" O 91 90 0 0 0
At SMD N 00888000
Po 196 393
$EndPAD
$PAD
Sh "D1" O 90 90 0 0 0
At SMD N 00888000
Po 0 590
$EndPAD
$PAD
Sh "D2" O 91 90 0 0 0
At SMD N 00888000
Po 196 590
$EndPAD
DS 281 -84 281 675 50 21
DS 281 675 -84 675 50 21
DS -84 675 -84 -84 50 21
DS -84 -84 281 -84 50 21
DS 0 -84 -84 0 50 21
$EndMODULE BGA-8
$MODULE BGA-256
Po 0 0 0 15 595926E4 00000000 ~~
Li BGA-256
Sc 595926E4
At SMD
Op 0 0 0
T0 0 -150 200 200 0 40 N V 25 "BGA-256"
T1 0 150 200 200 0 40 N I 25 "Val*"
$PAD
Sh "A1" O 196 196 0 0 0
At SMD N 00888000
Po 0 0
$EndPAD
$PAD
Sh "A2" O 197 196 0 0 0
At SMD N 00888000
Po 393 0
$EndPAD
$PAD
Sh "A3" O 197 196 0 0 0
At SMD N 00888000
Po 786 0
$EndPAD
$PAD
Sh "A4" O 197 196 0 0 0
At SMD N 00888000
Po 1180 0
$EndPAD
$PAD
Sh "A5" O 197 196 0 0 0
At SMD N 00888000
Po 1574 0
$EndPAD
$PAD
Sh "A6" O 196 196 0 0 0
At SMD N 00888000
Po 1968 0
$EndPAD
$PAD
Sh "A7" O 197 196 0 0 0
At SMD N 00888000
Po 2361 0
$EndPAD
$PAD
Sh "A8" O 197 196 0 0 0
At SMD N 00888000
Po 2755 0
$EndPAD
$PAD
Sh "A9" O 197 196 0 0 0
At SMD N 00888000
Po 3149 0
$EndPAD
$PAD
Sh "A10" O 197 196 0 0 0
At SMD N 00888000
Po 3542 0
$EndPAD
$PAD
Sh "A11" O 197 196 0 0 0
At SMD N 00888000
Po 3936 0
$EndPAD
$PAD
Sh "A12" O 197 196 0 0 0
At SMD N 00888000
Po 4330 0
$EndPAD
$PAD
Sh "A13" O 197 196 0 0 0
At SMD N 00888000
Po 4723 0
$EndPAD
$PAD
Sh "A14" O 197 196 0 0 0
At SMD N 00888000
Po 5117 0
$EndPAD
$PAD
Sh "A15" O 197 196 0 0 0
At SMD N 00888000
Po 5511 0
$EndPAD
$PAD
Sh "A16" O 196 196 0 0 0
At SMD N 00888000
Po 5905 0
$EndPAD
$PAD
Sh "B1" O 196 197 0 0 0
At SMD N 00888000
Po 0 393
$EndPAD
$PAD
Sh "B2" O 197 197 0 0 0
At SMD N 00888000
Po 393 393
$EndPAD
$PAD
Sh "B3" O 197 197 0 0 0
At SMD N 00888000
Po 786 393
$EndPAD
$PAD
Sh "B4" O 197 197 0 0 0
At SMD N 00888000
Po 1180 393
$EndPAD
$PAD
Sh "B5" O 197 197 0 0 0
At SMD N 00888000
Po 1574 393
$EndPAD
$PAD
Sh "B6" O 196 197 0 0 0
At SMD N 00888000
Po 1968 393
$EndPAD
$PAD
Sh "B7" O 197 197 0 0 0
At SMD N 00888000
Po 2361 393
$EndPAD
$PAD
Sh "B8" O 197 197 0 0 0
At SMD N 00888000
Po 2755 393
$EndPAD
$PAD
Sh "B9" O 197 197 0 0 0
At SMD N 00888000
Po 3149 393
$EndPAD
$PAD
Sh "B10" O 197 197 0 0 0
At SMD N 00888000
Po 3542 393
$EndPAD
$PAD
Sh "B11" O 197 197 0 0 0
At SMD N 00888000
Po 3936 393
$EndPAD
$PAD
Sh "B12" O 197 197 0 0 0
At SMD N 00888000
Po 4330 393
$EndPAD
$PAD
Sh "B13" O 197 197 0 0 0
At SMD N 00888000
Po 4723 393
$EndPAD
$PAD
Sh "B14" O 197 197 0 0 0
At SMD N 00888000
Po 5117 393
$EndPAD
$PAD
Sh "B15" O 197 197 0 0 0
At SMD N 00888000
Po 5511 393
$EndPAD
$PAD
Sh "B16" O 196 197 0 0 0
At SMD N 00888000
Po 5905 393
$EndPAD
$PAD
Sh "C1" O 196 197 0 0 0
At SMD N 00888000
Po 0 786
$EndPAD
$PAD
Sh "C2" O 197 197 0 0 0
At SMD N 00888000
Po 393 786
$EndPAD
$PAD
Sh "C3" O 197 197 0 0 0
At SMD N 00888000
Po 786 786
$EndPAD
$PAD
Sh "C4" O 197 197 0 0 0
At SMD N 00888000
Po 1180 786
$EndPAD
$PAD
Sh "C5" O 197 197 0 0 0
At SMD N 00888000
Po 1574 786
$EndPAD
$PAD
Sh "C6" O 196 197 0 0 0
At SMD N 00888000
Po 1968 786
$EndPAD
$PAD
Sh "C7" O 197 197 0 0 0
At SMD N 00888000
Po 2361 786
$EndPAD
$PAD
Sh "C8" O 197 197 0 0 0
At SMD N 00888000
Po 2755 786
$EndPAD
$PAD
Sh "C9" O 197 197 0 0 0
At SMD N 00888000
Po 3149 786
$EndPAD
$PAD
Sh "C10" O 197 197 0 0 0
At SMD N 00888000
Po 3542 786
$EndPAD
$PAD
Sh "C11" O 197 197 0 0 0
At SMD N 00888000
Po 3936 786
$EndPAD
$PAD
Sh "C12" O 197 197 0 0 0
At SMD N 00888000
Po 4330 786
$EndPAD
$PAD
Sh "C13" O 197 197 0 0 0
At SMD N 00888000
Po 4723 786
$EndPAD
$PAD
Sh "C14" O 197 197 0 0 0
At SMD N 00888000
Po 5117 786
$EndPAD
$PAD
Sh "C15" O 197 197 0 0 0
At SMD N 00888000
Po 5511 786
$EndPAD
$PAD
Sh "C16" O 196 197 0 0 0
At SMD N 00888000
Po 5905 786
$EndPAD
$PAD
Sh "D1" O 196 197 0 0 0
At SMD N 00888000
Po 0 1180
$EndPAD
$PAD
Sh "D2" O 197 197 0 0 0
At SMD N 00888000
Po 393 1180
$EndPAD
$PAD
Sh "D3" O 197 197 0 0 0
At SMD N 00888000
Po 786 1180
$EndPAD
$PAD
Sh "D4" O 197 197 0 0 0
At SMD N 00888000
Po 1180 1180
$EndPAD
$PAD
Sh "D5" O 197 197 0 0 0
At SMD N 00888000
Po 1574 1180
$EndPAD
$PAD
Sh "D6" O 196 197 0 0 0
At SMD N 00888000
Po 1968 1180
$EndPAD
$PAD
Sh "D7" O 197 197 0 0 0
At SMD N 00888000
Po 2361 1180
$EndPAD
$PAD
Sh "D8" O 197 197 0 0 0
At SMD N 00888000
Po 2755 1180
$EndPAD
$PAD
Sh "D9" O 197 197 0 0 0
At SMD N 00888000
Po 3149 1180
$EndPAD
$PAD
Sh "D10" O 197 197 0 0 0
At SMD N 00888000
Po 3542 1180
$EndPAD
$PAD
Sh "D11" O 197 197 0 0 0
At SMD N 00888000
Po 3936 1180
$EndPAD
$PAD
Sh "D12" O 197 197 0 0 0
At SMD N 00888000
Po 4330 1180
$EndPAD
$PAD
Sh "D13" O 197 197 0 0 0
At SMD N 00888000
Po 4723 1180
$EndPAD
$PAD
Sh "D14" O 197 197 0 0 0
At SMD N 00888000
Po 5117 1180
$EndPAD
$PAD
Sh "D15" O 197 197 0 0 0
At SMD N 00888000
Po 5511 1180
$EndPAD
$PAD
Sh "D16" O 196 197 0 0 0
At SMD N 00888000
Po 5905 1180
$EndPAD
$PAD
Sh "E1" O 196 197 0 0 0
At SMD N 00888000
Po 0 1574
$EndPAD
$PAD
Sh "E2" O 197 197 0 0 0
At SMD N 00888000
Po 393 1574
$EndPAD
$PAD
Sh "E3" O 197 197 0 0 0
At SMD N 00888000
Po 786 1574
$EndPAD
$PAD
Sh "E4" O 197 197 0 0 0
At SMD N 00888000
Po 1180 1574
$EndPAD
$PAD
Sh "E5" O 197 197 0 0 0
At SMD N 00888000
Po 1574 1574
$EndPAD
$PAD
Sh "E6" O 196 197 0 0 0
At SMD N 00888000
Po 1968 1574
$EndPAD
$PAD
Sh "E7" O 197 197 0 0 0
At SMD N 00888000
Po 2361 1574
$EndPAD
$PAD
Sh "E8" O 197 197 0 0 0
At SMD N 00888000
Po 2755 1574
$EndPAD
$PAD
Sh "E9" O 197 197 0 0 0
At SMD N 00888000
Po 3149 1574
$EndPAD
$PAD
Sh "E10" O 197 197 0 0 0
At SMD N 00888000
Po 3542 1574
$EndPAD
$PAD
Sh "E11" O 197 197 0 0 0
At SMD N 00888000
Po 3936 1574
$EndPAD
$PAD
Sh "E12" O 197 197 0 0 0
At SMD N 00888000
Po 4330 1574
$EndPAD
$PAD
Sh "E13" O 197 197 0 0 0
At SMD N 00888000
Po 4723 1574
$EndPAD
$PAD
Sh "E14" O 197 197 0 0 0
At SMD N 00888000
Po 5117 1574
$EndPAD
$PAD
Sh "E15" O 197 197 0 0 0
At SMD N 00888000
Po 5511 1574
$EndPAD
$PAD
Sh "E16" O 196 197 0 0 0
At SMD N 00888000
Po 5905 1574
$EndPAD
$PAD
Sh "F1" O 196 196 0 0 0
At SMD N 00888000
Po 0 1968
$EndPAD
$PAD
Sh "F2" O 197 196 0 0 0
At SMD N 00888000
Po 393 1968
$EndPAD
$PAD
Sh "F3" O 197 196 0 0 0
At SMD N 00888000
Po 786 1968
$EndPAD
$PAD
Sh "F4" O 197 196 0 0 0
At SMD N 00888000
Po 1180 1968
$EndPAD
$PAD
Sh "F5" O 197 196 0 0 0
At SMD N 00888000
Po 1574 1968
$EndPAD
$PAD
Sh "F6" O 196 196 0 0 0
At SMD N 00888000
Po 1968 1968
$EndPAD
$PAD
Sh "F7" O 197 196 0 0 0
At SMD N 00888000
Po 2361 1968
$EndPAD
$PAD
Sh "F8" O 197 196 0 0 0
At SMD N 00888000
Po 2755 1968
$EndPAD
$PAD
Sh "F9" O 197 196 0 0 0
At SMD N 00888000
Po 3149 1968
$EndPAD
$PAD
Sh "F10" O 197 196 0 0 0
At SMD N 00888000
Po 3542 1968
$EndPAD
$PAD
Sh "F11" O 197 196 0 0 0
At SMD N 00888000
Po 3936 1968
$EndPAD
$PAD
Sh "F12" O 197 196 0 0 0
At SMD N 00888000
Po 4330 1968
$EndPAD
$PAD
Sh "F13" O 197 196 0 0 0
At SMD N 00888000
Po 4723 1968
$EndPAD
$PAD
Sh "F14" O 197 196 0 0 0
At SMD N 00888000
Po 5117 1968
$EndPAD
$PAD
Sh "F15" O 197 196 0 0 0
At SMD N 00888000
Po 5511 1968
$EndPAD
$PAD
Sh "F16" O 196 196 0 0 0
At SMD N 00888000
Po 5905 1968
$EndPAD
$PAD
Sh "G1" O 196 197 0 0 0
At SMD N 00888000
Po 0 2361
$EndPAD
$PAD
Sh "G2" O 197 197 0 0 0
At SMD N 00888000
Po 393 2361
$EndPAD
$PAD
Sh "G3" O 197 197 0 0 0
At SMD N 00888000
Po 786 2361
$EndPAD
$PAD
Sh "G4" O 197 197 0 0 0
At SMD N 00888000
Po 1180 2361
$EndPAD
$PAD
Sh "G5" O 197 197 0 0 0
At SMD N 00888000
Po 1574 2361
$EndPAD
$PAD
Sh "G6" O 196 197 0 0 0
At SMD N 00888000
Po 1968 2361
$EndPAD
$PAD
Sh "G7" O 197 197 0 0 0
At SMD N 00888000
Po 2361 2361
$EndPAD
$PAD
Sh "G8" O 197 197 0 0 0
At SMD N 00888000
Po 2755 2361
$EndPAD
$PAD
Sh "G9" O 197 197 0 0 0
At SMD N 00888000
Po 3149 2361
$EndPAD
$PAD
Sh "G10" O 197 197 0 0 0
At SMD N 00888000
Po 3542 2361
$EndPAD
$PAD
Sh "G11" O 197 197 0 0 0
At SMD N 00888000
Po 3936 2361
$EndPAD
$PAD
Sh "G12" O 197 197 0 0 0
At SMD N 00888000
Po 4330 2361
$EndPAD
$PAD
Sh "G13" O 197 197 0 0 0
At SMD N 00888000
Po 4723 2361
$EndPAD
$PAD
Sh "G14" O 197 197 0 0 0
At SMD N 00888000
Po 5117 2361
$EndPAD
$PAD
Sh "G15" O 197 197 0 0 0
At SMD N 00888000
Po 5511 2361
$EndPAD
$PAD
Sh "G16" O 196 197 0 0 0
At SMD N 00888000
Po 5905 2361
$EndPAD
$PAD
Sh "H1" O 196 197 0 0 0
At SMD N 00888000
Po 0 2755
$EndPAD
$PAD
Sh "H2" O 197 197 0 0 0
At SMD N 00888000
Po 393 2755
$EndPAD
$PAD
Sh "H3" O 197 197 0 0 0
At SMD N 00888000
Po 786 2755
$EndPAD
$PAD
Sh "H4" O 197 197 0 0 0
At SMD N 00888000
Po 1180 2755
$EndPAD
$PAD
Sh "H5" O 197 197 0 0 0
At SMD N 00888000
Po 1574 2755
$EndPAD
$PAD
Sh "H6" O 196 197 0 0 0
At SMD N 00888000
Po 1968 2755
$EndPAD
$PAD
Sh "H7" O 197 197 0 0 0
At SMD N 00888000
Po 2361 2755
$EndPAD
$PAD
Sh "H8" O 197 197 0 0 0
At SMD N 00888000
Po 2755 2755
$EndPAD
$PAD
Sh "H9" O 197 197 0 0 0
At SMD N 00888000
Po 3149 2755
$EndPAD
$PAD
Sh "H10" O 197 197 0 0 0
At SMD N 00888000
Po 3542 2755
$EndPAD
$PAD
Sh "H11" O 197 197 0 0 0
At SMD N 00888000
Po 3936 2755
$EndPAD
$PAD
Sh "H12" O 197 197 0 0 0
At SMD N 00888000
Po 4330 2755
$EndPAD
$PAD
Sh "H13" O 197 197 0 0 0
At SMD N 00888000
Po 4723 2755
$EndPAD
$PAD
Sh "H14" O 197 197 0 0 0
At SMD N 00888000
Po 5117 2755
$EndPAD
$PAD
Sh "H15" O 197 197 0 0 0
At SMD N 00888000
Po 5511 2755
$EndPAD
$PAD
Sh "H16" O 196 197 0 0 0
At SMD N 00888000
Po 5905 2755
$EndPAD
$PAD
Sh "J1" O 196 197 0 0 0
At SMD N 00888000
Po 0 3149
$EndPAD
$PAD
Sh "J2" O 197 197 0 0 0
At SMD N 00888000
Po 393 3149
$EndPAD
$PAD
Sh "J3" O 197 197 0 0 0
At SMD N 00888000
Po 786 3149
$EndPAD
$PAD
Sh "J4" O 197 197 0 0 0
At SMD N 00888000
Po 1180 3149
$EndPAD
$PAD
Sh "J5" O 197 197 0 0 0
At SMD N 00888000
Po 1574 3149
$EndPAD
$PAD
Sh "J6" O 196 197 0 0 0
At SMD N 00888000
Po 1968 3149
$EndPAD
$PAD
Sh "J7" O 197 197 0 0 0
At SMD N 00888000
Po 2361 3149
$EndPAD
$PAD
Sh "J8" O 197 197 0 0 0
At SMD N 00888000
Po 2755 3149
$EndPAD
$PAD
Sh "J9" O 197 197 0 0 0
At SMD N 00888000
Po 3149 3149
$EndPAD
$PAD
Sh "J10" O 197 197 0 0 0
At SMD N 00888000
Po 3542 3149
$EndPAD
$PAD
Sh "J11" O 197 197 0 0 0
At SMD N 00888000
Po 3936 3149
$EndPAD
$PAD
Sh "J12" O 197 197 0 0 0
At SMD N 00888000
Po 4330 3149
$EndPAD
$PAD
Sh "J13" O 197 197 0 0 0
At SMD N 00888000
Po 4723 3149
$EndPAD
$PAD
Sh "J14" O 197 197 0 0 0
At SMD N 00888000
Po 5117 3149
$EndPAD
$PAD
Sh "J15" O 197 197 0 0 0
At SMD N 00888000
Po 5511 3149
$EndPAD
$PAD
Sh "J16" O 196 197 0 0 0
At SMD N 00888000
Po 5905 3149
$EndPAD
$PAD
Sh "K1" O 196 197 0 0 0
At SMD N 00888000
Po 0 3542
$EndPAD
$PAD
Sh "K2" O 197 197 0 0 0
At SMD N 00888000
Po 393 3542
$EndPAD
$PAD
Sh "K3" O 197 197 0 0 0
At SMD N 00888000
Po 786 3542
$EndPAD
$PAD
Sh "K4" O 197 197 0 0 0
At SMD N 00888000
Po 1180 3542
$EndPAD
$PAD
Sh "K5" O 197 197 0 0 0
At SMD N 00888000
Po 1574 3542
$EndPAD
$PAD
Sh "K6" O 196 197 0 0 0
At SMD N 00888000
Po 1968 3542
$EndPAD
$PAD
Sh "K7" O 197 197 0 0 0
At SMD N 00888000
Po 2361 3542
$EndPAD
$PAD
Sh "K8" O 197 197 0 0 0
At SMD N 00888000
Po 2755 3542
$EndPAD
$PAD
Sh "K9" O 197 197 0 0 0
At SMD N 00888000
Po 3149 3542
$EndPAD
$PAD
Sh "K10" O 197 197 0 0 0
At SMD N 00888000
Po 3542 3542
$EndPAD
$PAD
Sh "K11" O 197 197 0 0 0
At SMD N 00888000
Po 3936 3542
$EndPAD
$PAD
Sh "K12" O 197 197 0 0 0
At SMD N 00888000
Po 4330 3542
$EndPAD
$PAD
Sh "K13" O 197 197 0 0 0
At SMD N 00888000
Po 4723 3542
$EndPAD
$PAD
Sh "K14" O 197 197 0 0 0
At SMD N 00888000
Po 5117 3542
$EndPAD
$PAD
Sh "K15" O 197 197 0 0 0
At SMD N 00888000
Po 5511 3542
$EndPAD
$PAD
Sh "K16" O 196 197 0 0 0
At SMD N 00888000
Po 5905 3542
$EndPAD
$PAD
Sh "L1" O 196 197 0 0 0
At SMD N 00888000
Po 0 3936
$EndPAD
$PAD
Sh "L2" O 197 197 0 0 0
At SMD N 00888000
Po 393 3936
$EndPAD
$PAD
Sh "L3" O 197 197 0 0 0
At SMD N 00888000
Po 786 3936
$EndPAD
$PAD
Sh "L4" O 197 197 0 0 0
At SMD N 00888000
Po 1180 3936
$EndPAD
$PAD
Sh "L5" O 197 197 0 0 0
At SMD N 00888000
Po 1574 3936
$EndPAD
$PAD
Sh "L6" O 196 197 0 0 0
At SMD N 00888000
Po 1968 3936
$EndPAD
$PAD
Sh "L7" O 197 197 0 0 0
At SMD N 00888000
Po 2361 3936
$EndPAD
$PAD
Sh "L8" O 197 197 0 0 0
At SMD N 00888000
Po 2755 3936
$EndPAD
$PAD
Sh "L9" O 197 197 0 0 0
At SMD N 00888000
Po 3149 3936
$EndPAD
$PAD
Sh "L10" O 197 197 0 0 0
At SMD N 00888000
Po 3542 3936
$EndPAD
$PAD
Sh "L11" O 197 197 0 0 0
At SMD N 00888000
Po 3936 3936
$EndPAD
$PAD
Sh "L12" O 197 197 0 0 0
At SMD N 00888000
Po 4330 3936
$EndPAD
$PAD
Sh "L13" O 197 197 0 0 0
At SMD N 00888000
Po 4723 3936
$EndPAD
$PAD
Sh "L14" O 197 197 0 0 0
At SMD N 00888000
Po 5117 3936
$EndPAD
$PAD
Sh "L15" O 197 197 0 0 0
At SMD N 00888000
Po 5511 3936
$EndPAD
$PAD
Sh "L16" O 196 197 0 0 0
At SMD N 00888000
Po 5905 3936
$EndPAD
$PAD
Sh "M1" O 196 197 0 0 0
At SMD N 00888000
Po 0 4330
$EndPAD
$PAD
Sh "M2" O 197 197 0 0 0
At SMD N 00888000
Po 393 4330
$EndPAD
$PAD
Sh "M3" O 197 197 0 0 0
At SMD N 00888000
Po 786 4330
$EndPAD
$PAD
Sh "M4" O 197 197 0 0 0
At SMD N 00888000
Po 1180 4330
$EndPAD
$PAD
Sh "M5" O 197 197 0 0 0
At SMD N 00888000
Po 1574 4330
$EndPAD
$PAD
Sh "M6" O 196 197 0 0 0
At SMD N 00888000
Po 1968 4330
$EndPAD
$PAD
Sh "M7" O 197 197 0 0 0
At SMD N 00888000
Po 2361 4330
$EndPAD
$PAD
Sh "M8" O 197 197 0 0 0
At SMD N 00888000
Po 2755 4330
$EndPAD
$PAD
Sh "M9" O 197 197 0 0 0
At SMD N 00888000
Po 3149 4330
$EndPAD
$PAD
Sh "M10" O 197 197 0 0 0
At SMD N 00888000
Po 3542 4330
$EndPAD
$PAD
Sh "M11" O 197 197 0 0 0
At SMD N 00888000
Po 3936 4330
$EndPAD
$PAD
Sh "M12" O 197 197 0 0 0
At SMD N 00888000
Po 4330 4330
$EndPAD
$PAD
Sh "M13" O 197 197 0 0 0
At SMD N 00888000
Po 4723 4330
$EndPAD
$PAD
Sh "M14" O 197 197 0 0 0
At SMD N 00888000
Po 5117 4330
$EndPAD
$PAD
Sh "M15" O 197 197 0 0 0
At SMD N 00888000
Po 5511 4330
$EndPAD
$PAD
Sh "M16" O 196 197 0 0 0
At SMD N 00888000
Po 5905 4330
$EndPAD
$PAD
Sh "N1" O 196 197 0 0 0
At SMD N 00888000
Po 0 4723
$EndPAD
$PAD
Sh "N2" O 197 197 0 0 0
At SMD N 00888000
Po 393 4723
$EndPAD
$PAD
Sh "N3" O 197 197 0 0 0
At SMD N 00888000
Po 786 4723
$EndPAD
$PAD
Sh "N4" O 197 197 0 0 0
At SMD N 00888000
Po 1180 4723
$EndPAD
$PAD
Sh "N5" O 197 197 0 0 0
At SMD N 00888000
Po 1574 4723
$EndPAD
$PAD
Sh "N6" O 196 197 0 0 0
At SMD N 00888000
Po 1968 4723
$EndPAD
$PAD
Sh "N7" O 197 197 0 0 0
At SMD N 00888000
Po 2361 4723
$EndPAD
$PAD
Sh "N8" O 197 197 0 0 0
At SMD N 00888000
Po 2755 4723
$EndPAD
$PAD
Sh "N9" O 197 197 0 0 0
At SMD N 00888000
Po 3149 4723
$EndPAD
$PAD
Sh "N10" O 197 197 0 0 0
At SMD N 00888000
Po 3542 4723
$EndPAD
$PAD
Sh "N11" O 197 197 0 0 0
At SMD N 00888000
Po 3936 4723
$EndPAD
$PAD
Sh "N12" O 197 197 0 0 0
At SMD N 00888000
Po 4330 4723
$EndPAD
$PAD
Sh "N13" O 197 197 0 0 0
At SMD N 00888000
Po 4723 4723
$EndPAD
$PAD
Sh "N14" O 197 197 0 0 0
At SMD N 00888000
Po 5117 4723
$EndPAD
$PAD
Sh "N15" O 197 197 0 0 0
At SMD N 00888000
Po 5511 4723
$EndPAD
$PAD
Sh "N16" O 196 197 0 0 0
At SMD N 00888000
Po 5905 4723
$EndPAD
$PAD
Sh "P1" O 196 197 0 0 0
At SMD N 00888000
Po 0 5117
$EndPAD
$PAD
Sh "P2" O 197 197 0 0 0
At SMD N 00888000
Po 393 5117
$EndPAD
$PAD
Sh "P3" O 197 197 0 0 0
At SMD N 00888000
Po 786 5117
$EndPAD
$PAD
Sh "P4" O 197 197 0 0 0
At SMD N 00888000
Po 1180 5117
$EndPAD
$PAD
Sh "P5" O 197 197 0 0 0
At SMD N 00888000
Po 1574 5117
$EndPAD
$PAD
Sh "P6" O 196 197 0 0 0
At SMD N 00888000
Po 1968 5117
$EndPAD
$PAD
Sh "P7" O 197 197 0 0 0
At SMD N 00888000
Po 2361 5117
$EndPAD
$PAD
Sh "P8" O 197 197 0 0 0
At SMD N 00888000
Po 2755 5117
$EndPAD
$PAD
Sh "P9" O 197 197 0 0 0
At SMD N 00888000
Po 3149 5117
$EndPAD
$PAD
Sh "P10" O 197 197 0 0 0
At SMD N 00888000
Po 3542 5117
$EndPAD
$PAD
Sh "P11" O 197 197 0 0 0
At SMD N 00888000
Po 3936 5117
$EndPAD
$PAD
Sh "P12" O 197 197 0 0 0
At SMD N 00888000
Po 4330 5117
$EndPAD
$PAD
Sh "P13" O 197 197 0 0 0
At SMD N 00888000
Po 4723 5117
$EndPAD
$PAD
Sh "P14" O 197 197 0 0 0
At SMD N 00888000
Po 5117 5117
$EndPAD
$PAD
Sh "P15" O 197 197 0 0 0
At SMD N 00888000
Po 5511 5117
$EndPAD
$PAD
Sh "P16" O 196 197 0 0 0
At SMD N 00888000
Po 5905 5117
$EndPAD
$PAD
Sh "R1" O 196 197 0 0 0
At SMD N 00888000
Po 0 5511
$EndPAD
$PAD
Sh "R2" O 197 197 0 0 0
At SMD N 00888000
Po 393 5511
$EndPAD
$PAD
Sh "R3" O 197 197 0 0 0
At SMD N 00888000
Po 786 5511
$EndPAD
$PAD
Sh "R4" O 197 197 0 0 0
At SMD N 00888000
Po 1180 5511
$EndPAD
$PAD
Sh "R5" O 197 197 0 0 0
At SMD N 00888000
Po 1574 5511
$EndPAD
$PAD
Sh "R6" O 196 197 0 0 0
At SMD N 00888000
Po 1968 5511
$EndPAD
$PAD
Sh "R7" O 197 197 0 0 0
At SMD N 00888000
Po 2361 5511
$EndPAD
$PAD
Sh "R8" O 197 197 0 0 0
At SMD N 00888000
Po 2755 5511
$EndPAD
$PAD
Sh "R9" O 197 197 0 0 0
At SMD N 00888000
Po 3149 5511
$EndPAD
$PAD
Sh "R10" O 197 197 0 0 0
At SMD N 00888000
Po 3542 5511
$EndPAD
$PAD
Sh "R11" O 197 197 0 0 0
At SMD N 00888000
Po 3936 5511
$EndPAD
$PAD
Sh "R12" O 197 197 0 0 0
At SMD N 00888000
Po 4330 5511
$EndPAD
$PAD
Sh "R13" O 197 197 0 0 0
At SMD N 00888000
Po 4723 5511
$EndPAD
$PAD
Sh "R14" O 197 197 0 0 0
At SMD N 00888000
Po 5117 5511
$EndPAD
$PAD
Sh "R15" O 197 197 0 0 0
At SMD N 00888000
Po 5511 5511
$EndPAD
$PAD
Sh "R16" O 196 197 0 0 0
At SMD N 00888000
Po 5905 5511
$EndPAD
$PAD
Sh "T1" O 196 196 0 0 0
At SMD N 00888000
Po 0 5905
$EndPAD
$PAD
Sh "T2" O 197 196 0 0 0
At SMD N 00888000
Po 393 5905
$EndPAD
$PAD
Sh "T3" O 197 196 0 0 0
At SMD N 00888000
Po 786 5905
$EndPAD
$PAD
Sh "T4" O 197 196 0 0 0
At SMD N 00888000
Po 1180 5905
$EndPAD
$PAD
Sh "T5" O 197 196 0 0 0
At SMD N 00888000
Po 1574 5905
$EndPAD
$PAD
Sh "T6" O 196 196 0 0 0
At SMD N 00888000
Po 1968 5905
$EndPAD
$PAD
Sh "T7" O 197 196 0 0 0
At SMD N 00888000
Po 2361 5905
$EndPAD
$PAD
Sh "T8" O 197 196 0 0 0
At SMD N 00888000
Po 2755 5905
$EndPAD
$PAD
Sh "T9" O 197 196 0 0 0
At SMD N 00888000
Po 3149 5905
$EndPAD
$PAD
Sh "T10" O 197 196 0 0 0
At SMD N 00888000
Po 3542 5905
$EndPAD
$PAD
Sh "T11" O 197 196 0 0 0
At SMD N 00888000
Po 3936 5905
$EndPAD
$PAD
Sh "T12" O 197 196 0 0 0
At SMD N 00888000
Po 4330 5905
$EndPAD
$PAD
Sh "T13" O 197 196 0 0 0
At SMD N 00888000
Po 4723 5905
$EndPAD
$PAD
Sh "T14" O 197 196 0 0 0
At SMD N 00888000
Po 5117 5905
$EndPAD
$PAD
Sh "T15" O 197 196 0 0 0
At SMD N 00888000
Po 5511 5905
$EndPAD
$PAD
Sh "T16" O 196 196 0 0 0
At SMD N 00888000
Po 5905 5905
$EndPAD
DS 6299 -393 6299 6299 50 21
DS 6299 6299 -393 6299 50 21
DS -393 6299 -393 -393 50 21
DS -393 -393 6299 -393 50 21
DS 0 -393 -393 0 50 21
$EndMODULE BGA-256
$MODULE BGA-484
Po 0 0 0 15 595926E4 00000000 ~~
Li BGA-484
Sc 595926E4
At SMD
Op 0 0 0
T0 0 -150 200 200 0 40 N V 25 "BGA-484"
T1 0 150 200 200 0 40 N I 25 "Val*"
$PAD
Sh "A1" O 236 236 0 0 0
At SMD N 00888000
Po 0 0
$EndPAD
$PAD
Sh "A2" O 236 236 0 0 0
At SMD N 00888000
Po 393 0
$EndPAD
$PAD
Sh "A3" O 236 236 0 0 0
At SMD N 00888000
Po 787 0
$EndPAD
$PAD
Sh "A4" O 237 236 0 0 0
At SMD N 00888000
Po 1180 0
$EndPAD
$PAD
Sh "A5" O 236 236 0 0 0
At SMD N 00888000
Po 1574 0
$EndPAD
$PAD
Sh "A6" O 236 236 0 0 0
At SMD N 00888000
Po 1968 0
$EndPAD
$PAD
Sh "A7" O 236 236 0 0 0
At SMD N 00888000
Po 2362 0
$EndPAD
$PAD
Sh "A8" O 237 236 0 0 0
At SMD N 00888000
Po 2755 0
$EndPAD
$PAD
Sh "A9" O 236 236 0 0 0
At SMD N 00888000
Po 3149 0
$EndPAD
$PAD
Sh "A10" O 236 236 0 0 0
At SMD N 00888000
Po 3543 0
$EndPAD
$PAD
Sh "A11" O 237 236 0 0 0
At SMD N 00888000
Po 3936 0
$EndPAD
$PAD
Sh "A12" O 236 236 0 0 0
At SMD N 00888000
Po 4330 0
$EndPAD
$PAD
Sh "A13" O 236 236 0 0 0
At SMD N 00888000
Po 4724 0
$EndPAD
$PAD
Sh "A14" O 236 236 0 0 0
At SMD N 00888000
Po 5118 0
$EndPAD
$PAD
Sh "A15" O 236 236 0 0 0
At SMD N 00888000
Po 5511 0
$EndPAD
$PAD
Sh "A16" O 236 236 0 0 0
At SMD N 00888000
Po 5905 0
$EndPAD
$PAD
Sh "A17" O 236 236 0 0 0
At SMD N 00888000
Po 6299 0
$EndPAD
$PAD
Sh "A18" O 237 236 0 0 0
At SMD N 00888000
Po 6692 0
$EndPAD
$PAD
Sh "A19" O 236 236 0 0 0
At SMD N 00888000
Po 7086 0
$EndPAD
$PAD
Sh "A20" O 236 236 0 0 0
At SMD N 00888000
Po 7480 0
$EndPAD
$PAD
Sh "A21" O 237 236 0 0 0
At SMD N 00888000
Po 7873 0
$EndPAD
$PAD
Sh "A22" O 236 236 0 0 0
At SMD N 00888000
Po 8267 0
$EndPAD
$PAD
Sh "B1" O 236 236 0 0 0
At SMD N 00888000
Po 0 393
$EndPAD
$PAD
Sh "B2" O 236 236 0 0 0
At SMD N 00888000
Po 393 393
$EndPAD
$PAD
Sh "B3" O 236 236 0 0 0
At SMD N 00888000
Po 787 393
$EndPAD
$PAD
Sh "B4" O 237 236 0 0 0
At SMD N 00888000
Po 1180 393
$EndPAD
$PAD
Sh "B5" O 236 236 0 0 0
At SMD N 00888000
Po 1574 393
$EndPAD
$PAD
Sh "B6" O 236 236 0 0 0
At SMD N 00888000
Po 1968 393
$EndPAD
$PAD
Sh "B7" O 236 236 0 0 0
At SMD N 00888000
Po 2362 393
$EndPAD
$PAD
Sh "B8" O 237 236 0 0 0
At SMD N 00888000
Po 2755 393
$EndPAD
$PAD
Sh "B9" O 236 236 0 0 0
At SMD N 00888000
Po 3149 393
$EndPAD
$PAD
Sh "B10" O 236 236 0 0 0
At SMD N 00888000
Po 3543 393
$EndPAD
$PAD
Sh "B11" O 237 236 0 0 0
At SMD N 00888000
Po 3936 393
$EndPAD
$PAD
Sh "B12" O 236 236 0 0 0
At SMD N 00888000
Po 4330 393
$EndPAD
$PAD
Sh "B13" O 236 236 0 0 0
At SMD N 00888000
Po 4724 393
$EndPAD
$PAD
Sh "B14" O 236 236 0 0 0
At SMD N 00888000
Po 5118 393
$EndPAD
$PAD
Sh "B15" O 236 236 0 0 0
At SMD N 00888000
Po 5511 393
$EndPAD
$PAD
Sh "B16" O 236 236 0 0 0
At SMD N 00888000
Po 5905 393
$EndPAD
$PAD
Sh "B17" O 236 236 0 0 0
At SMD N 00888000
Po 6299 393
$EndPAD
$PAD
Sh "B18" O 237 236 0 0 0
At SMD N 00888000
Po 6692 393
$EndPAD
$PAD
Sh "B19" O 236 236 0 0 0
At SMD N 00888000
Po 7086 393
$EndPAD
$PAD
Sh "B20" O 236 236 0 0 0
At SMD N 00888000
Po 7480 393
$EndPAD
$PAD
Sh "B21" O 237 236 0 0 0
At SMD N 00888000
Po 7873 393
$EndPAD
$PAD
Sh "B22" O 236 236 0 0 0
At SMD N 00888000
Po 8267 393
$EndPAD
$PAD
Sh "C1" O 236 236 0 0 0
At SMD N 00888000
Po 0 787
$EndPAD
$PAD
Sh "C2" O 236 236 0 0 0
At SMD N 00888000
Po 393 787
$EndPAD
$PAD
Sh "C3" O 236 236 0 0 0
At SMD N 00888000
Po 787 787
$EndPAD
$PAD
Sh "C4" O 237 236 0 0 0
At SMD N 00888000
Po 1180 787
$EndPAD
$PAD
Sh "C5" O 236 236 0 0 0
At SMD N 00888000
Po 1574 787
$EndPAD
$PAD
Sh "C6" O 236 236 0 0 0
At SMD N 00888000
Po 1968 787
$EndPAD
$PAD
Sh "C7" O 236 236 0 0 0
At SMD N 00888000
Po 2362 787
$EndPAD
$PAD
Sh "C8" O 237 236 0 0 0
At SMD N 00888000
Po 2755 787
$EndPAD
$PAD
Sh "C9" O 236 236 0 0 0
At SMD N 00888000
Po 3149 787
$EndPAD
$PAD
Sh "C10" O 236 236 0 0 0
At SMD N 00888000
Po 3543 787
$EndPAD
$PAD
Sh "C11" O 237 236 0 0 0
At SMD N 00888000
Po 3936 787
$EndPAD
$PAD
Sh "C12" O 236 236 0 0 0
At SMD N 00888000
Po 4330 787
$EndPAD
$PAD
Sh "C13" O 236 236 0 0 0
At SMD N 00888000
Po 4724 787
$EndPAD
$PAD
Sh "C14" O 236 236 0 0 0
At SMD N 00888000
Po 5118 787
$EndPAD
$PAD
Sh "C15" O 236 236 0 0 0
At SMD N 00888000
Po 5511 787
$EndPAD
$PAD
Sh "C16" O 236 236 0 0 0
At SMD N 00888000
Po 5905 787
$EndPAD
$PAD
Sh "C17" O 236 236 0 0 0
At SMD N 00888000
Po 6299 787
$EndPAD
$PAD
Sh "C18" O 237 236 0 0 0
At SMD N 00888000
Po 6692 787
$EndPAD
$PAD
Sh "C19" O 236 236 0 0 0
At SMD N 00888000
Po 7086 787
$EndPAD
$PAD
Sh "C20" O 236 236 0 0 0
At SMD N 00888000
Po 7480 787
$EndPAD
$PAD
Sh "C21" O 237 236 0 0 0
At SMD N 00888000
Po 7873 787
$EndPAD
$PAD
Sh "C22" O 236 236 0 0 0
At SMD N 00888000
Po 8267 787
$EndPAD
$PAD
Sh "D1" O 236 237 0 0 0
At SMD N 00888000
Po 0 1180
$EndPAD
$PAD
Sh "D2" O 236 237 0 0 0
At SMD N 00888000
Po 393 1180
$EndPAD
$PAD
Sh "D3" O 236 237 0 0 0
At SMD N 00888000
Po 787 1180
$EndPAD
$PAD
Sh "D4" O 237 237 0 0 0
At SMD N 00888000
Po 1180 1180
$EndPAD
$PAD
Sh "D5" O 236 237 0 0 0
At SMD N 00888000
Po 1574 1180
$EndPAD
$PAD
Sh "D6" O 236 237 0 0 0
At SMD N 00888000
Po 1968 1180
$EndPAD
$PAD
Sh "D7" O 236 237 0 0 0
At SMD N 00888000
Po 2362 1180
$EndPAD
$PAD
Sh "D8" O 237 237 0 0 0
At SMD N 00888000
Po 2755 1180
$EndPAD
$PAD
Sh "D9" O 236 237 0 0 0
At SMD N 00888000
Po 3149 1180
$EndPAD
$PAD
Sh "D10" O 236 237 0 0 0
At SMD N 00888000
Po 3543 1180
$EndPAD
$PAD
Sh "D11" O 237 237 0 0 0
At SMD N 00888000
Po 3936 1180
$EndPAD
$PAD
Sh "D12" O 236 237 0 0 0
At SMD N 00888000
Po 4330 1180
$EndPAD
$PAD
Sh "D13" O 236 237 0 0 0
At SMD N 00888000
Po 4724 1180
$EndPAD
$PAD
Sh "D14" O 236 237 0 0 0
At SMD N 00888000
Po 5118 1180
$EndPAD
$PAD
Sh "D15" O 236 237 0 0 0
At SMD N 00888000
Po 5511 1180
$EndPAD
$PAD
Sh "D16" O 236 237 0 0 0
At SMD N 00888000
Po 5905 1180
$EndPAD
$PAD
Sh "D17" O 236 237 0 0 0
At SMD N 00888000
Po 6299 1180
$EndPAD
$PAD
Sh "D18" O 237 237 0 0 0
At SMD N 00888000
Po 6692 1180
$EndPAD
$PAD
Sh "D19" O 236 237 0 0 0
At SMD N 00888000
Po 7086 1180
$EndPAD
$PAD
Sh "D20" O 236 237 0 0 0
At SMD N 00888000
Po 7480 1180
$EndPAD
$PAD
Sh "D21" O 237 237 0 0 0
At SMD N 00888000
Po 7873 1180
$EndPAD
$PAD
Sh "D22" O 236 237 0 0 0
At SMD N 00888000
Po 8267 1180
$EndPAD
$PAD
Sh "E1" O 236 236 0 0 0
At SMD N 00888000
Po 0 1574
$EndPAD
$PAD
Sh "E2" O 236 236 0 0 0
At SMD N 00888000
Po 393 1574
$EndPAD
$PAD
Sh "E3" O 236 236 0 0 0
At SMD N 00888000
Po 787 1574
$EndPAD
$PAD
Sh "E4" O 237 236 0 0 0
At SMD N 00888000
Po 1180 1574
$EndPAD
$PAD
Sh "E5" O 236 236 0 0 0
At SMD N 00888000
Po 1574 1574
$EndPAD
$PAD
Sh "E6" O 236 236 0 0 0
At SMD N 00888000
Po 1968 1574
$EndPAD
$PAD
Sh "E7" O 236 236 0 0 0
At SMD N 00888000
Po 2362 1574
$EndPAD
$PAD
Sh "E8" O 237 236 0 0 0
At SMD N 00888000
Po 2755 1574
$EndPAD
$PAD
Sh "E9" O 236 236 0 0 0
At SMD N 00888000
Po 3149 1574
$EndPAD
$PAD
Sh "E10" O 236 236 0 0 0
At SMD N 00888000
Po 3543 1574
$EndPAD
$PAD
Sh "E11" O 237 236 0 0 0
At SMD N 00888000
Po 3936 1574
$EndPAD
$PAD
Sh "E12" O 236 236 0 0 0
At SMD N 00888000
Po 4330 1574
$EndPAD
$PAD
Sh "E13" O 236 236 0 0 0
At SMD N 00888000
Po 4724 1574
$EndPAD
$PAD
Sh "E14" O 236 236 0 0 0
At SMD N 00888000
Po 5118 1574
$EndPAD
$PAD
Sh "E15" O 236 236 0 0 0
At SMD N 00888000
Po 5511 1574
$EndPAD
$PAD
Sh "E16" O 236 236 0 0 0
At SMD N 00888000
Po 5905 1574
$EndPAD
$PAD
Sh "E17" O 236 236 0 0 0
At SMD N 00888000
Po 6299 1574
$EndPAD
$PAD
Sh "E18" O 237 236 0 0 0
At SMD N 00888000
Po 6692 1574
$EndPAD
$PAD
Sh "E19" O 236 236 0 0 0
At SMD N 00888000
Po 7086 1574
$EndPAD
$PAD
Sh "E20" O 236 236 0 0 0
At SMD N 00888000
Po 7480 1574
$EndPAD
$PAD
Sh "E21" O 237 236 0 0 0
At SMD N 00888000
Po 7873 1574
$EndPAD
$PAD
Sh "E22" O 236 236 0 0 0
At SMD N 00888000
Po 8267 1574
$EndPAD
$PAD
Sh "F1" O 236 236 0 0 0
At SMD N 00888000
Po 0 1968
$EndPAD
$PAD
Sh "F2" O 236 236 0 0 0
At SMD N 00888000
Po 393 1968
$EndPAD
$PAD
Sh "F3" O 236 236 0 0 0
At SMD N 00888000
Po 787 1968
$EndPAD
$PAD
Sh "F4" O 237 236 0 0 0
At SMD N 00888000
Po 1180 1968
$EndPAD
$PAD
Sh "F5" O 236 236 0 0 0
At SMD N 00888000
Po 1574 1968
$EndPAD
$PAD
Sh "F6" O 236 236 0 0 0
At SMD N 00888000
Po 1968 1968
$EndPAD
$PAD
Sh "F7" O 236 236 0 0 0
At SMD N 00888000
Po 2362 1968
$EndPAD
$PAD
Sh "F8" O 237 236 0 0 0
At SMD N 00888000
Po 2755 1968
$EndPAD
$PAD
Sh "F9" O 236 236 0 0 0
At SMD N 00888000
Po 3149 1968
$EndPAD
$PAD
Sh "F10" O 236 236 0 0 0
At SMD N 00888000
Po 3543 1968
$EndPAD
$PAD
Sh "F11" O 237 236 0 0 0
At SMD N 00888000
Po 3936 1968
$EndPAD
$PAD
Sh "F12" O 236 236 0 0 0
At SMD N 00888000
Po 4330 1968
$EndPAD
$PAD
Sh "F13" O 236 236 0 0 0
At SMD N 00888000
Po 4724 1968
$EndPAD
$PAD
Sh "F14" O 236 236 0 0 0
At SMD N 00888000
Po 5118 1968
$EndPAD
$PAD
Sh "F15" O 236 236 0 0 0
At SMD N 00888000
Po 5511 1968
$EndPAD
$PAD
Sh "F16" O 236 236 0 0 0
At SMD N 00888000
Po 5905 1968
$EndPAD
$PAD
Sh "F17" O 236 236 0 0 0
At SMD N 00888000
Po 6299 1968
$EndPAD
$PAD
Sh "F18" O 237 236 0 0 0
At SMD N 00888000
Po 6692 1968
$EndPAD
$PAD
Sh "F19" O 236 236 0 0 0
At SMD N 00888000
Po 7086 1968
$EndPAD
$PAD
Sh "F20" O 236 236 0 0 0
At SMD N 00888000
Po 7480 1968
$EndPAD
$PAD
Sh "F21" O 237 236 0 0 0
At SMD N 00888000
Po 7873 1968
$EndPAD
$PAD
Sh "F22" O 236 236 0 0 0
At SMD N 00888000
Po 8267 1968
$EndPAD
$PAD
Sh "G1" O 236 236 0 0 0
At SMD N 00888000
Po 0 2362
$EndPAD
$PAD
Sh "G2" O 236 236 0 0 0
At SMD N 00888000
Po 393 2362
$EndPAD
$PAD
Sh "G3" O 236 236 0 0 0
At SMD N 00888000
Po 787 2362
$EndPAD
$PAD
Sh "G4" O 237 236 0 0 0
At SMD N 00888000
Po 1180 2362
$EndPAD
$PAD
Sh "G5" O 236 236 0 0 0
At SMD N 00888000
Po 1574 2362
$EndPAD
$PAD
Sh "G6" O 236 236 0 0 0
At SMD N 00888000
Po 1968 2362
$EndPAD
$PAD
Sh "G7" O 236 236 0 0 0
At SMD N 00888000
Po 2362 2362
$EndPAD
$PAD
Sh "G8" O 237 236 0 0 0
At SMD N 00888000
Po 2755 2362
$EndPAD
$PAD
Sh "G9" O 236 236 0 0 0
At SMD N 00888000
Po 3149 2362
$EndPAD
$PAD
Sh "G10" O 236 236 0 0 0
At SMD N 00888000
Po 3543 2362
$EndPAD
$PAD
Sh "G11" O 237 236 0 0 0
At SMD N 00888000
Po 3936 2362
$EndPAD
$PAD
Sh "G12" O 236 236 0 0 0
At SMD N 00888000
Po 4330 2362
$EndPAD
$PAD
Sh "G13" O 236 236 0 0 0
At SMD N 00888000
Po 4724 2362
$EndPAD
$PAD
Sh "G14" O 236 236 0 0 0
At SMD N 00888000
Po 5118 2362
$EndPAD
$PAD
Sh "G15" O 236 236 0 0 0
At SMD N 00888000
Po 5511 2362
$EndPAD
$PAD
Sh "G16" O 236 236 0 0 0
At SMD N 00888000
Po 5905 2362
$EndPAD
$PAD
Sh "G17" O 236 236 0 0 0
At SMD N 00888000
Po 6299 2362
$EndPAD
$PAD
Sh "G18" O 237 236 0 0 0
At SMD N 00888000
Po 6692 2362
$EndPAD
$PAD
Sh "G19" O 236 236 0 0 0
At SMD N 00888000
Po 7086 2362
$EndPAD
$PAD
Sh "G20" O 236 236 0 0 0
At SMD N 00888000
Po 7480 2362
$EndPAD
$PAD
Sh "G21" O 237 236 0 0 0
At SMD N 00888000
Po 7873 2362
$EndPAD
$PAD
Sh "G22" O 236 236 0 0 0
At SMD N 00888000
Po 8267 2362
$EndPAD
$PAD
Sh "H1" O 236 237 0 0 0
At SMD N 00888000
Po 0 2755
$EndPAD
$PAD
Sh "H2" O 236 237 0 0 0
At SMD N 00888000
Po 393 2755
$EndPAD
$PAD
Sh "H3" O 236 237 0 0 0
At SMD N 00888000
Po 787 2755
$EndPAD
$PAD
Sh "H4" O 237 237 0 0 0
At SMD N 00888000
Po 1180 2755
$EndPAD
$PAD
Sh "H5" O 236 237 0 0 0
At SMD N 00888000
Po 1574 2755
$EndPAD
$PAD
Sh "H6" O 236 237 0 0 0
At SMD N 00888000
Po 1968 2755
$EndPAD
$PAD
Sh "H7" O 236 237 0 0 0
At SMD N 00888000
Po 2362 2755
$EndPAD
$PAD
Sh "H8" O 237 237 0 0 0
At SMD N 00888000
Po 2755 2755
$EndPAD
$PAD
Sh "H9" O 236 237 0 0 0
At SMD N 00888000
Po 3149 2755
$EndPAD
$PAD
Sh "H10" O 236 237 0 0 0
At SMD N 00888000
Po 3543 2755
$EndPAD
$PAD
Sh "H11" O 237 237 0 0 0
At SMD N 00888000
Po 3936 2755
$EndPAD
$PAD
Sh "H12" O 236 237 0 0 0
At SMD N 00888000
Po 4330 2755
$EndPAD
$PAD
Sh "H13" O 236 237 0 0 0
At SMD N 00888000
Po 4724 2755
$EndPAD
$PAD
Sh "H14" O 236 237 0 0 0
At SMD N 00888000
Po 5118 2755
$EndPAD
$PAD
Sh "H15" O 236 237 0 0 0
At SMD N 00888000
Po 5511 2755
$EndPAD
$PAD
Sh "H16" O 236 237 0 0 0
At SMD N 00888000
Po 5905 2755
$EndPAD
$PAD
Sh "H17" O 236 237 0 0 0
At SMD N 00888000
Po 6299 2755
$EndPAD
$PAD
Sh "H18" O 237 237 0 0 0
At SMD N 00888000
Po 6692 2755
$EndPAD
$PAD
Sh "H19" O 236 237 0 0 0
At SMD N 00888000
Po 7086 2755
$EndPAD
$PAD
Sh "H20" O 236 237 0 0 0
At SMD N 00888000
Po 7480 2755
$EndPAD
$PAD
Sh "H21" O 237 237 0 0 0
At SMD N 00888000
Po 7873 2755
$EndPAD
$PAD
Sh "H22" O 236 237 0 0 0
At SMD N 00888000
Po 8267 2755
$EndPAD
$PAD
Sh "J1" O 236 236 0 0 0
At SMD N 00888000
Po 0 3149
$EndPAD
$PAD
Sh "J2" O 236 236 0 0 0
At SMD N 00888000
Po 393 3149
$EndPAD
$PAD
Sh "J3" O 236 236 0 0 0
At SMD N 00888000
Po 787 3149
$EndPAD
$PAD
Sh "J4" O 237 236 0 0 0
At SMD N 00888000
Po 1180 3149
$EndPAD
$PAD
Sh "J5" O 236 236 0 0 0
At SMD N 00888000
Po 1574 3149
$EndPAD
$PAD
Sh "J6" O 236 236 0 0 0
At SMD N 00888000
Po 1968 3149
$EndPAD
$PAD
Sh "J7" O 236 236 0 0 0
At SMD N 00888000
Po 2362 3149
$EndPAD
$PAD
Sh "J8" O 237 236 0 0 0
At SMD N 00888000
Po 2755 3149
$EndPAD
$PAD
Sh "J9" O 236 236 0 0 0
At SMD N 00888000
Po 3149 3149
$EndPAD
$PAD
Sh "J10" O 236 236 0 0 0
At SMD N 00888000
Po 3543 3149
$EndPAD
$PAD
Sh "J11" O 237 236 0 0 0
At SMD N 00888000
Po 3936 3149
$EndPAD
$PAD
Sh "J12" O 236 236 0 0 0
At SMD N 00888000
Po 4330 3149
$EndPAD
$PAD
Sh "J13" O 236 236 0 0 0
At SMD N 00888000
Po 4724 3149
$EndPAD
$PAD
Sh "J14" O 236 236 0 0 0
At SMD N 00888000
Po 5118 3149
$EndPAD
$PAD
Sh "J15" O 236 236 0 0 0
At SMD N 00888000
Po 5511 3149
$EndPAD
$PAD
Sh "J16" O 236 236 0 0 0
At SMD N 00888000
Po 5905 3149
$EndPAD
$PAD
Sh "J17" O 236 236 0 0 0
At SMD N 00888000
Po 6299 3149
$EndPAD
$PAD
Sh "J18" O 237 236 0 0 0
At SMD N 00888000
Po 6692 3149
$EndPAD
$PAD
Sh "J19" O 236 236 0 0 0
At SMD N 00888000
Po 7086 3149
$EndPAD
$PAD
Sh "J20" O 236 236 0 0 0
At SMD N 00888000
Po 7480 3149
$EndPAD
$PAD
Sh "J21" O 237 236 0 0 0
At SMD N 00888000
Po 7873 3149
$EndPAD
$PAD
Sh "J22" O 236 236 0 0 0
At SMD N 00888000
Po 8267 3149
$EndPAD
$PAD
Sh "K1" O 236 236 0 0 0
At SMD N 00888000
Po 0 3543
$EndPAD
$PAD
Sh "K2" O 236 236 0 0 0
At SMD N 00888000
Po 393 3543
$EndPAD
$PAD
Sh "K3" O 236 236 0 0 0
At SMD N 00888000
Po 787 3543
$EndPAD
$PAD
Sh "K4" O 237 236 0 0 0
At SMD N 00888000
Po 1180 3543
$EndPAD
$PAD
Sh "K5" O 236 236 0 0 0
At SMD N 00888000
Po 1574 3543
$EndPAD
$PAD
Sh "K6" O 236 236 0 0 0
At SMD N 00888000
Po 1968 3543
$EndPAD
$PAD
Sh "K7" O 236 236 0 0 0
At SMD N 00888000
Po 2362 3543
$EndPAD
$PAD
Sh "K8" O 237 236 0 0 0
At SMD N 00888000
Po 2755 3543
$EndPAD
$PAD
Sh "K9" O 236 236 0 0 0
At SMD N 00888000
Po 3149 3543
$EndPAD
$PAD
Sh "K10" O 236 236 0 0 0
At SMD N 00888000
Po 3543 3543
$EndPAD
$PAD
Sh "K11" O 237 236 0 0 0
At SMD N 00888000
Po 3936 3543
$EndPAD
$PAD
Sh "K12" O 236 236 0 0 0
At SMD N 00888000
Po 4330 3543
$EndPAD
$PAD
Sh "K13" O 236 236 0 0 0
At SMD N 00888000
Po 4724 3543
$EndPAD
$PAD
Sh "K14" O 236 236 0 0 0
At SMD N 00888000
Po 5118 3543
$EndPAD
$PAD
Sh "K15" O 236 236 0 0 0
At SMD N 00888000
Po 5511 3543
$EndPAD
$PAD
Sh "K16" O 236 236 0 0 0
At SMD N 00888000
Po 5905 3543
$EndPAD
$PAD
Sh "K17" O 236 236 0 0 0
At SMD N 00888000
Po 6299 3543
$EndPAD
$PAD
Sh "K18" O 237 236 0 0 0
At SMD N 00888000
Po 6692 3543
$EndPAD
$PAD
Sh "K19" O 236 236 0 0 0
At SMD N 00888000
Po 7086 3543
$EndPAD
$PAD
Sh "K20" O 236 236 0 0 0
At SMD N 00888000
Po 7480 3543
$EndPAD
$PAD
Sh "K21" O 237 236 0 0 0
At SMD N 00888000
Po 7873 3543
$EndPAD
$PAD
Sh "K22" O 236 236 0 0 0
At SMD N 00888000
Po 8267 3543
$EndPAD
$PAD
Sh "L1" O 236 237 0 0 0
At SMD N 00888000
Po 0 3936
$EndPAD
$PAD
Sh "L2" O 236 237 0 0 0
At SMD N 00888000
Po 393 3936
$EndPAD
$PAD
Sh "L3" O 236 237 0 0 0
At SMD N 00888000
Po 787 3936
$EndPAD
$PAD
Sh "L4" O 237 237 0 0 0
At SMD N 00888000
Po 1180 3936
$EndPAD
$PAD
Sh "L5" O 236 237 0 0 0
At SMD N 00888000
Po 1574 3936
$EndPAD
$PAD
Sh "L6" O 236 237 0 0 0
At SMD N 00888000
Po 1968 3936
$EndPAD
$PAD
Sh "L7" O 236 237 0 0 0
At SMD N 00888000
Po 2362 3936
$EndPAD
$PAD
Sh "L8" O 237 237 0 0 0
At SMD N 00888000
Po 2755 3936
$EndPAD
$PAD
Sh "L9" O 236 237 0 0 0
At SMD N 00888000
Po 3149 3936
$EndPAD
$PAD
Sh "L10" O 236 237 0 0 0
At SMD N 00888000
Po 3543 3936
$EndPAD
$PAD
Sh "L11" O 237 237 0 0 0
At SMD N 00888000
Po 3936 3936
$EndPAD
$PAD
Sh "L12" O 236 237 0 0 0
At SMD N 00888000
Po 4330 3936
$EndPAD
$PAD
Sh "L13" O 236 237 0 0 0
At SMD N 00888000
Po 4724 3936
$EndPAD
$PAD
Sh "L14" O 236 237 0 0 0
At SMD N 00888000
Po 5118 3936
$EndPAD
$PAD
Sh "L15" O 236 237 0 0 0
At SMD N 00888000
Po 5511 3936
$EndPAD
$PAD
Sh "L16" O 236 237 0 0 0
At SMD N 00888000
Po 5905 3936
$EndPAD
$PAD
Sh "L17" O 236 237 0 0 0
At SMD N 00888000
Po 6299 3936
$EndPAD
$PAD
Sh "L18" O 237 237 0 0 0
At SMD N 00888000
Po 6692 3936
$EndPAD
$PAD
Sh "L19" O 236 237 0 0 0
At SMD N 00888000
Po 7086 3936
$EndPAD
$PAD
Sh "L20" O 236 237 0 0 0
At SMD N 00888000
Po 7480 3936
$EndPAD
$PAD
Sh "L21" O 237 237 0 0 0
At SMD N 00888000
Po 7873 3936
$EndPAD
$PAD
Sh "L22" O 236 237 0 0 0
At SMD N 00888000
Po 8267 3936
$EndPAD
$PAD
Sh "M1" O 236 236 0 0 0
At SMD N 00888000
Po 0 4330
$EndPAD
$PAD
Sh "M2" O 236 236 0 0 0
At SMD N 00888000
Po 393 4330
$EndPAD
$PAD
Sh "M3" O 236 236 0 0 0
At SMD N 00888000
Po 787 4330
$EndPAD
$PAD
Sh "M4" O 237 236 0 0 0
At SMD N 00888000
Po 1180 4330
$EndPAD
$PAD
Sh "M5" O 236 236 0 0 0
At SMD N 00888000
Po 1574 4330
$EndPAD
$PAD
Sh "M6" O 236 236 0 0 0
At SMD N 00888000
Po 1968 4330
$EndPAD
$PAD
Sh "M7" O 236 236 0 0 0
At SMD N 00888000
Po 2362 4330
$EndPAD
$PAD
Sh "M8" O 237 236 0 0 0
At SMD N 00888000
Po 2755 4330
$EndPAD
$PAD
Sh "M9" O 236 236 0 0 0
At SMD N 00888000
Po 3149 4330
$EndPAD
$PAD
Sh "M10" O 236 236 0 0 0
At SMD N 00888000
Po 3543 4330
$EndPAD
$PAD
Sh "M11" O 237 236 0 0 0
At SMD N 00888000
Po 3936 4330
$EndPAD
$PAD
Sh "M12" O 236 236 0 0 0
At SMD N 00888000
Po 4330 4330
$EndPAD
$PAD
Sh "M13" O 236 236 0 0 0
At SMD N 00888000
Po 4724 4330
$EndPAD
$PAD
Sh "M14" O 236 236 0 0 0
At SMD N 00888000
Po 5118 4330
$EndPAD
$PAD
Sh "M15" O 236 236 0 0 0
At SMD N 00888000
Po 5511 4330
$EndPAD
$PAD
Sh "M16" O 236 236 0 0 0
At SMD N 00888000
Po 5905 4330
$EndPAD
$PAD
Sh "M17" O 236 236 0 0 0
At SMD N 00888000
Po 6299 4330
$EndPAD
$PAD
Sh "M18" O 237 236 0 0 0
At SMD N 00888000
Po 6692 4330
$EndPAD
$PAD
Sh "M19" O 236 236 0 0 0
At SMD N 00888000
Po 7086 4330
$EndPAD
$PAD
Sh "M20" O 236 236 0 0 0
At SMD N 00888000
Po 7480 4330
$EndPAD
$PAD
Sh "M21" O 237 236 0 0 0
At SMD N 00888000
Po 7873 4330
$EndPAD
$PAD
Sh "M22" O 236 236 0 0 0
At SMD N 00888000
Po 8267 4330
$EndPAD
$PAD
Sh "N1" O 236 236 0 0 0
At SMD N 00888000
Po 0 4724
$EndPAD
$PAD
Sh "N2" O 236 236 0 0 0
At SMD N 00888000
Po 393 4724
$EndPAD
$PAD
Sh "N3" O 236 236 0 0 0
At SMD N 00888000
Po 787 4724
$EndPAD
$PAD
Sh "N4" O 237 236 0 0 0
At SMD N 00888000
Po 1180 4724
$EndPAD
$PAD
Sh "N5" O 236 236 0 0 0
At SMD N 00888000
Po 1574 4724
$EndPAD
$PAD
Sh "N6" O 236 236 0 0 0
At SMD N 00888000
Po 1968 4724
$EndPAD
$PAD
Sh "N7" O 236 236 0 0 0
At SMD N 00888000
Po 2362 4724
$EndPAD
$PAD
Sh "N8" O 237 236 0 0 0
At SMD N 00888000
Po 2755 4724
$EndPAD
$PAD
Sh "N9" O 236 236 0 0 0
At SMD N 00888000
Po 3149 4724
$EndPAD
$PAD
Sh "N10" O 236 236 0 0 0
At SMD N 00888000
Po 3543 4724
$EndPAD
$PAD
Sh "N11" O 237 236 0 0 0
At SMD N 00888000
Po 3936 4724
$EndPAD
$PAD
Sh "N12" O 236 236 0 0 0
At SMD N 00888000
Po 4330 4724
$EndPAD
$PAD
Sh "N13" O 236 236 0 0 0
At SMD N 00888000
Po 4724 4724
$EndPAD
$PAD
Sh "N14" O 236 236 0 0 0
At SMD N 00888000
Po 5118 4724
$EndPAD
$PAD
Sh "N15" O 236 236 0 0 0
At SMD N 00888000
Po 5511 4724
$EndPAD
$PAD
Sh "N16" O 236 236 0 0 0
At SMD N 00888000
Po 5905 4724
$EndPAD
$PAD
Sh "N17" O 236 236 0 0 0
At SMD N 00888000
Po 6299 4724
$EndPAD
$PAD
Sh "N18" O 237 236 0 0 0
At SMD N 00888000
Po 6692 4724
$EndPAD
$PAD
Sh "N19" O 236 236 0 0 0
At SMD N 00888000
Po 7086 4724
$EndPAD
$PAD
Sh "N20" O 236 236 0 0 0
At SMD N 00888000
Po 7480 4724
$EndPAD
$PAD
Sh "N21" O 237 236 0 0 0
At SMD N 00888000
Po 7873 4724
$EndPAD
$PAD
Sh "N22" O 236 236 0 0 0
At SMD N 00888000
Po 8267 4724
$EndPAD
$PAD
Sh "P1" O 236 236 0 0 0
At SMD N 00888000
Po 0 5118
$EndPAD
$PAD
Sh "P2" O 236 236 0 0 0
At SMD N 00888000
Po 393 5118
$EndPAD
$PAD
Sh "P3" O 236 236 0 0 0
At SMD N 00888000
Po 787 5118
$EndPAD
$PAD
Sh "P4" O 237 236 0 0 0
At SMD N 00888000
Po 1180 5118
$EndPAD
$PAD
Sh "P5" O 236 236 0 0 0
At SMD N 00888000
Po 1574 5118
$EndPAD
$PAD
Sh "P6" O 236 236 0 0 0
At SMD N 00888000
Po 1968 5118
$EndPAD
$PAD
Sh "P7" O 236 236 0 0 0
At SMD N 00888000
Po 2362 5118
$EndPAD
$PAD
Sh "P8" O 237 236 0 0 0
At SMD N 00888000
Po 2755 5118
$EndPAD
$PAD
Sh "P9" O 236 236 0 0 0
At SMD N 00888000
Po 3149 5118
$EndPAD
$PAD
Sh "P10" O 236 236 0 0 0
At SMD N 00888000
Po 3543 5118
$EndPAD
$PAD
Sh "P11" O 237 236 0 0 0
At SMD N 00888000
Po 3936 5118
$EndPAD
$PAD
Sh "P12" O 236 236 0 0 0
At SMD N 00888000
Po 4330 5118
$EndPAD
$PAD
Sh "P13" O 236 236 0 0 0
At SMD N 00888000
Po 4724 5118
$EndPAD
$PAD
Sh "P14" O 236 236 0 0 0
At SMD N 00888000
Po 5118 5118
$EndPAD
$PAD
Sh "P15" O 236 236 0 0 0
At SMD N 00888000
Po 5511 5118
$EndPAD
$PAD
Sh "P16" O 236 236 0 0 0
At SMD N 00888000
Po 5905 5118
$EndPAD
$PAD
Sh "P17" O 236 236 0 0 0
At SMD N 00888000
Po 6299 5118
$EndPAD
$PAD
Sh "P18" O 237 236 0 0 0
At SMD N 00888000
Po 6692 5118
$EndPAD
$PAD
Sh "P19" O 236 236 0 0 0
At SMD N 00888000
Po 7086 5118
$EndPAD
$PAD
Sh "P20" O 236 236 0 0 0
At SMD N 00888000
Po 7480 5118
$EndPAD
$PAD
Sh "P21" O 237 236 0 0 0
At SMD N 00888000
Po 7873 5118
$EndPAD
$PAD
Sh "P22" O 236 236 0 0 0
At SMD N 00888000
Po 8267 5118
$EndPAD
$PAD
Sh "R1" O 236 236 0 0 0
At SMD N 00888000
Po 0 5511
$EndPAD
$PAD
Sh "R2" O 236 236 0 0 0
At SMD N 00888000
Po 393 5511
$EndPAD
$PAD
Sh "R3" O 236 236 0 0 0
At SMD N 00888000
Po 787 5511
$EndPAD
$PAD
Sh "R4" O 237 236 0 0 0
At SMD N 00888000
Po 1180 5511
$EndPAD
$PAD
Sh "R5" O 236 236 0 0 0
At SMD N 00888000
Po 1574 5511
$EndPAD
$PAD
Sh "R6" O 236 236 0 0 0
At SMD N 00888000
Po 1968 5511
$EndPAD
$PAD
Sh "R7" O 236 236 0 0 0
At SMD N 00888000
Po 2362 5511
$EndPAD
$PAD
Sh "R8" O 237 236 0 0 0
At SMD N 00888000
Po 2755 5511
$EndPAD
$PAD
Sh "R9" O 236 236 0 0 0
At SMD N 00888000
Po 3149 5511
$EndPAD
$PAD
Sh "R10" O 236 236 0 0 0
At SMD N 00888000
Po 3543 5511
$EndPAD
$PAD
Sh "R11" O 237 236 0 0 0
At SMD N 00888000
Po 3936 5511
$EndPAD
$PAD
Sh "R12" O 236 236 0 0 0
At SMD N 00888000
Po 4330 5511
$EndPAD
$PAD
Sh "R13" O 236 236 0 0 0
At SMD N 00888000
Po 4724 5511
$EndPAD
$PAD
Sh "R14" O 236 236 0 0 0
At SMD N 00888000
Po 5118 5511
$EndPAD
$PAD
Sh "R15" O 236 236 0 0 0
At SMD N 00888000
Po 5511 5511
$EndPAD
$PAD
Sh "R16" O 236 236 0 0 0
At SMD N 00888000
Po 5905 5511
$EndPAD
$PAD
Sh "R17" O 236 236 0 0 0
At SMD N 00888000
Po 6299 5511
$EndPAD
$PAD
Sh "R18" O 237 236 0 0 0
At SMD N 00888000
Po 6692 5511
$EndPAD
$PAD
Sh "R19" O 236 236 0 0 0
At SMD N 00888000
Po 7086 5511
$EndPAD
$PAD
Sh "R20" O 236 236 0 0 0
At SMD N 00888000
Po 7480 5511
$EndPAD
$PAD
Sh "R21" O 237 236 0 0 0
At SMD N 00888000
Po 7873 5511
$EndPAD
$PAD
Sh "R22" O 236 236 0 0 0
At SMD N 00888000
Po 8267 5511
$EndPAD
$PAD
Sh "T1" O 236 236 0 0 0
At SMD N 00888000
Po 0 5905
$EndPAD
$PAD
Sh "T2" O 236 236 0 0 0
At SMD N 00888000
Po 393 5905
$EndPAD
$PAD
Sh "T3" O 236 236 0 0 0
At SMD N 00888000
Po 787 5905
$EndPAD
$PAD
Sh "T4" O 237 236 0 0 0
At SMD N 00888000
Po 1180 5905
$EndPAD
$PAD
Sh "T5" O 236 236 0 0 0
At SMD N 00888000
Po 1574 5905
$EndPAD
$PAD
Sh "T6" O 236 236 0 0 0
At SMD N 00888000
Po 1968 5905
$EndPAD
$PAD
Sh "T7" O 236 236 0 0 0
At SMD N 00888000
Po 2362 5905
$EndPAD
$PAD
Sh "T8" O 237 236 0 0 0
At SMD N 00888000
Po 2755 5905
$EndPAD
$PAD
Sh "T9" O 236 236 0 0 0
At SMD N 00888000
Po 3149 5905
$EndPAD
$PAD
Sh "T10" O 236 236 0 0 0
At SMD N 00888000
Po 3543 5905
$EndPAD
$PAD
Sh "T11" O 237 236 0 0 0
At SMD N 00888000
Po 3936 5905
$EndPAD
$PAD
Sh "T12" O 236 236 0 0 0
At SMD N 00888000
Po 4330 5905
$EndPAD
$PAD
Sh "T13" O 236 236 0 0 0
At SMD N 00888000
Po 4724 5905
$EndPAD
$PAD
Sh "T14" O 236 236 0 0 0
At SMD N 00888000
Po 5118 5905
$EndPAD
$PAD
Sh "T15" O 236 236 0 0 0
At SMD N 00888000
Po 5511 5905
$EndPAD
$PAD
Sh "T16" O 236 236 0 0 0
At SMD N 00888000
Po 5905 5905
$EndPAD
$PAD
Sh "T17" O 236 236 0 0 0
At SMD N 00888000
Po 6299 5905
$EndPAD
$PAD
Sh "T18" O 237 236 0 0 0
At SMD N 00888000
Po 6692 5905
$EndPAD
$PAD
Sh "T19" O 236 236 0 0 0
At SMD N 00888000
Po 7086 5905
$EndPAD
$PAD
Sh "T20" O 236 236 0 0 0
At SMD N 00888000
Po 7480 5905
$EndPAD
$PAD
Sh "T21" O 237 236 0 0 0
At SMD N 00888000
Po 7873 5905
$EndPAD
$PAD
Sh "T22" O 236 236 0 0 0
At SMD N 00888000
Po 8267 5905
$EndPAD
$PAD
Sh "U1" O 236 236 0 0 0
At SMD N 00888000
Po 0 6299
$EndPAD
$PAD
Sh "U2" O 236 236 0 0 0
At SMD N 00888000
Po 393 6299
$EndPAD
$PAD
Sh "U3" O 236 236 0 0 0
At SMD N 00888000
Po 787 6299
$EndPAD
$PAD
Sh "U4" O 237 236 0 0 0
At SMD N 00888000
Po 1180 6299
$EndPAD
$PAD
Sh "U5" O 236 236 0 0 0
At SMD N 00888000
Po 1574 6299
$EndPAD
$PAD
Sh "U6" O 236 236 0 0 0
At SMD N 00888000
Po 1968 6299
$EndPAD
$PAD
Sh "U7" O 236 236 0 0 0
At SMD N 00888000
Po 2362 6299
$EndPAD
$PAD
Sh "U8" O 237 236 0 0 0
At SMD N 00888000
Po 2755 6299
$EndPAD
$PAD
Sh "U9" O 236 236 0 0 0
At SMD N 00888000
Po 3149 6299
$EndPAD
$PAD
Sh "U10" O 236 236 0 0 0
At SMD N 00888000
Po 3543 6299
$EndPAD
$PAD
Sh "U11" O 237 236 0 0 0
At SMD N 00888000
Po 3936 6299
$EndPAD
$PAD
Sh "U12" O 236 236 0 0 0
At SMD N 00888000
Po 4330 6299
$EndPAD
$PAD
Sh "U13" O 236 236 0 0 0
At SMD N 00888000
Po 4724 6299
$EndPAD
$PAD
Sh "U14" O 236 236 0 0 0
At SMD N 00888000
Po 5118 6299
$EndPAD
$PAD
Sh "U15" O 236 236 0 0 0
At SMD N 00888000
Po 5511 6299
$EndPAD
$PAD
Sh "U16" O 236 236 0 0 0
At SMD N 00888000
Po 5905 6299
$EndPAD
$PAD
Sh "U17" O 236 236 0 0 0
At SMD N 00888000
Po 6299 6299
$EndPAD
$PAD
Sh "U18" O 237 236 0 0 0
At SMD N 00888000
Po 6692 6299
$EndPAD
$PAD
Sh "U19" O 236 236 0 0 0
At SMD N 00888000
Po 7086 6299
$EndPAD
$PAD
Sh "U20" O 236 236 0 0 0
At SMD N 00888000
Po 7480 6299
$EndPAD
$PAD
Sh "U21" O 237 236 0 0 0
At SMD N 00888000
Po 7873 6299
$EndPAD
$PAD
Sh "U22" O 236 236 0 0 0
At SMD N 00888000
Po 8267 6299
$EndPAD
$PAD
Sh "V1" O 236 237 0 0 0
At SMD N 00888000
Po 0 6692
$EndPAD
$PAD
Sh "V2" O 236 237 0 0 0
At SMD N 00888000
Po 393 6692
$EndPAD
$PAD
Sh "V3" O 236 237 0 0 0
At SMD N 00888000
Po 787 6692
$EndPAD
$PAD
Sh "V4" O 237 237 0 0 0
At SMD N 00888000
Po 1180 6692
$EndPAD
$PAD
Sh "V5" O 236 237 0 0 0
At SMD N 00888000
Po 1574 6692
$EndPAD
$PAD
Sh "V6" O 236 237 0 0 0
At SMD N 00888000
Po 1968 6692
$EndPAD
$PAD
Sh "V7" O 236 237 0 0 0
At SMD N 00888000
Po 2362 6692
$EndPAD
$PAD
Sh "V8" O 237 237 0 0 0
At SMD N 00888000
Po 2755 6692
$EndPAD
$PAD
Sh "V9" O 236 237 0 0 0
At SMD N 00888000
Po 3149 6692
$EndPAD
$PAD
Sh "V10" O 236 237 0 0 0
At SMD N 00888000
Po 3543 6692
$EndPAD
$PAD
Sh "V11" O 237 237 0 0 0
At SMD N 00888000
Po 3936 6692
$EndPAD
$PAD
Sh "V12" O 236 237 0 0 0
At SMD N 00888000
Po 4330 6692
$EndPAD
$PAD
Sh "V13" O 236 237 0 0 0
At SMD N 00888000
Po 4724 6692
$EndPAD
$PAD
Sh "V14" O 236 237 0 0 0
At SMD N 00888000
Po 5118 6692
$EndPAD
$PAD
Sh "V15" O 236 237 0 0 0
At SMD N 00888000
Po 5511 6692
$EndPAD
$PAD
Sh "V16" O 236 237 0 0 0
At SMD N 00888000
Po 5905 6692
$EndPAD
$PAD
Sh "V17" O 236 237 0 0 0
At SMD N 00888000
Po 6299 6692
$EndPAD
$PAD
Sh "V18" O 237 237 0 0 0
At SMD N 00888000
Po 6692 6692
$EndPAD
$PAD
Sh "V19" O 236 237 0 0 0
At SMD N 00888000
Po 7086 6692
$EndPAD
$PAD
Sh "V20" O 236 237 0 0 0
At SMD N 00888000
Po 7480 6692
$EndPAD
$PAD
Sh "V21" O 237 237 0 0 0
At SMD N 00888000
Po 7873 6692
$EndPAD
$PAD
Sh "V22" O 236 237 0 0 0
At SMD N 00888000
Po 8267 6692
$EndPAD
$PAD
Sh "W1" O 236 236 0 0 0
At SMD N 00888000
Po 0 7086
$EndPAD
$PAD
Sh "W2" O 236 236 0 0 0
At SMD N 00888000
Po 393 7086
$EndPAD
$PAD
Sh "W3" O 236 236 0 0 0
At SMD N 00888000
Po 787 7086
$EndPAD
$PAD
Sh "W4" O 237 236 0 0 0
At SMD N 00888000
Po 1180 7086
$EndPAD
$PAD
Sh "W5" O 236 236 0 0 0
At SMD N 00888000
Po 1574 7086
$EndPAD
$PAD
Sh "W6" O 236 236 0 0 0
At SMD N 00888000
Po 1968 7086
$EndPAD
$PAD
Sh "W7" O 236 236 0 0 0
At SMD N 00888000
Po 2362 7086
$EndPAD
$PAD
Sh "W8" O 237 236 0 0 0
At SMD N 00888000
Po 2755 7086
$EndPAD
$PAD
Sh "W9" O 236 236 0 0 0
At SMD N 00888000
Po 3149 7086
$EndPAD
$PAD
Sh "W10" O 236 236 0 0 0
At SMD N 00888000
Po 3543 7086
$EndPAD
$PAD
Sh "W11" O 237 236 0 0 0
At SMD N 00888000
Po 3936 7086
$EndPAD
$PAD
Sh "W12" O 236 236 0 0 0
At SMD N 00888000
Po 4330 7086
$EndPAD
$PAD
Sh "W13" O 236 236 0 0 0
At SMD N 00888000
Po 4724 7086
$EndPAD
$PAD
Sh "W14" O 236 236 0 0 0
At SMD N 00888000
Po 5118 7086
$EndPAD
$PAD
Sh "W15" O 236 236 0 0 0
At SMD N 00888000
Po 5511 7086
$EndPAD
$PAD
Sh "W16" O 236 236 0 0 0
At SMD N 00888000
Po 5905 7086
$EndPAD
$PAD
Sh "W17" O 236 236 0 0 0
At SMD N 00888000
Po 6299 7086
$EndPAD
$PAD
Sh "W18" O 237 236 0 0 0
At SMD N 00888000
Po 6692 7086
$EndPAD
$PAD
Sh "W19" O 236 236 0 0 0
At SMD N 00888000
Po 7086 7086
$EndPAD
$PAD
Sh "W20" O 236 236 0 0 0
At SMD N 00888000
Po 7480 7086
$EndPAD
$PAD
Sh "W21" O 237 236 0 0 0
At SMD N 00888000
Po 7873 7086
$EndPAD
$PAD
Sh "W22" O 236 236 0 0 0
At SMD N 00888000
Po 8267 7086
$EndPAD
$PAD
Sh "Y1" O 236 236 0 0 0
At SMD N 00888000
Po 0 7480
$EndPAD
$PAD
Sh "Y2" O 236 236 0 0 0
At SMD N 00888000
Po 393 7480
$EndPAD
$PAD
Sh "Y3" O 236 236 0 0 0
At SMD N 00888000
Po 787 7480
$EndPAD
$PAD
Sh "Y4" O 237 236 0 0 0
At SMD N 00888000
Po 1180 7480
$EndPAD
$PAD
Sh "Y5" O 236 236 0 0 0
At SMD N 00888000
Po 1574 7480
$EndPAD
$PAD
Sh "Y6" O 236 236 0 0 0
At SMD N 00888000
Po 1968 7480
$EndPAD
$PAD
Sh "Y7" O 236 236 0 0 0
At SMD N 00888000
Po 2362 7480
$EndPAD
$PAD
Sh "Y8" O 237 236 0 0 0
At SMD N 00888000
Po 2755 7480
$EndPAD
$PAD
Sh "Y9" O 236 236 0 0 0
At SMD N 00888000
Po 3149 7480
$EndPAD
$PAD
Sh "Y10" O 236 236 0 0 0
At SMD N 00888000
Po 3543 7480
$EndPAD
$PAD
Sh "Y11" O 237 236 0 0 0
At SMD N 00888000
Po 3936 7480
$EndPAD
$PAD
Sh "Y12" O 236 236 0 0 0
At SMD N 00888000
Po 4330 7480
$EndPAD
$PAD
Sh "Y13" O 236 236 0 0 0
At SMD N 00888000
Po 4724 7480
$EndPAD
$PAD
Sh "Y14" O 236 236 0 0 0
At SMD N 00888000
Po 5118 7480
$EndPAD
$PAD
Sh "Y15" O 236 236 0 0 0
At SMD N 00888000
Po 5511 7480
$EndPAD
$PAD
Sh "Y16" O 236 236 0 0 0
At SMD N 00888000
Po 5905 7480
$EndPAD
$PAD
Sh "Y17" O 236 236 0 0 0
At SMD N 00888000
Po 6299 7480
$EndPAD
$PAD
Sh "Y18" O 237 236 0 0 0
At SMD N 00888000
Po 6692 7480
$EndPAD
$PAD
Sh "Y19" O 236 236 0 0 0
At SMD N 00888000
Po 7086 7480
$EndPAD
$PAD
Sh "Y20" O 236 236 0 0 0
At SMD N 00888000
Po 7480 7480
$EndPAD
$PAD
Sh "Y21" O 237 236 0 0 0
At SMD N 00888000
Po 7873 7480
$EndPAD
$PAD
Sh "Y22" O 236 236 0 0 0
At SMD N 00888000
Po 8267 7480
$EndPAD
$PAD
Sh "AA1" O 236 237 0 0 0
At SMD N 00888000
Po 0 7873
$EndPAD
$PAD
Sh "AA2" O 236 237 0 0 0
At SMD N 00888000
Po 393 7873
$EndPAD
$PAD
Sh "AA3" O 236 237 0 0 0
At SMD N 00888000
Po 787 7873
$EndPAD
$PAD
Sh "AA4" O 237 237 0 0 0
At SMD N 00888000
Po 1180 7873
$EndPAD
$PAD
Sh "AA5" O 236 237 0 0 0
At SMD N 00888000
Po 1574 7873
$EndPAD
$PAD
Sh "AA6" O 236 237 0 0 0
At SMD N 00888000
Po 1968 7873
$EndPAD
$PAD
Sh "AA7" O 236 237 0 0 0
At SMD N 00888000
Po 2362 7873
$EndPAD
$PAD
Sh "AA8" O 237 237 0 0 0
At SMD N 00888000
Po 2755 7873
$EndPAD
$PAD
Sh "AA9" O 236 237 0 0 0
At SMD N 00888000
Po 3149 7873
$EndPAD
$PAD
Sh "AA10" O 236 237 0 0 0
At SMD N 00888000
Po 3543 7873
$EndPAD
$PAD
Sh "AA11" O 237 237 0 0 0
At SMD N 00888000
Po 3936 7873
$EndPAD
$PAD
Sh "AA12" O 236 237 0 0 0
At SMD N 00888000
Po 4330 7873
$EndPAD
$PAD
Sh "AA13" O 236 237 0 0 0
At SMD N 00888000
Po 4724 7873
$EndPAD
$PAD
Sh "AA14" O 236 237 0 0 0
At SMD N 00888000
Po 5118 7873
$EndPAD
$PAD
Sh "AA15" O 236 237 0 0 0
At SMD N 00888000
Po 5511 7873
$EndPAD
$PAD
Sh "AA16" O 236 237 0 0 0
At SMD N 00888000
Po 5905 7873
$EndPAD
$PAD
Sh "AA17" O 236 237 0 0 0
At SMD N 00888000
Po 6299 7873
$EndPAD
$PAD
Sh "AA18" O 237 237 0 0 0
At SMD N 00888000
Po 6692 7873
$EndPAD
$PAD
Sh "AA19" O 236 237 0 0 0
At SMD N 00888000
Po 7086 7873
$EndPAD
$PAD
Sh "AA20" O 236 237 0 0 0
At SMD N 00888000
Po 7480 7873
$EndPAD
$PAD
Sh "AA21" O 237 237 0 0 0
At SMD N 00888000
Po 7873 7873
$EndPAD
$PAD
Sh "AA22" O 236 237 0 0 0
At SMD N 00888000
Po 8267 7873
$EndPAD
$PAD
Sh "AB1" O 236 236 0 0 0
At SMD N 00888000
Po 0 8267
$EndPAD
$PAD
Sh "AB2" O 236 236 0 0 0
At SMD N 00888000
Po 393 8267
$EndPAD
$PAD
Sh "AB3" O 236 236 0 0 0
At SMD N 00888000
Po 787 8267
$EndPAD
$PAD
Sh "AB4" O 237 236 0 0 0
At SMD N 00888000
Po 1180 8267
$EndPAD
$PAD
Sh "AB5" O 236 236 0 0 0
At SMD N 00888000
Po 1574 8267
$EndPAD
$PAD
Sh "AB6" O 236 236 0 0 0
At SMD N 00888000
Po 1968 8267
$EndPAD
$PAD
Sh "AB7" O 236 236 0 0 0
At SMD N 00888000
Po 2362 8267
$EndPAD
$PAD
Sh "AB8" O 237 236 0 0 0
At SMD N 00888000
Po 2755 8267
$EndPAD
$PAD
Sh "AB9" O 236 236 0 0 0
At SMD N 00888000
Po 3149 8267
$EndPAD
$PAD
Sh "AB10" O 236 236 0 0 0
At SMD N 00888000
Po 3543 8267
$EndPAD
$PAD
Sh "AB11" O 237 236 0 0 0
At SMD N 00888000
Po 3936 8267
$EndPAD
$PAD
Sh "AB12" O 236 236 0 0 0
At SMD N 00888000
Po 4330 8267
$EndPAD
$PAD
Sh "AB13" O 236 236 0 0 0
At SMD N 00888000
Po 4724 8267
$EndPAD
$PAD
Sh "AB14" O 236 236 0 0 0
At SMD N 00888000
Po 5118 8267
$EndPAD
$PAD
Sh "AB15" O 236 236 0 0 0
At SMD N 00888000
Po 5511 8267
$EndPAD
$PAD
Sh "AB16" O 236 236 0 0 0
At SMD N 00888000
Po 5905 8267
$EndPAD
$PAD
Sh "AB17" O 236 236 0 0 0
At SMD N 00888000
Po 6299 8267
$EndPAD
$PAD
Sh "AB18" O 237 236 0 0 0
At SMD N 00888000
Po 6692 8267
$EndPAD
$PAD
Sh "AB19" O 236 236 0 0 0
At SMD N 00888000
Po 7086 8267
$EndPAD
$PAD
Sh "AB20" O 236 236 0 0 0
At SMD N 00888000
Po 7480 8267
$EndPAD
$PAD
Sh "AB21" O 237 236 0 0 0
At SMD N 00888000
Po 7873 8267
$EndPAD
$PAD
Sh "AB22" O 236 236 0 0 0
At SMD N 00888000
Po 8267 8267
$EndPAD
DS 8661 -393 8661 8661 50 21
DS 8661 8661 -393 8661 50 21
DS -393 8661 -393 -393 50 21
DS -393 -393 8661 -393 50 21
DS 0 -393 -393 0 50 21
$EndMODULE BGA-484
$MODULE BGA-324
Po 0 0 0 15 595926E4 00000000 ~~
Li BGA-324
Sc 595926E4
At SMD
Op 0 0 0
T0 0 -150 200 200 0 40 N V 25 "BGA-324"
T1 0 150 200 200 0 40 N I 25 "Val*"
$PAD
Sh "A1" O 176 176 0 0 0
At SMD N 00888000
Po 0 0
$EndPAD
$PAD
Sh "A2" O 177 176 0 0 0
At SMD N 00888000
Po 314 0
$EndPAD
$PAD
Sh "A3" O 177 176 0 0 0
At SMD N 00888000
Po 629 0
$EndPAD
$PAD
Sh "A4" O 177 176 0 0 0
At SMD N 00888000
Po 944 0
$EndPAD
$PAD
Sh "A5" O 177 176 0 0 0
At SMD N 00888000
Po 1259 0
$EndPAD
$PAD
Sh "A6" O 177 176 0 0 0
At SMD N 00888000
Po 1574 0
$EndPAD
$PAD
Sh "A7" O 177 176 0 0 0
At SMD N 00888000
Po 1889 0
$EndPAD
$PAD
Sh "A8" O 177 176 0 0 0
At SMD N 00888000
Po 2204 0
$EndPAD
$PAD
Sh "A9" O 177 176 0 0 0
At SMD N 00888000
Po 2519 0
$EndPAD
$PAD
Sh "A10" O 177 176 0 0 0
At SMD N 00888000
Po 2834 0
$EndPAD
$PAD
Sh "A11" O 177 176 0 0 0
At SMD N 00888000
Po 3149 0
$EndPAD
$PAD
Sh "A12" O 178 176 0 0 0
At SMD N 00888000
Po 3464 0
$EndPAD
$PAD
Sh "A13" O 178 176 0 0 0
At SMD N 00888000
Po 3779 0
$EndPAD
$PAD
Sh "A14" O 178 176 0 0 0
At SMD N 00888000
Po 4094 0
$EndPAD
$PAD
Sh "A15" O 178 176 0 0 0
At SMD N 00888000
Po 4409 0
$EndPAD
$PAD
Sh "A16" O 177 176 0 0 0
At SMD N 00888000
Po 4723 0
$EndPAD
$PAD
Sh "A17" O 177 176 0 0 0
At SMD N 00888000
Po 5038 0
$EndPAD
$PAD
Sh "A18" O 177 176 0 0 0
At SMD N 00888000
Po 5353 0
$EndPAD
$PAD
Sh "B1" O 176 177 0 0 0
At SMD N 00888000
Po 0 314
$EndPAD
$PAD
Sh "B2" O 177 177 0 0 0
At SMD N 00888000
Po 314 314
$EndPAD
$PAD
Sh "B3" O 177 177 0 0 0
At SMD N 00888000
Po 629 314
$EndPAD
$PAD
Sh "B4" O 177 177 0 0 0
At SMD N 00888000
Po 944 314
$EndPAD
$PAD
Sh "B5" O 177 177 0 0 0
At SMD N 00888000
Po 1259 314
$EndPAD
$PAD
Sh "B6" O 177 177 0 0 0
At SMD N 00888000
Po 1574 314
$EndPAD
$PAD
Sh "B7" O 177 177 0 0 0
At SMD N 00888000
Po 1889 314
$EndPAD
$PAD
Sh "B8" O 177 177 0 0 0
At SMD N 00888000
Po 2204 314
$EndPAD
$PAD
Sh "B9" O 177 177 0 0 0
At SMD N 00888000
Po 2519 314
$EndPAD
$PAD
Sh "B10" O 177 177 0 0 0
At SMD N 00888000
Po 2834 314
$EndPAD
$PAD
Sh "B11" O 177 177 0 0 0
At SMD N 00888000
Po 3149 314
$EndPAD
$PAD
Sh "B12" O 178 177 0 0 0
At SMD N 00888000
Po 3464 314
$EndPAD
$PAD
Sh "B13" O 178 177 0 0 0
At SMD N 00888000
Po 3779 314
$EndPAD
$PAD
Sh "B14" O 178 177 0 0 0
At SMD N 00888000
Po 4094 314
$EndPAD
$PAD
Sh "B15" O 178 177 0 0 0
At SMD N 00888000
Po 4409 314
$EndPAD
$PAD
Sh "B16" O 177 177 0 0 0
At SMD N 00888000
Po 4723 314
$EndPAD
$PAD
Sh "B17" O 177 177 0 0 0
At SMD N 00888000
Po 5038 314
$EndPAD
$PAD
Sh "B18" O 177 177 0 0 0
At SMD N 00888000
Po 5353 314
$EndPAD
$PAD
Sh "C1" O 176 177 0 0 0
At SMD N 00888000
Po 0 629
$EndPAD
$PAD
Sh "C2" O 177 177 0 0 0
At SMD N 00888000
Po 314 629
$EndPAD
$PAD
Sh "C3" O 177 177 0 0 0
At SMD N 00888000
Po 629 629
$EndPAD
$PAD
Sh "C4" O 177 177 0 0 0
At SMD N 00888000
Po 944 629
$EndPAD
$PAD
Sh "C5" O 177 177 0 0 0
At SMD N 00888000
Po 1259 629
$EndPAD
$PAD
Sh "C6" O 177 177 0 0 0
At SMD N 00888000
Po 1574 629
$EndPAD
$PAD
Sh "C7" O 177 177 0 0 0
At SMD N 00888000
Po 1889 629
$EndPAD
$PAD
Sh "C8" O 177 177 0 0 0
At SMD N 00888000
Po 2204 629
$EndPAD
$PAD
Sh "C9" O 177 177 0 0 0
At SMD N 00888000
Po 2519 629
$EndPAD
$PAD
Sh "C10" O 177 177 0 0 0
At SMD N 00888000
Po 2834 629
$EndPAD
$PAD
Sh "C11" O 177 177 0 0 0
At SMD N 00888000
Po 3149 629
$EndPAD
$PAD
Sh "C12" O 178 177 0 0 0
At SMD N 00888000
Po 3464 629
$EndPAD
$PAD
Sh "C13" O 178 177 0 0 0
At SMD N 00888000
Po 3779 629
$EndPAD
$PAD
Sh "C14" O 178 177 0 0 0
At SMD N 00888000
Po 4094 629
$EndPAD
$PAD
Sh "C15" O 178 177 0 0 0
At SMD N 00888000
Po 4409 629
$EndPAD
$PAD
Sh "C16" O 177 177 0 0 0
At SMD N 00888000
Po 4723 629
$EndPAD
$PAD
Sh "C17" O 177 177 0 0 0
At SMD N 00888000
Po 5038 629
$EndPAD
$PAD
Sh "C18" O 177 177 0 0 0
At SMD N 00888000
Po 5353 629
$EndPAD
$PAD
Sh "D1" O 176 177 0 0 0
At SMD N 00888000
Po 0 944
$EndPAD
$PAD
Sh "D2" O 177 177 0 0 0
At SMD N 00888000
Po 314 944
$EndPAD
$PAD
Sh "D3" O 177 177 0 0 0
At SMD N 00888000
Po 629 944
$EndPAD
$PAD
Sh "D4" O 177 177 0 0 0
At SMD N 00888000
Po 944 944
$EndPAD
$PAD
Sh "D5" O 177 177 0 0 0
At SMD N 00888000
Po 1259 944
$EndPAD
$PAD
Sh "D6" O 177 177 0 0 0
At SMD N 00888000
Po 1574 944
$EndPAD
$PAD
Sh "D7" O 177 177 0 0 0
At SMD N 00888000
Po 1889 944
$EndPAD
$PAD
Sh "D8" O 177 177 0 0 0
At SMD N 00888000
Po 2204 944
$EndPAD
$PAD
Sh "D9" O 177 177 0 0 0
At SMD N 00888000
Po 2519 944
$EndPAD
$PAD
Sh "D10" O 177 177 0 0 0
At SMD N 00888000
Po 2834 944
$EndPAD
$PAD
Sh "D11" O 177 177 0 0 0
At SMD N 00888000
Po 3149 944
$EndPAD
$PAD
Sh "D12" O 178 177 0 0 0
At SMD N 00888000
Po 3464 944
$EndPAD
$PAD
Sh "D13" O 178 177 0 0 0
At SMD N 00888000
Po 3779 944
$EndPAD
$PAD
Sh "D14" O 178 177 0 0 0
At SMD N 00888000
Po 4094 944
$EndPAD
$PAD
Sh "D15" O 178 177 0 0 0
At SMD N 00888000
Po 4409 944
$EndPAD
$PAD
Sh "D16" O 177 177 0 0 0
At SMD N 00888000
Po 4723 944
$EndPAD
$PAD
Sh "D17" O 177 177 0 0 0
At SMD N 00888000
Po 5038 944
$EndPAD
$PAD
Sh "D18" O 177 177 0 0 0
At SMD N 00888000
Po 5353 944
$EndPAD
$PAD
Sh "E1" O 176 177 0 0 0
At SMD N 00888000
Po 0 1259
$EndPAD
$PAD
Sh "E2" O 177 177 0 0 0
At SMD N 00888000
Po 314 1259
$EndPAD
$PAD
Sh "E3" O 177 177 0 0 0
At SMD N 00888000
Po 629 1259
$EndPAD
$PAD
Sh "E4" O 177 177 0 0 0
At SMD N 00888000
Po 944 1259
$EndPAD
$PAD
Sh "E5" O 177 177 0 0 0
At SMD N 00888000
Po 1259 1259
$EndPAD
$PAD
Sh "E6" O 177 177 0 0 0
At SMD N 00888000
Po 1574 1259
$EndPAD
$PAD
Sh "E7" O 177 177 0 0 0
At SMD N 00888000
Po 1889 1259
$EndPAD
$PAD
Sh "E8" O 177 177 0 0 0
At SMD N 00888000
Po 2204 1259
$EndPAD
$PAD
Sh "E9" O 177 177 0 0 0
At SMD N 00888000
Po 2519 1259
$EndPAD
$PAD
Sh "E10" O 177 177 0 0 0
At SMD N 00888000
Po 2834 1259
$EndPAD
$PAD
Sh "E11" O 177 177 0 0 0
At SMD N 00888000
Po 3149 1259
$EndPAD
$PAD
Sh "E12" O 178 177 0 0 0
At SMD N 00888000
Po 3464 1259
$EndPAD
$PAD
Sh "E13" O 178 177 0 0 0
At SMD N 00888000
Po 3779 1259
$EndPAD
$PAD
Sh "E14" O 178 177 0 0 0
At SMD N 00888000
Po 4094 1259
$EndPAD
$PAD
Sh "E15" O 178 177 0 0 0
At SMD N 00888000
Po 4409 1259
$EndPAD
$PAD
Sh "E16" O 177 177 0 0 0
At SMD N 00888000
Po 4723 1259
$EndPAD
$PAD
Sh "E17" O 177 177 0 0 0
At SMD N 00888000
Po 5038 1259
$EndPAD
$PAD
Sh "E18" O 177 177 0 0 0
At SMD N 00888000
Po 5353 1259
$EndPAD
$PAD
Sh "F1" O 176 177 0 0 0
At SMD N 00888000
Po 0 1574
$EndPAD
$PAD
Sh "F2" O 177 177 0 0 0
At SMD N 00888000
Po 314 1574
$EndPAD
$PAD
Sh "F3" O 177 177 0 0 0
At SMD N 00888000
Po 629 1574
$EndPAD
$PAD
Sh "F4" O 177 177 0 0 0
At SMD N 00888000
Po 944 1574
$EndPAD
$PAD
Sh "F5" O 177 177 0 0 0
At SMD N 00888000
Po 1259 1574
$EndPAD
$PAD
Sh "F6" O 177 177 0 0 0
At SMD N 00888000
Po 1574 1574
$EndPAD
$PAD
Sh "F7" O 177 177 0 0 0
At SMD N 00888000
Po 1889 1574
$EndPAD
$PAD
Sh "F8" O 177 177 0 0 0
At SMD N 00888000
Po 2204 1574
$EndPAD
$PAD
Sh "F9" O 177 177 0 0 0
At SMD N 00888000
Po 2519 1574
$EndPAD
$PAD
Sh "F10" O 177 177 0 0 0
At SMD N 00888000
Po 2834 1574
$EndPAD
$PAD
Sh "F11" O 177 177 0 0 0
At SMD N 00888000
Po 3149 1574
$EndPAD
$PAD
Sh "F12" O 178 177 0 0 0
At SMD N 00888000
Po 3464 1574
$EndPAD
$PAD
Sh "F13" O 178 177 0 0 0
At SMD N 00888000
Po 3779 1574
$EndPAD
$PAD
Sh "F14" O 178 177 0 0 0
At SMD N 00888000
Po 4094 1574
$EndPAD
$PAD
Sh "F15" O 178 177 0 0 0
At SMD N 00888000
Po 4409 1574
$EndPAD
$PAD
Sh "F16" O 177 177 0 0 0
At SMD N 00888000
Po 4723 1574
$EndPAD
$PAD
Sh "F17" O 177 177 0 0 0
At SMD N 00888000
Po 5038 1574
$EndPAD
$PAD
Sh "F18" O 177 177 0 0 0
At SMD N 00888000
Po 5353 1574
$EndPAD
$PAD
Sh "G1" O 176 177 0 0 0
At SMD N 00888000
Po 0 1889
$EndPAD
$PAD
Sh "G2" O 177 177 0 0 0
At SMD N 00888000
Po 314 1889
$EndPAD
$PAD
Sh "G3" O 177 177 0 0 0
At SMD N 00888000
Po 629 1889
$EndPAD
$PAD
Sh "G4" O 177 177 0 0 0
At SMD N 00888000
Po 944 1889
$EndPAD
$PAD
Sh "G5" O 177 177 0 0 0
At SMD N 00888000
Po 1259 1889
$EndPAD
$PAD
Sh "G6" O 177 177 0 0 0
At SMD N 00888000
Po 1574 1889
$EndPAD
$PAD
Sh "G7" O 177 177 0 0 0
At SMD N 00888000
Po 1889 1889
$EndPAD
$PAD
Sh "G8" O 177 177 0 0 0
At SMD N 00888000
Po 2204 1889
$EndPAD
$PAD
Sh "G9" O 177 177 0 0 0
At SMD N 00888000
Po 2519 1889
$EndPAD
$PAD
Sh "G10" O 177 177 0 0 0
At SMD N 00888000
Po 2834 1889
$EndPAD
$PAD
Sh "G11" O 177 177 0 0 0
At SMD N 00888000
Po 3149 1889
$EndPAD
$PAD
Sh "G12" O 178 177 0 0 0
At SMD N 00888000
Po 3464 1889
$EndPAD
$PAD
Sh "G13" O 178 177 0 0 0
At SMD N 00888000
Po 3779 1889
$EndPAD
$PAD
Sh "G14" O 178 177 0 0 0
At SMD N 00888000
Po 4094 1889
$EndPAD
$PAD
Sh "G15" O 178 177 0 0 0
At SMD N 00888000
Po 4409 1889
$EndPAD
$PAD
Sh "G16" O 177 177 0 0 0
At SMD N 00888000
Po 4723 1889
$EndPAD
$PAD
Sh "G17" O 177 177 0 0 0
At SMD N 00888000
Po 5038 1889
$EndPAD
$PAD
Sh "G18" O 177 177 0 0 0
At SMD N 00888000
Po 5353 1889
$EndPAD
$PAD
Sh "H1" O 176 177 0 0 0
At SMD N 00888000
Po 0 2204
$EndPAD
$PAD
Sh "H2" O 177 177 0 0 0
At SMD N 00888000
Po 314 2204
$EndPAD
$PAD
Sh "H3" O 177 177 0 0 0
At SMD N 00888000
Po 629 2204
$EndPAD
$PAD
Sh "H4" O 177 177 0 0 0
At SMD N 00888000
Po 944 2204
$EndPAD
$PAD
Sh "H5" O 177 177 0 0 0
At SMD N 00888000
Po 1259 2204
$EndPAD
$PAD
Sh "H6" O 177 177 0 0 0
At SMD N 00888000
Po 1574 2204
$EndPAD
$PAD
Sh "H7" O 177 177 0 0 0
At SMD N 00888000
Po 1889 2204
$EndPAD
$PAD
Sh "H8" O 177 177 0 0 0
At SMD N 00888000
Po 2204 2204
$EndPAD
$PAD
Sh "H9" O 177 177 0 0 0
At SMD N 00888000
Po 2519 2204
$EndPAD
$PAD
Sh "H10" O 177 177 0 0 0
At SMD N 00888000
Po 2834 2204
$EndPAD
$PAD
Sh "H11" O 177 177 0 0 0
At SMD N 00888000
Po 3149 2204
$EndPAD
$PAD
Sh "H12" O 178 177 0 0 0
At SMD N 00888000
Po 3464 2204
$EndPAD
$PAD
Sh "H13" O 178 177 0 0 0
At SMD N 00888000
Po 3779 2204
$EndPAD
$PAD
Sh "H14" O 178 177 0 0 0
At SMD N 00888000
Po 4094 2204
$EndPAD
$PAD
Sh "H15" O 178 177 0 0 0
At SMD N 00888000
Po 4409 2204
$EndPAD
$PAD
Sh "H16" O 177 177 0 0 0
At SMD N 00888000
Po 4723 2204
$EndPAD
$PAD
Sh "H17" O 177 177 0 0 0
At SMD N 00888000
Po 5038 2204
$EndPAD
$PAD
Sh "H18" O 177 177 0 0 0
At SMD N 00888000
Po 5353 2204
$EndPAD
$PAD
Sh "J1" O 176 177 0 0 0
At SMD N 00888000
Po 0 2519
$EndPAD
$PAD
Sh "J2" O 177 177 0 0 0
At SMD N 00888000
Po 314 2519
$EndPAD
$PAD
Sh "J3" O 177 177 0 0 0
At SMD N 00888000
Po 629 2519
$EndPAD
$PAD
Sh "J4" O 177 177 0 0 0
At SMD N 00888000
Po 944 2519
$EndPAD
$PAD
Sh "J5" O 177 177 0 0 0
At SMD N 00888000
Po 1259 2519
$EndPAD
$PAD
Sh "J6" O 177 177 0 0 0
At SMD N 00888000
Po 1574 2519
$EndPAD
$PAD
Sh "J7" O 177 177 0 0 0
At SMD N 00888000
Po 1889 2519
$EndPAD
$PAD
Sh "J8" O 177 177 0 0 0
At SMD N 00888000
Po 2204 2519
$EndPAD
$PAD
Sh "J9" O 177 177 0 0 0
At SMD N 00888000
Po 2519 2519
$EndPAD
$PAD
Sh "J10" O 177 177 0 0 0
At SMD N 00888000
Po 2834 2519
$EndPAD
$PAD
Sh "J11" O 177 177 0 0 0
At SMD N 00888000
Po 3149 2519
$EndPAD
$PAD
Sh "J12" O 178 177 0 0 0
At SMD N 00888000
Po 3464 2519
$EndPAD
$PAD
Sh "J13" O 178 177 0 0 0
At SMD N 00888000
Po 3779 2519
$EndPAD
$PAD
Sh "J14" O 178 177 0 0 0
At SMD N 00888000
Po 4094 2519
$EndPAD
$PAD
Sh "J15" O 178 177 0 0 0
At SMD N 00888000
Po 4409 2519
$EndPAD
$PAD
Sh "J16" O 177 177 0 0 0
At SMD N 00888000
Po 4723 2519
$EndPAD
$PAD
Sh "J17" O 177 177 0 0 0
At SMD N 00888000
Po 5038 2519
$EndPAD
$PAD
Sh "J18" O 177 177 0 0 0
At SMD N 00888000
Po 5353 2519
$EndPAD
$PAD
Sh "K1" O 176 177 0 0 0
At SMD N 00888000
Po 0 2834
$EndPAD
$PAD
Sh "K2" O 177 177 0 0 0
At SMD N 00888000
Po 314 2834
$EndPAD
$PAD
Sh "K3" O 177 177 0 0 0
At SMD N 00888000
Po 629 2834
$EndPAD
$PAD
Sh "K4" O 177 177 0 0 0
At SMD N 00888000
Po 944 2834
$EndPAD
$PAD
Sh "K5" O 177 177 0 0 0
At SMD N 00888000
Po 1259 2834
$EndPAD
$PAD
Sh "K6" O 177 177 0 0 0
At SMD N 00888000
Po 1574 2834
$EndPAD
$PAD
Sh "K7" O 177 177 0 0 0
At SMD N 00888000
Po 1889 2834
$EndPAD
$PAD
Sh "K8" O 177 177 0 0 0
At SMD N 00888000
Po 2204 2834
$EndPAD
$PAD
Sh "K9" O 177 177 0 0 0
At SMD N 00888000
Po 2519 2834
$EndPAD
$PAD
Sh "K10" O 177 177 0 0 0
At SMD N 00888000
Po 2834 2834
$EndPAD
$PAD
Sh "K11" O 177 177 0 0 0
At SMD N 00888000
Po 3149 2834
$EndPAD
$PAD
Sh "K12" O 178 177 0 0 0
At SMD N 00888000
Po 3464 2834
$EndPAD
$PAD
Sh "K13" O 178 177 0 0 0
At SMD N 00888000
Po 3779 2834
$EndPAD
$PAD
Sh "K14" O 178 177 0 0 0
At SMD N 00888000
Po 4094 2834
$EndPAD
$PAD
Sh "K15" O 178 177 0 0 0
At SMD N 00888000
Po 4409 2834
$EndPAD
$PAD
Sh "K16" O 177 177 0 0 0
At SMD N 00888000
Po 4723 2834
$EndPAD
$PAD
Sh "K17" O 177 177 0 0 0
At SMD N 00888000
Po 5038 2834
$EndPAD
$PAD
Sh "K18" O 177 177 0 0 0
At SMD N 00888000
Po 5353 2834
$EndPAD
$PAD
Sh "L1" O 176 177 0 0 0
At SMD N 00888000
Po 0 3149
$EndPAD
$PAD
Sh "L2" O 177 177 0 0 0
At SMD N 00888000
Po 314 3149
$EndPAD
$PAD
Sh "L3" O 177 177 0 0 0
At SMD N 00888000
Po 629 3149
$EndPAD
$PAD
Sh "L4" O 177 177 0 0 0
At SMD N 00888000
Po 944 3149
$EndPAD
$PAD
Sh "L5" O 177 177 0 0 0
At SMD N 00888000
Po 1259 3149
$EndPAD
$PAD
Sh "L6" O 177 177 0 0 0
At SMD N 00888000
Po 1574 3149
$EndPAD
$PAD
Sh "L7" O 177 177 0 0 0
At SMD N 00888000
Po 1889 3149
$EndPAD
$PAD
Sh "L8" O 177 177 0 0 0
At SMD N 00888000
Po 2204 3149
$EndPAD
$PAD
Sh "L9" O 177 177 0 0 0
At SMD N 00888000
Po 2519 3149
$EndPAD
$PAD
Sh "L10" O 177 177 0 0 0
At SMD N 00888000
Po 2834 3149
$EndPAD
$PAD
Sh "L11" O 177 177 0 0 0
At SMD N 00888000
Po 3149 3149
$EndPAD
$PAD
Sh "L12" O 178 177 0 0 0
At SMD N 00888000
Po 3464 3149
$EndPAD
$PAD
Sh "L13" O 178 177 0 0 0
At SMD N 00888000
Po 3779 3149
$EndPAD
$PAD
Sh "L14" O 178 177 0 0 0
At SMD N 00888000
Po 4094 3149
$EndPAD
$PAD
Sh "L15" O 178 177 0 0 0
At SMD N 00888000
Po 4409 3149
$EndPAD
$PAD
Sh "L16" O 177 177 0 0 0
At SMD N 00888000
Po 4723 3149
$EndPAD
$PAD
Sh "L17" O 177 177 0 0 0
At SMD N 00888000
Po 5038 3149
$EndPAD
$PAD
Sh "L18" O 177 177 0 0 0
At SMD N 00888000
Po 5353 3149
$EndPAD
$PAD
Sh "M1" O 176 178 0 0 0
At SMD N 00888000
Po 0 3464
$EndPAD
$PAD
Sh "M2" O 177 178 0 0 0
At SMD N 00888000
Po 314 3464
$EndPAD
$PAD
Sh "M3" O 177 178 0 0 0
At SMD N 00888000
Po 629 3464
$EndPAD
$PAD
Sh "M4" O 177 178 0 0 0
At SMD N 00888000
Po 944 3464
$EndPAD
$PAD
Sh "M5" O 177 178 0 0 0
At SMD N 00888000
Po 1259 3464
$EndPAD
$PAD
Sh "M6" O 177 178 0 0 0
At SMD N 00888000
Po 1574 3464
$EndPAD
$PAD
Sh "M7" O 177 178 0 0 0
At SMD N 00888000
Po 1889 3464
$EndPAD
$PAD
Sh "M8" O 177 178 0 0 0
At SMD N 00888000
Po 2204 3464
$EndPAD
$PAD
Sh "M9" O 177 178 0 0 0
At SMD N 00888000
Po 2519 3464
$EndPAD
$PAD
Sh "M10" O 177 178 0 0 0
At SMD N 00888000
Po 2834 3464
$EndPAD
$PAD
Sh "M11" O 177 178 0 0 0
At SMD N 00888000
Po 3149 3464
$EndPAD
$PAD
Sh "M12" O 178 178 0 0 0
At SMD N 00888000
Po 3464 3464
$EndPAD
$PAD
Sh "M13" O 178 178 0 0 0
At SMD N 00888000
Po 3779 3464
$EndPAD
$PAD
Sh "M14" O 178 178 0 0 0
At SMD N 00888000
Po 4094 3464
$EndPAD
$PAD
Sh "M15" O 178 178 0 0 0
At SMD N 00888000
Po 4409 3464
$EndPAD
$PAD
Sh "M16" O 177 178 0 0 0
At SMD N 00888000
Po 4723 3464
$EndPAD
$PAD
Sh "M17" O 177 178 0 0 0
At SMD N 00888000
Po 5038 3464
$EndPAD
$PAD
Sh "M18" O 177 178 0 0 0
At SMD N 00888000
Po 5353 3464
$EndPAD
$PAD
Sh "N1" O 176 178 0 0 0
At SMD N 00888000
Po 0 3779
$EndPAD
$PAD
Sh "N2" O 177 178 0 0 0
At SMD N 00888000
Po 314 3779
$EndPAD
$PAD
Sh "N3" O 177 178 0 0 0
At SMD N 00888000
Po 629 3779
$EndPAD
$PAD
Sh "N4" O 177 178 0 0 0
At SMD N 00888000
Po 944 3779
$EndPAD
$PAD
Sh "N5" O 177 178 0 0 0
At SMD N 00888000
Po 1259 3779
$EndPAD
$PAD
Sh "N6" O 177 178 0 0 0
At SMD N 00888000
Po 1574 3779
$EndPAD
$PAD
Sh "N7" O 177 178 0 0 0
At SMD N 00888000
Po 1889 3779
$EndPAD
$PAD
Sh "N8" O 177 178 0 0 0
At SMD N 00888000
Po 2204 3779
$EndPAD
$PAD
Sh "N9" O 177 178 0 0 0
At SMD N 00888000
Po 2519 3779
$EndPAD
$PAD
Sh "N10" O 177 178 0 0 0
At SMD N 00888000
Po 2834 3779
$EndPAD
$PAD
Sh "N11" O 177 178 0 0 0
At SMD N 00888000
Po 3149 3779
$EndPAD
$PAD
Sh "N12" O 178 178 0 0 0
At SMD N 00888000
Po 3464 3779
$EndPAD
$PAD
Sh "N13" O 178 178 0 0 0
At SMD N 00888000
Po 3779 3779
$EndPAD
$PAD
Sh "N14" O 178 178 0 0 0
At SMD N 00888000
Po 4094 3779
$EndPAD
$PAD
Sh "N15" O 178 178 0 0 0
At SMD N 00888000
Po 4409 3779
$EndPAD
$PAD
Sh "N16" O 177 178 0 0 0
At SMD N 00888000
Po 4723 3779
$EndPAD
$PAD
Sh "N17" O 177 178 0 0 0
At SMD N 00888000
Po 5038 3779
$EndPAD
$PAD
Sh "N18" O 177 178 0 0 0
At SMD N 00888000
Po 5353 3779
$EndPAD
$PAD
Sh "P1" O 176 178 0 0 0
At SMD N 00888000
Po 0 4094
$EndPAD
$PAD
Sh "P2" O 177 178 0 0 0
At SMD N 00888000
Po 314 4094
$EndPAD
$PAD
Sh "P3" O 177 178 0 0 0
At SMD N 00888000
Po 629 4094
$EndPAD
$PAD
Sh "P4" O 177 178 0 0 0
At SMD N 00888000
Po 944 4094
$EndPAD
$PAD
Sh "P5" O 177 178 0 0 0
At SMD N 00888000
Po 1259 4094
$EndPAD
$PAD
Sh "P6" O 177 178 0 0 0
At SMD N 00888000
Po 1574 4094
$EndPAD
$PAD
Sh "P7" O 177 178 0 0 0
At SMD N 00888000
Po 1889 4094
$EndPAD
$PAD
Sh "P8" O 177 178 0 0 0
At SMD N 00888000
Po 2204 4094
$EndPAD
$PAD
Sh "P9" O 177 178 0 0 0
At SMD N 00888000
Po 2519 4094
$EndPAD
$PAD
Sh "P10" O 177 178 0 0 0
At SMD N 00888000
Po 2834 4094
$EndPAD
$PAD
Sh "P11" O 177 178 0 0 0
At SMD N 00888000
Po 3149 4094
$EndPAD
$PAD
Sh "P12" O 178 178 0 0 0
At SMD N 00888000
Po 3464 4094
$EndPAD
$PAD
Sh "P13" O 178 178 0 0 0
At SMD N 00888000
Po 3779 4094
$EndPAD
$PAD
Sh "P14" O 178 178 0 0 0
At SMD N 00888000
Po 4094 4094
$EndPAD
$PAD
Sh "P15" O 178 178 0 0 0
At SMD N 00888000
Po 4409 4094
$EndPAD
$PAD
Sh "P16" O 177 178 0 0 0
At SMD N 00888000
Po 4723 4094
$EndPAD
$PAD
Sh "P17" O 177 178 0 0 0
At SMD N 00888000
Po 5038 4094
$EndPAD
$PAD
Sh "P18" O 177 178 0 0 0
At SMD N 00888000
Po 5353 4094
$EndPAD
$PAD
Sh "R1" O 176 178 0 0 0
At SMD N 00888000
Po 0 4409
$EndPAD
$PAD
Sh "R2" O 177 178 0 0 0
At SMD N 00888000
Po 314 4409
$EndPAD
$PAD
Sh "R3" O 177 178 0 0 0
At SMD N 00888000
Po 629 4409
$EndPAD
$PAD
Sh "R4" O 177 178 0 0 0
At SMD N 00888000
Po 944 4409
$EndPAD
$PAD
Sh "R5" O 177 178 0 0 0
At SMD N 00888000
Po 1259 4409
$EndPAD
$PAD
Sh "R6" O 177 178 0 0 0
At SMD N 00888000
Po 1574 4409
$EndPAD
$PAD
Sh "R7" O 177 178 0 0 0
At SMD N 00888000
Po 1889 4409
$EndPAD
$PAD
Sh "R8" O 177 178 0 0 0
At SMD N 00888000
Po 2204 4409
$EndPAD
$PAD
Sh "R9" O 177 178 0 0 0
At SMD N 00888000
Po 2519 4409
$EndPAD
$PAD
Sh "R10" O 177 178 0 0 0
At SMD N 00888000
Po 2834 4409
$EndPAD
$PAD
Sh "R11" O 177 178 0 0 0
At SMD N 00888000
Po 3149 4409
$EndPAD
$PAD
Sh "R12" O 178 178 0 0 0
At SMD N 00888000
Po 3464 4409
$EndPAD
$PAD
Sh "R13" O 178 178 0 0 0
At SMD N 00888000
Po 3779 4409
$EndPAD
$PAD
Sh "R14" O 178 178 0 0 0
At SMD N 00888000
Po 4094 4409
$EndPAD
$PAD
Sh "R15" O 178 178 0 0 0
At SMD N 00888000
Po 4409 4409
$EndPAD
$PAD
Sh "R16" O 177 178 0 0 0
At SMD N 00888000
Po 4723 4409
$EndPAD
$PAD
Sh "R17" O 177 178 0 0 0
At SMD N 00888000
Po 5038 4409
$EndPAD
$PAD
Sh "R18" O 177 178 0 0 0
At SMD N 00888000
Po 5353 4409
$EndPAD
$PAD
Sh "T1" O 176 177 0 0 0
At SMD N 00888000
Po 0 4723
$EndPAD
$PAD
Sh "T2" O 177 177 0 0 0
At SMD N 00888000
Po 314 4723
$EndPAD
$PAD
Sh "T3" O 177 177 0 0 0
At SMD N 00888000
Po 629 4723
$EndPAD
$PAD
Sh "T4" O 177 177 0 0 0
At SMD N 00888000
Po 944 4723
$EndPAD
$PAD
Sh "T5" O 177 177 0 0 0
At SMD N 00888000
Po 1259 4723
$EndPAD
$PAD
Sh "T6" O 177 177 0 0 0
At SMD N 00888000
Po 1574 4723
$EndPAD
$PAD
Sh "T7" O 177 177 0 0 0
At SMD N 00888000
Po 1889 4723
$EndPAD
$PAD
Sh "T8" O 177 177 0 0 0
At SMD N 00888000
Po 2204 4723
$EndPAD
$PAD
Sh "T9" O 177 177 0 0 0
At SMD N 00888000
Po 2519 4723
$EndPAD
$PAD
Sh "T10" O 177 177 0 0 0
At SMD N 00888000
Po 2834 4723
$EndPAD
$PAD
Sh "T11" O 177 177 0 0 0
At SMD N 00888000
Po 3149 4723
$EndPAD
$PAD
Sh "T12" O 178 177 0 0 0
At SMD N 00888000
Po 3464 4723
$EndPAD
$PAD
Sh "T13" O 178 177 0 0 0
At SMD N 00888000
Po 3779 4723
$EndPAD
$PAD
Sh "T14" O 178 177 0 0 0
At SMD N 00888000
Po 4094 4723
$EndPAD
$PAD
Sh "T15" O 178 177 0 0 0
At SMD N 00888000
Po 4409 4723
$EndPAD
$PAD
Sh "T16" O 177 177 0 0 0
At SMD N 00888000
Po 4723 4723
$EndPAD
$PAD
Sh "T17" O 177 177 0 0 0
At SMD N 00888000
Po 5038 4723
$EndPAD
$PAD
Sh "T18" O 177 177 0 0 0
At SMD N 00888000
Po 5353 4723
$EndPAD
$PAD
Sh "U1" O 176 177 0 0 0
At SMD N 00888000
Po 0 5038
$EndPAD
$PAD
Sh "U2" O 177 177 0 0 0
At SMD N 00888000
Po 314 5038
$EndPAD
$PAD
Sh "U3" O 177 177 0 0 0
At SMD N 00888000
Po 629 5038
$EndPAD
$PAD
Sh "U4" O 177 177 0 0 0
At SMD N 00888000
Po 944 5038
$EndPAD
$PAD
Sh "U5" O 177 177 0 0 0
At SMD N 00888000
Po 1259 5038
$EndPAD
$PAD
Sh "U6" O 177 177 0 0 0
At SMD N 00888000
Po 1574 5038
$EndPAD
$PAD
Sh "U7" O 177 177 0 0 0
At SMD N 00888000
Po 1889 5038
$EndPAD
$PAD
Sh "U8" O 177 177 0 0 0
At SMD N 00888000
Po 2204 5038
$EndPAD
$PAD
Sh "U9" O 177 177 0 0 0
At SMD N 00888000
Po 2519 5038
$EndPAD
$PAD
Sh "U10" O 177 177 0 0 0
At SMD N 00888000
Po 2834 5038
$EndPAD
$PAD
Sh "U11" O 177 177 0 0 0
At SMD N 00888000
Po 3149 5038
$EndPAD
$PAD
Sh "U12" O 178 177 0 0 0
At SMD N 00888000
Po 3464 5038
$EndPAD
$PAD
Sh "U13" O 178 177 0 0 0
At SMD N 00888000
Po 3779 5038
$EndPAD
$PAD
Sh "U14" O 178 177 0 0 0
At SMD N 00888000
Po 4094 5038
$EndPAD
$PAD
Sh "U15" O 178 177 0 0 0
At SMD N 00888000
Po 4409 5038
$EndPAD
$PAD
Sh "U16" O 177 177 0 0 0
At SMD N 00888000
Po 4723 5038
$EndPAD
$PAD
Sh "U17" O 177 177 0 0 0
At SMD N 00888000
Po 5038 5038
$EndPAD
$PAD
Sh "U18" O 177 177 0 0 0
At SMD N 00888000
Po 5353 5038
$EndPAD
$PAD
Sh "V1" O 176 177 0 0 0
At SMD N 00888000
Po 0 5353
$EndPAD
$PAD
Sh "V2" O 177 177 0 0 0
At SMD N 00888000
Po 314 5353
$EndPAD
$PAD
Sh "V3" O 177 177 0 0 0
At SMD N 00888000
Po 629 5353
$EndPAD
$PAD
Sh "V4" O 177 177 0 0 0
At SMD N 00888000
Po 944 5353
$EndPAD
$PAD
Sh "V5" O 177 177 0 0 0
At SMD N 00888000
Po 1259 5353
$EndPAD
$PAD
Sh "V6" O 177 177 0 0 0
At SMD N 00888000
Po 1574 5353
$EndPAD
$PAD
Sh "V7" O 177 177 0 0 0
At SMD N 00888000
Po 1889 5353
$EndPAD
$PAD
Sh "V8" O 177 177 0 0 0
At SMD N 00888000
Po 2204 5353
$EndPAD
$PAD
Sh "V9" O 177 177 0 0 0
At SMD N 00888000
Po 2519 5353
$EndPAD
$PAD
Sh "V10" O 177 177 0 0 0
At SMD N 00888000
Po 2834 5353
$EndPAD
$PAD
Sh "V11" O 177 177 0 0 0
At SMD N 00888000
Po 3149 5353
$EndPAD
$PAD
Sh "V12" O 178 177 0 0 0
At SMD N 00888000
Po 3464 5353
$EndPAD
$PAD
Sh "V13" O 178 177 0 0 0
At SMD N 00888000
Po 3779 5353
$EndPAD
$PAD
Sh "V14" O 178 177 0 0 0
At SMD N 00888000
Po 4094 5353
$EndPAD
$PAD
Sh "V15" O 178 177 0 0 0
At SMD N 00888000
Po 4409 5353
$EndPAD
$PAD
Sh "V16" O 177 177 0 0 0
At SMD N 00888000
Po 4723 5353
$EndPAD
$PAD
Sh "V17" O 177 177 0 0 0
At SMD N 00888000
Po 5038 5353
$EndPAD
$PAD
Sh "V18" O 177 177 0 0 0
At SMD N 00888000
Po 5353 5353
$EndPAD
DS 5629 -275 5629 5629 50 21
DS 5629 5629 -275 5629 50 21
DS -275 5629 -275 -275 50 21
DS -275 -275 5629 -275 50 21
DS 0 -275 -275 0 50 21
$EndMODULE BGA-324
$EndLIBRARY
