PCBNEW-LibModule-V1 Sun Jul  2 19:01:24 2017
$INDEX
CPL-WBF-00D3
$EndINDEX
$MODULE CPL-WBF-00D3
Po 0 0 0 15 595926E4 00000000 ~~
Li CPL-WBF-00D3
Sc 595926E4
At SMD
Op 0 0 0
T0 0 -150 200 200 0 40 N V 25 "CPL-WBF-00D3"
T1 0 150 200 200 0 40 N I 25 "Val*"
$PAD
Sh "3" O 79 79 0 0 0
At SMD N 00888000
Po -130 -287
$EndPAD
$PAD
Sh "1" O 79 79 0 0 0
At SMD N 00888000
Po -130 287
$EndPAD
$PAD
Sh "2" O 79 79 0 0 0
At SMD N 00888000
Po 134 -117
$EndPAD
$PAD
Sh "6" O 79 79 0 0 0
At SMD N 00888000
Po 134 117
$EndPAD
$PAD
Sh "4" O 78 79 0 0 0
At SMD N 00888000
Po -23 -78
$EndPAD
$PAD
Sh "5" O 78 79 0 0 0
At SMD N 00888000
Po -23 78
$EndPAD
DS -218 374 -218 -374 3 21
DS -218 -374 218 -374 3 21
DS 218 -374 218 374 3 21
DS 218 374 -218 374 3 21
DS -218 374 -218 -374 3 21
DS -218 -374 218 -374 3 21
DS 218 -374 218 374 3 21
DS 218 374 -218 374 3 21
DS -218 374 -218 -374 3 21
DS -218 -374 218 -374 3 21
DS 218 -374 218 374 3 21
DS 218 374 -218 374 3 21
DS -218 374 -218 -374 3 21
DS -218 -374 218 -374 3 21
DS 218 -374 218 374 3 21
DS 218 374 -218 374 3 21
DS -218 374 -218 -374 3 21
DS -218 -374 218 -374 3 21
DS 218 -374 218 374 3 21
DS 218 374 -218 374 3 21
DS -218 374 -218 -374 3 21
DS -218 -374 218 -374 3 21
DS 218 -374 218 374 3 21
DS 218 374 -218 374 3 21
$EndMODULE CPL-WBF-00D3
$EndLIBRARY
