PCBNEW-LibModule-V1 Mon Feb  6 19:22:23 2017
$INDEX
DFN-8
DFN-8-0.4mm
DFN-6-0.65mm
DFN-6-0.65mm-TH
$EndINDEX
$MODULE DFN-8
Po 0 0 0 15 5898BEDF 00000000 ~~
Li DFN-8
Sc 5898BEDF
At SMD
Op 0 0 0
T0 0 -150 200 200 0 40 N V 25 "DFN-8"
T1 0 150 200 200 0 40 N I 25 "Val*"
$PAD
Sh "8" R 110 197 0 0 0
At SMD N 00888000
Po -295 -373
$EndPAD
$PAD
Sh "7" R 110 197 0 0 0
At SMD N 00888000
Po -98 -373
$EndPAD
$PAD
Sh "6" R 110 197 0 0 0
At SMD N 00888000
Po 98 -373
$EndPAD
$PAD
Sh "5" R 110 197 0 0 0
At SMD N 00888000
Po 295 -373
$EndPAD
$PAD
Sh "1" R 110 197 0 0 0
At SMD N 00888000
Po -295 373
$EndPAD
$PAD
Sh "2" R 110 197 0 0 0
At SMD N 00888000
Po -98 373
$EndPAD
$PAD
Sh "3" R 110 197 0 0 0
At SMD N 00888000
Po 98 373
$EndPAD
$PAD
Sh "4" R 110 197 0 0 0
At SMD N 00888000
Po 295 373
$EndPAD
$PAD
Sh "9" R 510 274 0 0 0
At SMD N 00888000
Po 0 0
$EndPAD
DC -685 399 -685 300 50 21
DS 497 -497 497 497 50 21
DS -497 -497 -497 497 50 21
$EndMODULE DFN-8
$MODULE DFN-8-0.4mm
Po 0 0 0 15 5898BEDF 00000000 ~~
Li DFN-8-0.4mm
Sc 5898BEDF
At SMD
Op 0 0 0
T0 0 -150 200 200 0 40 N V 25 "DFN-8-0.4mm"
T1 0 150 200 200 0 40 N I 25 "Val*"
$PAD
Sh "8" R 79 187 0 0 0
At SMD N 00888000
Po -235 -250
$EndPAD
$PAD
Sh "7" R 79 187 0 0 0
At SMD N 00888000
Po -78 -250
$EndPAD
$PAD
Sh "6" R 79 187 0 0 0
At SMD N 00888000
Po 78 -250
$EndPAD
$PAD
Sh "5" R 79 187 0 0 0
At SMD N 00888000
Po 235 -250
$EndPAD
$PAD
Sh "1" R 79 187 0 0 0
At SMD N 00888000
Po -235 250
$EndPAD
$PAD
Sh "2" R 79 187 0 0 0
At SMD N 00888000
Po -78 250
$EndPAD
$PAD
Sh "3" R 79 187 0 0 0
At SMD N 00888000
Po 78 250
$EndPAD
$PAD
Sh "4" R 79 187 0 0 0
At SMD N 00888000
Po 235 250
$EndPAD
$PAD
Sh "9" R 392 156 0 0 0
At SMD N 00888000
Po 0 0
$EndPAD
DC -586 231 -586 133 50 21
DS 399 -330 399 330 50 21
DS -399 -330 -399 330 50 21
$EndMODULE DFN-8-0.4mm
$MODULE DFN-6-0.65mm
Po 0 0 0 15 5898BEDF 00000000 ~~
Li DFN-6-0.65mm
Sc 5898BEDF
At SMD
Op 0 0 0
T0 0 -150 200 200 0 40 N V 25 "DFN-6-0.65mm"
T1 0 150 200 200 0 40 N I 25 "Val*"
$PAD
Sh "6" R 99 236 0 0 0
At SMD N 00888000
Po -255 -452
$EndPAD
$PAD
Sh "5" R 98 236 0 0 0
At SMD N 00888000
Po 0 -452
$EndPAD
$PAD
Sh "4" R 99 236 0 0 0
At SMD N 00888000
Po 255 -452
$EndPAD
$PAD
Sh "1" R 99 236 0 0 0
At SMD N 00888000
Po -255 452
$EndPAD
$PAD
Sh "2" R 98 236 0 0 0
At SMD N 00888000
Po 0 452
$EndPAD
$PAD
Sh "3" R 99 236 0 0 0
At SMD N 00888000
Po 255 452
$EndPAD
$PAD
Sh "7" R 472 294 0 0 0
At SMD N 00888000
Po 0 0
$EndPAD
DC -645 379 -645 280 50 21
DS 458 -477 458 477 50 21
DS -458 -477 -458 477 50 21
$EndMODULE DFN-6-0.65mm
$MODULE DFN-6-0.65mm-TH
Po 0 0 0 15 5898BEDF 00000000 ~~
Li DFN-6-0.65mm-TH
Sc 5898BEDF
At SMD
Op 0 0 0
T0 0 -150 200 200 0 40 N V 25 "DFN-6-0.65mm-TH"
T1 0 150 200 200 0 40 N I 25 "Val*"
$PAD
Sh "6" R 118 276 0 0 0
At SMD N 00888000
Po -255 -413
$EndPAD
$PAD
Sh "5" R 118 276 0 0 0
At SMD N 00888000
Po 0 -413
$EndPAD
$PAD
Sh "4" R 118 276 0 0 0
At SMD N 00888000
Po 255 -413
$EndPAD
$PAD
Sh "1" R 118 276 0 0 0
At SMD N 00888000
Po -255 413
$EndPAD
$PAD
Sh "2" R 118 276 0 0 0
At SMD N 00888000
Po 0 413
$EndPAD
$PAD
Sh "3" R 118 276 0 0 0
At SMD N 00888000
Po 255 413
$EndPAD
$PAD
Sh "7" R 628 392 0 0 0
At SMD N 00888000
Po 0 0
$EndPAD
$PAD
Sh "HOLE" C 78 78 0 0 0
Dr 78 0 0
At HOLE N 00C00000
Po -157 0
$EndPAD
$PAD
Sh "HOLE" C 78 78 0 0 0
Dr 78 0 0
At HOLE N 00C00000
Po 157 0
$EndPAD
DC -606 339 -606 241 50 21
DS 418 -438 418 438 50 21
DS -418 -438 -418 438 50 21
$EndMODULE DFN-6-0.65mm-TH
$EndLIBRARY
