PCBNEW-LibModule-V1 Mon Feb  6 19:22:23 2017
$INDEX
LGA-16-3x3
LGA-8-2.5x2.5-BME280
LGA-20-3x4.5-BMX055
LGA-12-1.7x2-RUT
$EndINDEX
$MODULE LGA-16-3x3
Po 0 0 0 15 5898BEDF 00000000 ~~
Li LGA-16-3x3
Sc 5898BEDF
At SMD
Op 0 0 0
T0 0 -150 200 200 0 40 N V 25 "LGA-16-3x3"
T1 0 150 200 200 0 40 N I 25 "Val*"
$PAD
Sh "6" R 99 216 0 0 0
At SMD N 00888000
Po -196 521
$EndPAD
$PAD
Sh "7" R 98 216 0 0 0
At SMD N 00888000
Po 0 521
$EndPAD
$PAD
Sh "8" R 99 216 0 0 0
At SMD N 00888000
Po 196 521
$EndPAD
$PAD
Sh "16" R 99 216 0 0 0
At SMD N 00888000
Po -196 -521
$EndPAD
$PAD
Sh "15" R 98 216 0 0 0
At SMD N 00888000
Po 0 -521
$EndPAD
$PAD
Sh "14" R 99 216 0 0 0
At SMD N 00888000
Po 196 -521
$EndPAD
$PAD
Sh "5" R 216 98 0 0 0
At SMD N 00888000
Po -521 393
$EndPAD
$PAD
Sh "4" R 216 99 0 0 0
At SMD N 00888000
Po -521 196
$EndPAD
$PAD
Sh "3" R 216 98 0 0 0
At SMD N 00888000
Po -521 0
$EndPAD
$PAD
Sh "2" R 216 99 0 0 0
At SMD N 00888000
Po -521 -196
$EndPAD
$PAD
Sh "1" R 216 98 0 0 0
At SMD N 00888000
Po -521 -393
$EndPAD
$PAD
Sh "9" R 216 98 0 0 0
At SMD N 00888000
Po 521 393
$EndPAD
$PAD
Sh "10" R 216 99 0 0 0
At SMD N 00888000
Po 521 196
$EndPAD
$PAD
Sh "11" R 216 98 0 0 0
At SMD N 00888000
Po 521 0
$EndPAD
$PAD
Sh "12" R 216 99 0 0 0
At SMD N 00888000
Po 521 -196
$EndPAD
$PAD
Sh "13" R 216 98 0 0 0
At SMD N 00888000
Po 521 -393
$EndPAD
DS -733 733 -733 -733 50 21
DS -733 -733 733 -733 50 21
DS 733 -733 733 733 50 21
DS 733 733 -733 733 50 21
DS -733 -538 -538 -733 50 21
$EndMODULE LGA-16-3x3
$MODULE LGA-8-2.5x2.5-BME280
Po 0 0 0 15 5898BEDF 00000000 ~~
Li LGA-8-2.5x2.5-BME280
Sc 5898BEDF
At SMD
Op 0 0 0
T0 0 -150 200 200 0 40 N V 25 "LGA-8-2.5x2.5-BME280"
T1 0 150 200 200 0 40 N I 25 "Val*"
$PAD
Sh "5" R 196 138 0 0 0
At SMD N 00888000
Po -403 383
$EndPAD
$PAD
Sh "6" R 196 137 0 0 0
At SMD N 00888000
Po -403 127
$EndPAD
$PAD
Sh "7" R 196 137 0 0 0
At SMD N 00888000
Po -403 -127
$EndPAD
$PAD
Sh "8" R 196 138 0 0 0
At SMD N 00888000
Po -403 -383
$EndPAD
$PAD
Sh "4" R 196 138 0 0 0
At SMD N 00888000
Po 403 383
$EndPAD
$PAD
Sh "3" R 196 137 0 0 0
At SMD N 00888000
Po 403 127
$EndPAD
$PAD
Sh "2" R 196 137 0 0 0
At SMD N 00888000
Po 403 -127
$EndPAD
$PAD
Sh "1" R 196 138 0 0 0
At SMD N 00888000
Po 403 -383
$EndPAD
DS -635 635 -635 -635 50 21
DS -635 -635 635 -635 50 21
DS 635 -635 635 635 50 21
DS 635 635 -635 635 50 21
DS 635 -440 440 -635 50 21
$EndMODULE LGA-8-2.5x2.5-BME280
$MODULE LGA-20-3x4.5-BMX055
Po 0 0 0 15 5898BEDF 00000000 ~~
Li LGA-20-3x4.5-BMX055
Sc 5898BEDF
At SMD
Op 0 0 0
T0 0 -150 200 200 0 40 N V 25 "LGA-20-3x4.5-BMX055"
T1 0 150 200 200 0 40 N I 25 "Val*"
$PAD
Sh "10" R 99 227 0 0 0
At SMD N 00888000
Po -196 811
$EndPAD
$PAD
Sh "9" R 98 227 0 0 0
At SMD N 00888000
Po 0 811
$EndPAD
$PAD
Sh "8" R 99 227 0 0 0
At SMD N 00888000
Po 196 811
$EndPAD
$PAD
Sh "18" R 99 227 0 0 0
At SMD N 00888000
Po -196 -811
$EndPAD
$PAD
Sh "19" R 98 227 0 0 0
At SMD N 00888000
Po 0 -811
$EndPAD
$PAD
Sh "20" R 99 227 0 0 0
At SMD N 00888000
Po 196 -811
$EndPAD
$PAD
Sh "11" R 265 98 0 0 0
At SMD N 00888000
Po -496 590
$EndPAD
$PAD
Sh "12" R 265 98 0 0 0
At SMD N 00888000
Po -496 393
$EndPAD
$PAD
Sh "13" R 265 99 0 0 0
At SMD N 00888000
Po -496 196
$EndPAD
$PAD
Sh "14" R 265 98 0 0 0
At SMD N 00888000
Po -496 0
$EndPAD
$PAD
Sh "15" R 265 99 0 0 0
At SMD N 00888000
Po -496 -196
$EndPAD
$PAD
Sh "16" R 265 98 0 0 0
At SMD N 00888000
Po -496 -393
$EndPAD
$PAD
Sh "17" R 265 98 0 0 0
At SMD N 00888000
Po -496 -590
$EndPAD
$PAD
Sh "7" R 265 98 0 0 0
At SMD N 00888000
Po 496 590
$EndPAD
$PAD
Sh "6" R 265 98 0 0 0
At SMD N 00888000
Po 496 393
$EndPAD
$PAD
Sh "5" R 265 99 0 0 0
At SMD N 00888000
Po 496 196
$EndPAD
$PAD
Sh "4" R 265 98 0 0 0
At SMD N 00888000
Po 496 0
$EndPAD
$PAD
Sh "3" R 265 99 0 0 0
At SMD N 00888000
Po 496 -196
$EndPAD
$PAD
Sh "2" R 265 98 0 0 0
At SMD N 00888000
Po 496 -393
$EndPAD
$PAD
Sh "1" R 265 98 0 0 0
At SMD N 00888000
Po 496 -590
$EndPAD
DS -733 1028 -733 -1028 50 21
DS -733 -1028 733 -1028 50 21
DS 733 -1028 733 1028 50 21
DS 733 1028 -733 1028 50 21
DS 733 -833 538 -1028 50 21
$EndMODULE LGA-20-3x4.5-BMX055
$MODULE LGA-12-1.7x2-RUT
Po 0 0 0 15 5898BEDF 00000000 ~~
Li LGA-12-1.7x2-RUT
Sc 5898BEDF
At SMD
Op 0 0 0
T0 0 -150 200 200 0 40 N V 25 "LGA-12-1.7x2-RUT"
T1 0 150 200 200 0 40 N I 25 "Val*"
$PAD
Sh "6" R 78 237 0 0 0
At SMD N 00888000
Po 0 314
$EndPAD
$PAD
Sh "12" R 78 237 0 0 0
At SMD N 00888000
Po 0 -314
$EndPAD
$PAD
Sh "5" R 237 79 0 0 0
At SMD N 00888000
Po -255 314
$EndPAD
$PAD
Sh "4" R 237 78 0 0 0
At SMD N 00888000
Po -255 157
$EndPAD
$PAD
Sh "3" R 237 78 0 0 0
At SMD N 00888000
Po -255 0
$EndPAD
$PAD
Sh "2" R 237 78 0 0 0
At SMD N 00888000
Po -255 -157
$EndPAD
$PAD
Sh "1" R 237 79 0 0 0
At SMD N 00888000
Po -255 -314
$EndPAD
$PAD
Sh "7" R 237 79 0 0 0
At SMD N 00888000
Po 255 314
$EndPAD
$PAD
Sh "8" R 237 78 0 0 0
At SMD N 00888000
Po 255 157
$EndPAD
$PAD
Sh "9" R 237 78 0 0 0
At SMD N 00888000
Po 255 0
$EndPAD
$PAD
Sh "10" R 237 78 0 0 0
At SMD N 00888000
Po 255 -157
$EndPAD
$PAD
Sh "11" R 237 79 0 0 0
At SMD N 00888000
Po 255 -314
$EndPAD
DS -477 536 -477 -536 50 21
DS -477 -536 477 -536 50 21
DS 477 -536 477 536 50 21
DS 477 536 -477 536 50 21
DS -477 -341 -282 -536 50 21
$EndMODULE LGA-12-1.7x2-RUT
$EndLIBRARY
