PCBNEW-LibModule-V1 Sun Jul  2 19:01:24 2017
$INDEX
LUXEON-3020
$EndINDEX
$MODULE LUXEON-3020
Po 0 0 0 15 595926E4 00000000 ~~
Li LUXEON-3020
Sc 595926E4
At SMD
Op 0 0 0
T0 0 -150 200 200 0 40 N V 25 "LUXEON-3020"
T1 0 150 200 200 0 40 N I 25 "Val*"
$PAD
Sh "A" R 165 602 0 0 0
At SMD N 00888000
Po -456 0
$EndPAD
$PAD
Sh "K" R 637 602 0 0 0
At SMD N 00008000
Po 181 0
$EndPAD
$PAD
Sh "Cpaste" R 637 602 0 0 0
At SMD N 00080000
Po 181 0
$EndPAD
$PAD
Sh "Cmask" R 676 602 0 0 0
At SMD N 00800000
Po 201 0
$EndPAD
$EndMODULE LUXEON-3020
$EndLIBRARY
