PCBNEW-LibModule-V1 Sun Jul  2 19:01:24 2017
$INDEX
MNR-02
MNR-12
MNR-04
MNR-14
MNR-15
MNR-18
$EndINDEX
$MODULE MNR-02
Po 0 0 0 15 595926E4 00000000 ~~
Li MNR-02
Sc 595926E4
At SMD
Op 0 0 0
T0 0 -150 200 200 0 40 N V 25 "MNR-02"
T1 0 150 200 200 0 40 N I 25 "Val*"
$PAD
Sh "4" R 147 197 0 0 0
At SMD N 00888000
Po -132 -196
$EndPAD
$PAD
Sh "3" R 147 197 0 0 0
At SMD N 00888000
Po 132 -196
$EndPAD
$PAD
Sh "1" R 147 197 0 0 0
At SMD N 00888000
Po -132 196
$EndPAD
$PAD
Sh "2" R 147 197 0 0 0
At SMD N 00888000
Po 132 196
$EndPAD
DS -196 196 -196 -196 39 21
DS -196 -196 196 -196 39 21
DS 196 -196 196 196 39 21
DS 196 196 -196 196 39 21
$EndMODULE MNR-02
$MODULE MNR-12
Po 0 0 0 15 595926E4 00000000 ~~
Li MNR-12
Sc 595926E4
At SMD
Op 0 0 0
T0 0 -150 200 200 0 40 N V 25 "MNR-12"
T1 0 150 200 200 0 40 N I 25 "Val*"
$PAD
Sh "4" R 196 296 0 0 0
At SMD N 00888000
Po -157 -344
$EndPAD
$PAD
Sh "3" R 196 296 0 0 0
At SMD N 00888000
Po 157 -344
$EndPAD
$PAD
Sh "1" R 196 296 0 0 0
At SMD N 00888000
Po -157 344
$EndPAD
$PAD
Sh "2" R 196 296 0 0 0
At SMD N 00888000
Po 157 344
$EndPAD
DS -314 314 -314 -314 39 21
DS -314 -314 314 -314 39 21
DS 314 -314 314 314 39 21
DS 314 314 -314 314 39 21
$EndMODULE MNR-12
$MODULE MNR-04
Po 0 0 0 15 595926E4 00000000 ~~
Li MNR-04
Sc 595926E4
At SMD
Op 0 0 0
T0 0 -150 200 200 0 40 N V 25 "MNR-04"
T1 0 150 200 200 0 40 N I 25 "Val*"
$PAD
Sh "7" R 118 197 0 0 0
At SMD N 00888000
Po -98 -196
$EndPAD
$PAD
Sh "6" R 118 197 0 0 0
At SMD N 00888000
Po 98 -196
$EndPAD
$PAD
Sh "2" R 118 197 0 0 0
At SMD N 00888000
Po -98 196
$EndPAD
$PAD
Sh "3" R 118 197 0 0 0
At SMD N 00888000
Po 98 196
$EndPAD
$PAD
Sh "8" R 157 197 0 0 0
At SMD N 00888000
Po -304 -196
$EndPAD
$PAD
Sh "5" R 157 197 0 0 0
At SMD N 00888000
Po 304 -196
$EndPAD
$PAD
Sh "1" R 157 197 0 0 0
At SMD N 00888000
Po -304 196
$EndPAD
$PAD
Sh "4" R 157 197 0 0 0
At SMD N 00888000
Po 304 196
$EndPAD
DS -393 196 -393 -196 39 21
DS -393 -196 393 -196 39 21
DS 393 -196 393 196 39 21
DS 393 196 -393 196 39 21
$EndMODULE MNR-04
$MODULE MNR-14
Po 0 0 0 15 595926E4 00000000 ~~
Li MNR-14
Sc 595926E4
At SMD
Op 0 0 0
T0 0 -150 200 200 0 40 N V 25 "MNR-14"
T1 0 150 200 200 0 40 N I 25 "Val*"
$PAD
Sh "7" R 158 296 0 0 0
At SMD N 00888000
Po -157 -344
$EndPAD
$PAD
Sh "6" R 158 296 0 0 0
At SMD N 00888000
Po 157 -344
$EndPAD
$PAD
Sh "2" R 158 296 0 0 0
At SMD N 00888000
Po -157 344
$EndPAD
$PAD
Sh "3" R 158 296 0 0 0
At SMD N 00888000
Po 157 344
$EndPAD
$PAD
Sh "8" R 197 296 0 0 0
At SMD N 00888000
Po -491 -344
$EndPAD
$PAD
Sh "5" R 197 296 0 0 0
At SMD N 00888000
Po 491 -344
$EndPAD
$PAD
Sh "1" R 197 296 0 0 0
At SMD N 00888000
Po -491 344
$EndPAD
$PAD
Sh "4" R 197 296 0 0 0
At SMD N 00888000
Po 491 344
$EndPAD
DS -629 314 -629 -314 39 21
DS -629 -314 629 -314 39 21
DS 629 -314 629 314 39 21
DS 629 314 -629 314 39 21
$EndMODULE MNR-14
$MODULE MNR-15
Po 0 0 0 15 595926E4 00000000 ~~
Li MNR-15
Sc 595926E4
At SMD
Op 0 0 0
T0 0 -150 200 200 0 40 N V 25 "MNR-15"
T1 0 150 200 200 0 40 N I 25 "Val*"
$PAD
Sh "9" R 126 296 0 0 0
At SMD N 00888000
Po -251 -344
$EndPAD
$PAD
Sh "8" R 124 296 0 0 0
At SMD N 00888000
Po 0 -344
$EndPAD
$PAD
Sh "7" R 126 296 0 0 0
At SMD N 00888000
Po 251 -344
$EndPAD
$PAD
Sh "2" R 126 296 0 0 0
At SMD N 00888000
Po -251 344
$EndPAD
$PAD
Sh "3" R 124 296 0 0 0
At SMD N 00888000
Po 0 344
$EndPAD
$PAD
Sh "4" R 126 296 0 0 0
At SMD N 00888000
Po 251 344
$EndPAD
$PAD
Sh "10" R 189 296 0 0 0
At SMD N 00888000
Po -534 -344
$EndPAD
$PAD
Sh "6" R 189 296 0 0 0
At SMD N 00888000
Po 534 -344
$EndPAD
$PAD
Sh "1" R 189 296 0 0 0
At SMD N 00888000
Po -534 344
$EndPAD
$PAD
Sh "5" R 189 296 0 0 0
At SMD N 00888000
Po 534 344
$EndPAD
DS -629 314 -629 -314 39 21
DS -629 -314 629 -314 39 21
DS 629 -314 629 314 39 21
DS 629 314 -629 314 39 21
$EndMODULE MNR-15
$MODULE MNR-18
Po 0 0 0 15 595926E4 00000000 ~~
Li MNR-18
Sc 595926E4
At SMD
Op 0 0 0
T0 0 -150 200 200 0 40 N V 25 "MNR-18"
T1 0 150 200 200 0 40 N I 25 "Val*"
$PAD
Sh "15" R 118 296 0 0 0
At SMD N 00888000
Po -492 -344
$EndPAD
$PAD
Sh "14" R 118 296 0 0 0
At SMD N 00888000
Po -295 -344
$EndPAD
$PAD
Sh "13" R 118 296 0 0 0
At SMD N 00888000
Po -98 -344
$EndPAD
$PAD
Sh "12" R 118 296 0 0 0
At SMD N 00888000
Po 98 -344
$EndPAD
$PAD
Sh "11" R 118 296 0 0 0
At SMD N 00888000
Po 295 -344
$EndPAD
$PAD
Sh "10" R 118 296 0 0 0
At SMD N 00888000
Po 492 -344
$EndPAD
$PAD
Sh "2" R 118 296 0 0 0
At SMD N 00888000
Po -492 344
$EndPAD
$PAD
Sh "3" R 118 296 0 0 0
At SMD N 00888000
Po -295 344
$EndPAD
$PAD
Sh "4" R 118 296 0 0 0
At SMD N 00888000
Po -98 344
$EndPAD
$PAD
Sh "5" R 118 296 0 0 0
At SMD N 00888000
Po 98 344
$EndPAD
$PAD
Sh "6" R 118 296 0 0 0
At SMD N 00888000
Po 295 344
$EndPAD
$PAD
Sh "7" R 118 296 0 0 0
At SMD N 00888000
Po 492 344
$EndPAD
$PAD
Sh "16" R 119 296 0 0 0
At SMD N 00888000
Po -688 -344
$EndPAD
$PAD
Sh "9" R 119 296 0 0 0
At SMD N 00888000
Po 688 -344
$EndPAD
$PAD
Sh "1" R 119 296 0 0 0
At SMD N 00888000
Po -688 344
$EndPAD
$PAD
Sh "8" R 119 296 0 0 0
At SMD N 00888000
Po 688 344
$EndPAD
DS -787 314 -787 -314 39 21
DS -787 -314 787 -314 39 21
DS 787 -314 787 314 39 21
DS 787 314 -787 314 39 21
$EndMODULE MNR-18
$EndLIBRARY
