PCBNEW-LibModule-V1 Sun Feb  5 17:36:04 2017
$INDEX
MSL0104
$EndINDEX
$MODULE MSL0104
Po 0 0 0 15 58975474 00000000 ~~
Li MSL0104
Sc 58975474
At SMD
Op 0 0 0
T0 0 -150 200 200 0 40 N V 25 "MSL0104"
T1 0 150 200 200 0 40 N I 25 "Val*"
$PAD
Sh "2" R 236 858 0 0 0
At SMD N 00888000
Po 708 429
$EndPAD
$PAD
Sh "3" R 236 858 0 0 0
At SMD N 00888000
Po 354 429
$EndPAD
$PAD
Sh "4" R 236 858 0 0 0
At SMD N 00888000
Po 0 429
$EndPAD
$PAD
Sh "5" R 236 858 0 0 0
At SMD N 00888000
Po -354 429
$EndPAD
$PAD
Sh "6" R 236 858 0 0 0
At SMD N 00888000
Po -708 429
$EndPAD
$PAD
Sh "1" R 418 622 0 0 0
At SMD N 00888000
Po 1161 311
$EndPAD
$PAD
Sh "7" R 418 622 0 0 0
At SMD N 00888000
Po -1161 311
$EndPAD
DS -1259 -275 1259 -275 39 21
$EndMODULE MSL0104
$EndLIBRARY
