PCBNEW-LibModule-V1 Mon Feb  6 19:22:23 2017
$INDEX
QFN16-LFCSP_LQ
QFN20-UEEE
QFN24-VGGD-8
QFN28-Atmel
QFN28-MCHP-ML
QFN28-SiLabs
QFN32-VHHD-2
QFN32-VHHD-6
QFN32-CC2543
QFN32-HVQFN
QFN32-Freescale
QFN48-Freescale
QFN48-nRF51
$EndINDEX
$MODULE QFN16-LFCSP_LQ
Po 0 0 0 15 5898BEDF 00000000 ~~
Li QFN16-LFCSP_LQ
Sc 5898BEDF
At SMD
Op 0 0 0
T0 0 -150 200 200 0 40 N V 25 "QFN16-LFCSP_LQ"
T1 0 150 200 200 0 40 N I 25 "Val*"
$PAD
Sh "1" R 473 138 0 0 0
At SMD N 00888000
Po -806 -383
$EndPAD
$PAD
Sh "2" R 473 137 0 0 0
At SMD N 00888000
Po -806 -127
$EndPAD
$PAD
Sh "3" R 473 137 0 0 0
At SMD N 00888000
Po -806 127
$EndPAD
$PAD
Sh "4" R 473 138 0 0 0
At SMD N 00888000
Po -806 383
$EndPAD
$PAD
Sh "5" R 138 473 0 0 0
At SMD N 00888000
Po -383 806
$EndPAD
$PAD
Sh "6" R 137 473 0 0 0
At SMD N 00888000
Po -127 806
$EndPAD
$PAD
Sh "7" R 137 473 0 0 0
At SMD N 00888000
Po 127 806
$EndPAD
$PAD
Sh "8" R 138 473 0 0 0
At SMD N 00888000
Po 383 806
$EndPAD
$PAD
Sh "9" R 473 138 0 0 0
At SMD N 00888000
Po 806 383
$EndPAD
$PAD
Sh "10" R 473 137 0 0 0
At SMD N 00888000
Po 806 127
$EndPAD
$PAD
Sh "11" R 473 137 0 0 0
At SMD N 00888000
Po 806 -127
$EndPAD
$PAD
Sh "12" R 473 138 0 0 0
At SMD N 00888000
Po 806 -383
$EndPAD
$PAD
Sh "13" R 138 473 0 0 0
At SMD N 00888000
Po 383 -806
$EndPAD
$PAD
Sh "14" R 137 473 0 0 0
At SMD N 00888000
Po 127 -806
$EndPAD
$PAD
Sh "15" R 137 473 0 0 0
At SMD N 00888000
Po -127 -806
$EndPAD
$PAD
Sh "16" R 138 473 0 0 0
At SMD N 00888000
Po -383 -806
$EndPAD
$PAD
Sh "17" R 956 956 0 0 0
At SMD N 00808000
Po 0 0
$EndPAD
$PAD
Sh " " R 275 275 0 0 0
At SMD N 00080000
Po -196 196
$EndPAD
$PAD
Sh " " R 275 275 0 0 0
At SMD N 00080000
Po -196 -196
$EndPAD
$PAD
Sh " " R 275 275 0 0 0
At SMD N 00080000
Po 196 196
$EndPAD
$PAD
Sh " " R 275 275 0 0 0
At SMD N 00080000
Po 196 -196
$EndPAD
DS -807 -807 -570 -807 50 21
DS -807 -807 -807 -570 50 21
DS -807 -570 -570 -807 50 21
DS -807 807 -807 570 50 21
DS -807 807 -570 807 50 21
DS -570 807 -570 807 50 21
DS 807 807 570 807 50 21
DS 807 807 807 570 50 21
DS 807 570 807 570 50 21
DS 807 -807 807 -570 50 21
DS 807 -807 570 -807 50 21
DS 570 -807 570 -807 50 21
$EndMODULE QFN16-LFCSP_LQ
$MODULE QFN20-UEEE
Po 0 0 0 15 5898BEDF 00000000 ~~
Li QFN20-UEEE
Sc 5898BEDF
At SMD
Op 0 0 0
T0 0 -150 200 200 0 40 N V 25 "QFN20-UEEE"
T1 0 150 200 200 0 40 N I 25 "Val*"
$PAD
Sh "1" R 315 79 0 0 0
At SMD N 00888000
Po -609 -314
$EndPAD
$PAD
Sh "2" R 315 78 0 0 0
At SMD N 00888000
Po -609 -157
$EndPAD
$PAD
Sh "3" R 315 78 0 0 0
At SMD N 00888000
Po -609 0
$EndPAD
$PAD
Sh "4" R 315 78 0 0 0
At SMD N 00888000
Po -609 157
$EndPAD
$PAD
Sh "5" R 315 79 0 0 0
At SMD N 00888000
Po -609 314
$EndPAD
$PAD
Sh "6" R 79 315 0 0 0
At SMD N 00888000
Po -314 609
$EndPAD
$PAD
Sh "7" R 78 315 0 0 0
At SMD N 00888000
Po -157 609
$EndPAD
$PAD
Sh "8" R 78 315 0 0 0
At SMD N 00888000
Po 0 609
$EndPAD
$PAD
Sh "9" R 78 315 0 0 0
At SMD N 00888000
Po 157 609
$EndPAD
$PAD
Sh "10" R 79 315 0 0 0
At SMD N 00888000
Po 314 609
$EndPAD
$PAD
Sh "11" R 315 79 0 0 0
At SMD N 00888000
Po 609 314
$EndPAD
$PAD
Sh "12" R 315 78 0 0 0
At SMD N 00888000
Po 609 157
$EndPAD
$PAD
Sh "13" R 315 78 0 0 0
At SMD N 00888000
Po 609 0
$EndPAD
$PAD
Sh "14" R 315 78 0 0 0
At SMD N 00888000
Po 609 -157
$EndPAD
$PAD
Sh "15" R 315 79 0 0 0
At SMD N 00888000
Po 609 -314
$EndPAD
$PAD
Sh "16" R 79 315 0 0 0
At SMD N 00888000
Po 314 -609
$EndPAD
$PAD
Sh "17" R 78 315 0 0 0
At SMD N 00888000
Po 157 -609
$EndPAD
$PAD
Sh "18" R 78 315 0 0 0
At SMD N 00888000
Po 0 -609
$EndPAD
$PAD
Sh "19" R 78 315 0 0 0
At SMD N 00888000
Po -157 -609
$EndPAD
$PAD
Sh "20" R 79 315 0 0 0
At SMD N 00888000
Po -314 -609
$EndPAD
$PAD
Sh "21" R 708 708 0 0 0
At SMD N 00808000
Po 0 0
$EndPAD
$PAD
Sh " " R 177 177 0 0 0
At SMD N 00080000
Po -137 137
$EndPAD
$PAD
Sh " " R 177 177 0 0 0
At SMD N 00080000
Po -137 -137
$EndPAD
$PAD
Sh " " R 177 177 0 0 0
At SMD N 00080000
Po 137 137
$EndPAD
$PAD
Sh " " R 177 177 0 0 0
At SMD N 00080000
Po 137 -137
$EndPAD
DS -610 -610 -452 -610 50 21
DS -610 -610 -610 -452 50 21
DS -610 -452 -452 -610 50 21
DS -610 610 -610 452 50 21
DS -610 610 -452 610 50 21
DS -452 610 -452 610 50 21
DS 610 610 452 610 50 21
DS 610 610 610 452 50 21
DS 610 452 610 452 50 21
DS 610 -610 610 -452 50 21
DS 610 -610 452 -610 50 21
DS 452 -610 452 -610 50 21
$EndMODULE QFN20-UEEE
$MODULE QFN24-VGGD-8
Po 0 0 0 15 5898BEDF 00000000 ~~
Li QFN24-VGGD-8
Sc 5898BEDF
At SMD
Op 0 0 0
T0 0 -150 200 200 0 40 N V 25 "QFN24-VGGD-8"
T1 0 150 200 200 0 40 N I 25 "Val*"
$PAD
Sh "1" R 355 99 0 0 0
At SMD N 00888000
Po -806 -491
$EndPAD
$PAD
Sh "2" R 355 98 0 0 0
At SMD N 00888000
Po -806 -295
$EndPAD
$PAD
Sh "3" R 355 98 0 0 0
At SMD N 00888000
Po -806 -98
$EndPAD
$PAD
Sh "4" R 355 98 0 0 0
At SMD N 00888000
Po -806 98
$EndPAD
$PAD
Sh "5" R 355 98 0 0 0
At SMD N 00888000
Po -806 295
$EndPAD
$PAD
Sh "6" R 355 99 0 0 0
At SMD N 00888000
Po -806 491
$EndPAD
$PAD
Sh "7" R 99 355 0 0 0
At SMD N 00888000
Po -491 806
$EndPAD
$PAD
Sh "8" R 98 355 0 0 0
At SMD N 00888000
Po -295 806
$EndPAD
$PAD
Sh "9" R 98 355 0 0 0
At SMD N 00888000
Po -98 806
$EndPAD
$PAD
Sh "10" R 98 355 0 0 0
At SMD N 00888000
Po 98 806
$EndPAD
$PAD
Sh "11" R 98 355 0 0 0
At SMD N 00888000
Po 295 806
$EndPAD
$PAD
Sh "12" R 99 355 0 0 0
At SMD N 00888000
Po 491 806
$EndPAD
$PAD
Sh "13" R 355 99 0 0 0
At SMD N 00888000
Po 806 491
$EndPAD
$PAD
Sh "14" R 355 98 0 0 0
At SMD N 00888000
Po 806 295
$EndPAD
$PAD
Sh "15" R 355 98 0 0 0
At SMD N 00888000
Po 806 98
$EndPAD
$PAD
Sh "16" R 355 98 0 0 0
At SMD N 00888000
Po 806 -98
$EndPAD
$PAD
Sh "17" R 355 98 0 0 0
At SMD N 00888000
Po 806 -295
$EndPAD
$PAD
Sh "18" R 355 99 0 0 0
At SMD N 00888000
Po 806 -491
$EndPAD
$PAD
Sh "19" R 99 355 0 0 0
At SMD N 00888000
Po 491 -806
$EndPAD
$PAD
Sh "20" R 98 355 0 0 0
At SMD N 00888000
Po 295 -806
$EndPAD
$PAD
Sh "21" R 98 355 0 0 0
At SMD N 00888000
Po 98 -806
$EndPAD
$PAD
Sh "22" R 98 355 0 0 0
At SMD N 00888000
Po -98 -806
$EndPAD
$PAD
Sh "23" R 98 355 0 0 0
At SMD N 00888000
Po -295 -806
$EndPAD
$PAD
Sh "24" R 99 355 0 0 0
At SMD N 00888000
Po -491 -806
$EndPAD
$PAD
Sh "25" R 1062 1062 0 0 0
At SMD N 00808000
Po 0 0
$EndPAD
$PAD
Sh " " R 236 236 0 0 0
At SMD N 00080000
Po -196 196
$EndPAD
$PAD
Sh " " R 236 236 0 0 0
At SMD N 00080000
Po -196 -196
$EndPAD
$PAD
Sh " " R 236 236 0 0 0
At SMD N 00080000
Po 196 196
$EndPAD
$PAD
Sh " " R 236 236 0 0 0
At SMD N 00080000
Po 196 -196
$EndPAD
DS -807 -807 -629 -807 50 21
DS -807 -807 -807 -629 50 21
DS -807 -629 -629 -807 50 21
DS -807 807 -807 629 50 21
DS -807 807 -629 807 50 21
DS -629 807 -629 807 50 21
DS 807 807 629 807 50 21
DS 807 807 807 629 50 21
DS 807 629 807 629 50 21
DS 807 -807 807 -629 50 21
DS 807 -807 629 -807 50 21
DS 629 -807 629 -807 50 21
$EndMODULE QFN24-VGGD-8
$MODULE QFN28-Atmel
Po 0 0 0 15 5898BEDF 00000000 ~~
Li QFN28-Atmel
Sc 5898BEDF
At SMD
Op 0 0 0
T0 0 -150 200 200 0 40 N V 25 "QFN28-Atmel"
T1 0 150 200 200 0 40 N I 25 "Val*"
$PAD
Sh "1" R 275 94 0 0 0
At SMD N 00888000
Po -806 -531
$EndPAD
$PAD
Sh "2" R 275 94 0 0 0
At SMD N 00888000
Po -806 -354
$EndPAD
$PAD
Sh "3" R 275 95 0 0 0
At SMD N 00888000
Po -806 -176
$EndPAD
$PAD
Sh "4" R 275 94 0 0 0
At SMD N 00888000
Po -806 0
$EndPAD
$PAD
Sh "5" R 275 95 0 0 0
At SMD N 00888000
Po -806 176
$EndPAD
$PAD
Sh "6" R 275 94 0 0 0
At SMD N 00888000
Po -806 354
$EndPAD
$PAD
Sh "7" R 275 94 0 0 0
At SMD N 00888000
Po -806 531
$EndPAD
$PAD
Sh "8" R 94 275 0 0 0
At SMD N 00888000
Po -531 806
$EndPAD
$PAD
Sh "9" R 94 275 0 0 0
At SMD N 00888000
Po -354 806
$EndPAD
$PAD
Sh "10" R 95 275 0 0 0
At SMD N 00888000
Po -176 806
$EndPAD
$PAD
Sh "11" R 94 275 0 0 0
At SMD N 00888000
Po 0 806
$EndPAD
$PAD
Sh "12" R 95 275 0 0 0
At SMD N 00888000
Po 176 806
$EndPAD
$PAD
Sh "13" R 94 275 0 0 0
At SMD N 00888000
Po 354 806
$EndPAD
$PAD
Sh "14" R 94 275 0 0 0
At SMD N 00888000
Po 531 806
$EndPAD
$PAD
Sh "15" R 275 94 0 0 0
At SMD N 00888000
Po 806 531
$EndPAD
$PAD
Sh "16" R 275 94 0 0 0
At SMD N 00888000
Po 806 354
$EndPAD
$PAD
Sh "17" R 275 95 0 0 0
At SMD N 00888000
Po 806 176
$EndPAD
$PAD
Sh "18" R 275 94 0 0 0
At SMD N 00888000
Po 806 0
$EndPAD
$PAD
Sh "19" R 275 95 0 0 0
At SMD N 00888000
Po 806 -176
$EndPAD
$PAD
Sh "20" R 275 94 0 0 0
At SMD N 00888000
Po 806 -354
$EndPAD
$PAD
Sh "21" R 275 94 0 0 0
At SMD N 00888000
Po 806 -531
$EndPAD
$PAD
Sh "22" R 94 275 0 0 0
At SMD N 00888000
Po 531 -806
$EndPAD
$PAD
Sh "23" R 94 275 0 0 0
At SMD N 00888000
Po 354 -806
$EndPAD
$PAD
Sh "24" R 95 275 0 0 0
At SMD N 00888000
Po 176 -806
$EndPAD
$PAD
Sh "25" R 94 275 0 0 0
At SMD N 00888000
Po 0 -806
$EndPAD
$PAD
Sh "26" R 95 275 0 0 0
At SMD N 00888000
Po -176 -806
$EndPAD
$PAD
Sh "27" R 94 275 0 0 0
At SMD N 00888000
Po -354 -806
$EndPAD
$PAD
Sh "28" R 94 275 0 0 0
At SMD N 00888000
Po -531 -806
$EndPAD
$PAD
Sh "29" R 944 944 0 0 0
At SMD N 00808000
Po 0 0
$EndPAD
$PAD
Sh " " R 315 315 0 0 0
At SMD N 00080000
Po -196 196
$EndPAD
$PAD
Sh " " R 315 315 0 0 0
At SMD N 00080000
Po -196 -196
$EndPAD
$PAD
Sh " " R 315 315 0 0 0
At SMD N 00080000
Po 196 196
$EndPAD
$PAD
Sh " " R 315 315 0 0 0
At SMD N 00080000
Po 196 -196
$EndPAD
DS -807 -807 -669 -807 50 21
DS -807 -807 -807 -669 50 21
DS -807 -669 -669 -807 50 21
DS -807 807 -807 669 50 21
DS -807 807 -669 807 50 21
DS -669 807 -669 807 50 21
DS 807 807 669 807 50 21
DS 807 807 807 669 50 21
DS 807 669 807 669 50 21
DS 807 -807 807 -669 50 21
DS 807 -807 669 -807 50 21
DS 669 -807 669 -807 50 21
$EndMODULE QFN28-Atmel
$MODULE QFN28-MCHP-ML
Po 0 0 0 15 5898BEDF 00000000 ~~
Li QFN28-MCHP-ML
Sc 5898BEDF
At SMD
Op 0 0 0
T0 0 -150 200 200 0 40 N V 25 "QFN28-MCHP-ML"
T1 0 150 200 200 0 40 N I 25 "Val*"
$PAD
Sh "1" R 393 146 0 0 0
At SMD N 00888000
Po -1121 -767
$EndPAD
$PAD
Sh "2" R 393 146 0 0 0
At SMD N 00888000
Po -1121 -511
$EndPAD
$PAD
Sh "3" R 393 145 0 0 0
At SMD N 00888000
Po -1121 -255
$EndPAD
$PAD
Sh "4" R 393 144 0 0 0
At SMD N 00888000
Po -1121 0
$EndPAD
$PAD
Sh "5" R 393 145 0 0 0
At SMD N 00888000
Po -1121 255
$EndPAD
$PAD
Sh "6" R 393 146 0 0 0
At SMD N 00888000
Po -1121 511
$EndPAD
$PAD
Sh "7" R 393 146 0 0 0
At SMD N 00888000
Po -1121 767
$EndPAD
$PAD
Sh "8" R 146 393 0 0 0
At SMD N 00888000
Po -767 1121
$EndPAD
$PAD
Sh "9" R 146 393 0 0 0
At SMD N 00888000
Po -511 1121
$EndPAD
$PAD
Sh "10" R 145 393 0 0 0
At SMD N 00888000
Po -255 1121
$EndPAD
$PAD
Sh "11" R 144 393 0 0 0
At SMD N 00888000
Po 0 1121
$EndPAD
$PAD
Sh "12" R 145 393 0 0 0
At SMD N 00888000
Po 255 1121
$EndPAD
$PAD
Sh "13" R 146 393 0 0 0
At SMD N 00888000
Po 511 1121
$EndPAD
$PAD
Sh "14" R 146 393 0 0 0
At SMD N 00888000
Po 767 1121
$EndPAD
$PAD
Sh "15" R 393 146 0 0 0
At SMD N 00888000
Po 1121 767
$EndPAD
$PAD
Sh "16" R 393 146 0 0 0
At SMD N 00888000
Po 1121 511
$EndPAD
$PAD
Sh "17" R 393 145 0 0 0
At SMD N 00888000
Po 1121 255
$EndPAD
$PAD
Sh "18" R 393 144 0 0 0
At SMD N 00888000
Po 1121 0
$EndPAD
$PAD
Sh "19" R 393 145 0 0 0
At SMD N 00888000
Po 1121 -255
$EndPAD
$PAD
Sh "20" R 393 146 0 0 0
At SMD N 00888000
Po 1121 -511
$EndPAD
$PAD
Sh "21" R 393 146 0 0 0
At SMD N 00888000
Po 1121 -767
$EndPAD
$PAD
Sh "22" R 146 393 0 0 0
At SMD N 00888000
Po 767 -1121
$EndPAD
$PAD
Sh "23" R 146 393 0 0 0
At SMD N 00888000
Po 511 -1121
$EndPAD
$PAD
Sh "24" R 145 393 0 0 0
At SMD N 00888000
Po 255 -1121
$EndPAD
$PAD
Sh "25" R 144 393 0 0 0
At SMD N 00888000
Po 0 -1121
$EndPAD
$PAD
Sh "26" R 145 393 0 0 0
At SMD N 00888000
Po -255 -1121
$EndPAD
$PAD
Sh "27" R 146 393 0 0 0
At SMD N 00888000
Po -511 -1121
$EndPAD
$PAD
Sh "28" R 146 393 0 0 0
At SMD N 00888000
Po -767 -1121
$EndPAD
$PAD
Sh "29" R 1672 1672 0 0 0
At SMD N 00808000
Po 0 0
$EndPAD
$PAD
Sh " " R 256 256 0 0 0
At SMD N 00080000
Po -393 393
$EndPAD
$PAD
Sh " " R 256 254 0 0 0
At SMD N 00080000
Po -393 0
$EndPAD
$PAD
Sh " " R 256 256 0 0 0
At SMD N 00080000
Po -393 -393
$EndPAD
$PAD
Sh " " R 254 256 0 0 0
At SMD N 00080000
Po 0 393
$EndPAD
$PAD
Sh " " R 254 254 0 0 0
At SMD N 00080000
Po 0 0
$EndPAD
$PAD
Sh " " R 254 256 0 0 0
At SMD N 00080000
Po 0 -393
$EndPAD
$PAD
Sh " " R 256 256 0 0 0
At SMD N 00080000
Po 393 393
$EndPAD
$PAD
Sh " " R 256 254 0 0 0
At SMD N 00080000
Po 393 0
$EndPAD
$PAD
Sh " " R 256 256 0 0 0
At SMD N 00080000
Po 393 -393
$EndPAD
DS -1122 -1122 -925 -1122 50 21
DS -1122 -1122 -1122 -925 50 21
DS -1122 -925 -925 -1122 50 21
DS -1122 1122 -1122 925 50 21
DS -1122 1122 -925 1122 50 21
DS -925 1122 -925 1122 50 21
DS 1122 1122 925 1122 50 21
DS 1122 1122 1122 925 50 21
DS 1122 925 1122 925 50 21
DS 1122 -1122 1122 -925 50 21
DS 1122 -1122 925 -1122 50 21
DS 925 -1122 925 -1122 50 21
$EndMODULE QFN28-MCHP-ML
$MODULE QFN28-SiLabs
Po 0 0 0 15 5898BEDF 00000000 ~~
Li QFN28-SiLabs
Sc 5898BEDF
At SMD
Op 0 0 0
T0 0 -150 200 200 0 40 N V 25 "QFN28-SiLabs"
T1 0 150 200 200 0 40 N I 25 "Val*"
$PAD
Sh "1" R 355 98 0 0 0
At SMD N 00888000
Po -944 -590
$EndPAD
$PAD
Sh "2" R 355 98 0 0 0
At SMD N 00888000
Po -944 -393
$EndPAD
$PAD
Sh "3" R 355 99 0 0 0
At SMD N 00888000
Po -944 -196
$EndPAD
$PAD
Sh "4" R 355 98 0 0 0
At SMD N 00888000
Po -944 0
$EndPAD
$PAD
Sh "5" R 355 99 0 0 0
At SMD N 00888000
Po -944 196
$EndPAD
$PAD
Sh "6" R 355 98 0 0 0
At SMD N 00888000
Po -944 393
$EndPAD
$PAD
Sh "7" R 355 98 0 0 0
At SMD N 00888000
Po -944 590
$EndPAD
$PAD
Sh "8" R 98 355 0 0 0
At SMD N 00888000
Po -590 944
$EndPAD
$PAD
Sh "9" R 98 355 0 0 0
At SMD N 00888000
Po -393 944
$EndPAD
$PAD
Sh "10" R 99 355 0 0 0
At SMD N 00888000
Po -196 944
$EndPAD
$PAD
Sh "11" R 98 355 0 0 0
At SMD N 00888000
Po 0 944
$EndPAD
$PAD
Sh "12" R 99 355 0 0 0
At SMD N 00888000
Po 196 944
$EndPAD
$PAD
Sh "13" R 98 355 0 0 0
At SMD N 00888000
Po 393 944
$EndPAD
$PAD
Sh "14" R 98 355 0 0 0
At SMD N 00888000
Po 590 944
$EndPAD
$PAD
Sh "15" R 355 98 0 0 0
At SMD N 00888000
Po 944 590
$EndPAD
$PAD
Sh "16" R 355 98 0 0 0
At SMD N 00888000
Po 944 393
$EndPAD
$PAD
Sh "17" R 355 99 0 0 0
At SMD N 00888000
Po 944 196
$EndPAD
$PAD
Sh "18" R 355 98 0 0 0
At SMD N 00888000
Po 944 0
$EndPAD
$PAD
Sh "19" R 355 99 0 0 0
At SMD N 00888000
Po 944 -196
$EndPAD
$PAD
Sh "20" R 355 98 0 0 0
At SMD N 00888000
Po 944 -393
$EndPAD
$PAD
Sh "21" R 355 98 0 0 0
At SMD N 00888000
Po 944 -590
$EndPAD
$PAD
Sh "22" R 98 355 0 0 0
At SMD N 00888000
Po 590 -944
$EndPAD
$PAD
Sh "23" R 98 355 0 0 0
At SMD N 00888000
Po 393 -944
$EndPAD
$PAD
Sh "24" R 99 355 0 0 0
At SMD N 00888000
Po 196 -944
$EndPAD
$PAD
Sh "25" R 98 355 0 0 0
At SMD N 00888000
Po 0 -944
$EndPAD
$PAD
Sh "26" R 99 355 0 0 0
At SMD N 00888000
Po -196 -944
$EndPAD
$PAD
Sh "27" R 98 355 0 0 0
At SMD N 00888000
Po -393 -944
$EndPAD
$PAD
Sh "28" R 98 355 0 0 0
At SMD N 00888000
Po -590 -944
$EndPAD
$PAD
Sh "29" R 1298 1298 0 0 0
At SMD N 00808000
Po 0 0
$EndPAD
$PAD
Sh " " R 355 355 0 0 0
At SMD N 00080000
Po -432 432
$EndPAD
$PAD
Sh " " R 355 354 0 0 0
At SMD N 00080000
Po -432 0
$EndPAD
$PAD
Sh " " R 355 355 0 0 0
At SMD N 00080000
Po -432 -432
$EndPAD
$PAD
Sh " " R 354 355 0 0 0
At SMD N 00080000
Po 0 432
$EndPAD
$PAD
Sh " " R 354 354 0 0 0
At SMD N 00080000
Po 0 0
$EndPAD
$PAD
Sh " " R 354 355 0 0 0
At SMD N 00080000
Po 0 -432
$EndPAD
$PAD
Sh " " R 355 355 0 0 0
At SMD N 00080000
Po 432 432
$EndPAD
$PAD
Sh " " R 355 354 0 0 0
At SMD N 00080000
Po 432 0
$EndPAD
$PAD
Sh " " R 355 355 0 0 0
At SMD N 00080000
Po 432 -432
$EndPAD
DS -944 -944 -767 -944 50 21
DS -944 -944 -944 -767 50 21
DS -944 -767 -767 -944 50 21
DS -944 944 -944 767 50 21
DS -944 944 -767 944 50 21
DS -767 944 -767 944 50 21
DS 944 944 767 944 50 21
DS 944 944 944 767 50 21
DS 944 767 944 767 50 21
DS 944 -944 944 -767 50 21
DS 944 -944 767 -944 50 21
DS 767 -944 767 -944 50 21
$EndMODULE QFN28-SiLabs
$MODULE QFN32-VHHD-2
Po 0 0 0 15 5898BEDF 00000000 ~~
Li QFN32-VHHD-2
Sc 5898BEDF
At SMD
Op 0 0 0
T0 0 -150 200 200 0 40 N V 25 "QFN32-VHHD-2"
T1 0 150 200 200 0 40 N I 25 "Val*"
$PAD
Sh "1" R 271 103 0 0 0
At SMD N 00888000
Po -1003 -688
$EndPAD
$PAD
Sh "2" R 271 103 0 0 0
At SMD N 00888000
Po -1003 -491
$EndPAD
$PAD
Sh "3" R 271 102 0 0 0
At SMD N 00888000
Po -1003 -295
$EndPAD
$PAD
Sh "4" R 271 102 0 0 0
At SMD N 00888000
Po -1003 -98
$EndPAD
$PAD
Sh "5" R 271 102 0 0 0
At SMD N 00888000
Po -1003 98
$EndPAD
$PAD
Sh "6" R 271 102 0 0 0
At SMD N 00888000
Po -1003 295
$EndPAD
$PAD
Sh "7" R 271 103 0 0 0
At SMD N 00888000
Po -1003 491
$EndPAD
$PAD
Sh "8" R 271 103 0 0 0
At SMD N 00888000
Po -1003 688
$EndPAD
$PAD
Sh "9" R 103 271 0 0 0
At SMD N 00888000
Po -688 1003
$EndPAD
$PAD
Sh "10" R 103 271 0 0 0
At SMD N 00888000
Po -491 1003
$EndPAD
$PAD
Sh "11" R 102 271 0 0 0
At SMD N 00888000
Po -295 1003
$EndPAD
$PAD
Sh "12" R 102 271 0 0 0
At SMD N 00888000
Po -98 1003
$EndPAD
$PAD
Sh "13" R 102 271 0 0 0
At SMD N 00888000
Po 98 1003
$EndPAD
$PAD
Sh "14" R 102 271 0 0 0
At SMD N 00888000
Po 295 1003
$EndPAD
$PAD
Sh "15" R 103 271 0 0 0
At SMD N 00888000
Po 491 1003
$EndPAD
$PAD
Sh "16" R 103 271 0 0 0
At SMD N 00888000
Po 688 1003
$EndPAD
$PAD
Sh "17" R 271 103 0 0 0
At SMD N 00888000
Po 1003 688
$EndPAD
$PAD
Sh "18" R 271 103 0 0 0
At SMD N 00888000
Po 1003 491
$EndPAD
$PAD
Sh "19" R 271 102 0 0 0
At SMD N 00888000
Po 1003 295
$EndPAD
$PAD
Sh "20" R 271 102 0 0 0
At SMD N 00888000
Po 1003 98
$EndPAD
$PAD
Sh "21" R 271 102 0 0 0
At SMD N 00888000
Po 1003 -98
$EndPAD
$PAD
Sh "22" R 271 102 0 0 0
At SMD N 00888000
Po 1003 -295
$EndPAD
$PAD
Sh "23" R 271 103 0 0 0
At SMD N 00888000
Po 1003 -491
$EndPAD
$PAD
Sh "24" R 271 103 0 0 0
At SMD N 00888000
Po 1003 -688
$EndPAD
$PAD
Sh "25" R 103 271 0 0 0
At SMD N 00888000
Po 688 -1003
$EndPAD
$PAD
Sh "26" R 103 271 0 0 0
At SMD N 00888000
Po 491 -1003
$EndPAD
$PAD
Sh "27" R 102 271 0 0 0
At SMD N 00888000
Po 295 -1003
$EndPAD
$PAD
Sh "28" R 102 271 0 0 0
At SMD N 00888000
Po 98 -1003
$EndPAD
$PAD
Sh "29" R 102 271 0 0 0
At SMD N 00888000
Po -98 -1003
$EndPAD
$PAD
Sh "30" R 102 271 0 0 0
At SMD N 00888000
Po -295 -1003
$EndPAD
$PAD
Sh "31" R 103 271 0 0 0
At SMD N 00888000
Po -491 -1003
$EndPAD
$PAD
Sh "32" R 103 271 0 0 0
At SMD N 00888000
Po -688 -1003
$EndPAD
$PAD
Sh "33" R 1456 1456 0 0 0
At SMD N 00808000
Po 0 0
$EndPAD
$PAD
Sh " " R 217 217 0 0 0
At SMD N 00080000
Po -314 314
$EndPAD
$PAD
Sh " " R 217 216 0 0 0
At SMD N 00080000
Po -314 0
$EndPAD
$PAD
Sh " " R 217 217 0 0 0
At SMD N 00080000
Po -314 -314
$EndPAD
$PAD
Sh " " R 216 217 0 0 0
At SMD N 00080000
Po 0 314
$EndPAD
$PAD
Sh " " R 216 216 0 0 0
At SMD N 00080000
Po 0 0
$EndPAD
$PAD
Sh " " R 216 217 0 0 0
At SMD N 00080000
Po 0 -314
$EndPAD
$PAD
Sh " " R 217 217 0 0 0
At SMD N 00080000
Po 314 314
$EndPAD
$PAD
Sh " " R 217 216 0 0 0
At SMD N 00080000
Po 314 0
$EndPAD
$PAD
Sh " " R 217 217 0 0 0
At SMD N 00080000
Po 314 -314
$EndPAD
DS -1003 -1003 -868 -1003 50 21
DS -1003 -1003 -1003 -868 50 21
DS -1003 -868 -868 -1003 50 21
DS -1003 1003 -1003 868 50 21
DS -1003 1003 -868 1003 50 21
DS -868 1003 -868 1003 50 21
DS 1003 1003 868 1003 50 21
DS 1003 1003 1003 868 50 21
DS 1003 868 1003 868 50 21
DS 1003 -1003 1003 -868 50 21
DS 1003 -1003 868 -1003 50 21
DS 868 -1003 868 -1003 50 21
$EndMODULE QFN32-VHHD-2
$MODULE QFN32-VHHD-6
Po 0 0 0 15 5898BEDF 00000000 ~~
Li QFN32-VHHD-6
Sc 5898BEDF
At SMD
Op 0 0 0
T0 0 -150 200 200 0 40 N V 25 "QFN32-VHHD-6"
T1 0 150 200 200 0 40 N I 25 "Val*"
$PAD
Sh "1" R 271 103 0 0 0
At SMD N 00888000
Po -1003 -688
$EndPAD
$PAD
Sh "2" R 271 103 0 0 0
At SMD N 00888000
Po -1003 -491
$EndPAD
$PAD
Sh "3" R 271 102 0 0 0
At SMD N 00888000
Po -1003 -295
$EndPAD
$PAD
Sh "4" R 271 102 0 0 0
At SMD N 00888000
Po -1003 -98
$EndPAD
$PAD
Sh "5" R 271 102 0 0 0
At SMD N 00888000
Po -1003 98
$EndPAD
$PAD
Sh "6" R 271 102 0 0 0
At SMD N 00888000
Po -1003 295
$EndPAD
$PAD
Sh "7" R 271 103 0 0 0
At SMD N 00888000
Po -1003 491
$EndPAD
$PAD
Sh "8" R 271 103 0 0 0
At SMD N 00888000
Po -1003 688
$EndPAD
$PAD
Sh "9" R 103 271 0 0 0
At SMD N 00888000
Po -688 1003
$EndPAD
$PAD
Sh "10" R 103 271 0 0 0
At SMD N 00888000
Po -491 1003
$EndPAD
$PAD
Sh "11" R 102 271 0 0 0
At SMD N 00888000
Po -295 1003
$EndPAD
$PAD
Sh "12" R 102 271 0 0 0
At SMD N 00888000
Po -98 1003
$EndPAD
$PAD
Sh "13" R 102 271 0 0 0
At SMD N 00888000
Po 98 1003
$EndPAD
$PAD
Sh "14" R 102 271 0 0 0
At SMD N 00888000
Po 295 1003
$EndPAD
$PAD
Sh "15" R 103 271 0 0 0
At SMD N 00888000
Po 491 1003
$EndPAD
$PAD
Sh "16" R 103 271 0 0 0
At SMD N 00888000
Po 688 1003
$EndPAD
$PAD
Sh "17" R 271 103 0 0 0
At SMD N 00888000
Po 1003 688
$EndPAD
$PAD
Sh "18" R 271 103 0 0 0
At SMD N 00888000
Po 1003 491
$EndPAD
$PAD
Sh "19" R 271 102 0 0 0
At SMD N 00888000
Po 1003 295
$EndPAD
$PAD
Sh "20" R 271 102 0 0 0
At SMD N 00888000
Po 1003 98
$EndPAD
$PAD
Sh "21" R 271 102 0 0 0
At SMD N 00888000
Po 1003 -98
$EndPAD
$PAD
Sh "22" R 271 102 0 0 0
At SMD N 00888000
Po 1003 -295
$EndPAD
$PAD
Sh "23" R 271 103 0 0 0
At SMD N 00888000
Po 1003 -491
$EndPAD
$PAD
Sh "24" R 271 103 0 0 0
At SMD N 00888000
Po 1003 -688
$EndPAD
$PAD
Sh "25" R 103 271 0 0 0
At SMD N 00888000
Po 688 -1003
$EndPAD
$PAD
Sh "26" R 103 271 0 0 0
At SMD N 00888000
Po 491 -1003
$EndPAD
$PAD
Sh "27" R 102 271 0 0 0
At SMD N 00888000
Po 295 -1003
$EndPAD
$PAD
Sh "28" R 102 271 0 0 0
At SMD N 00888000
Po 98 -1003
$EndPAD
$PAD
Sh "29" R 102 271 0 0 0
At SMD N 00888000
Po -98 -1003
$EndPAD
$PAD
Sh "30" R 102 271 0 0 0
At SMD N 00888000
Po -295 -1003
$EndPAD
$PAD
Sh "31" R 103 271 0 0 0
At SMD N 00888000
Po -491 -1003
$EndPAD
$PAD
Sh "32" R 103 271 0 0 0
At SMD N 00888000
Po -688 -1003
$EndPAD
$PAD
Sh "33" R 1338 1338 0 0 0
At SMD N 00808000
Po 0 0
$EndPAD
$PAD
Sh " " R 295 295 0 0 0
At SMD N 00080000
Po -235 235
$EndPAD
$PAD
Sh " " R 295 295 0 0 0
At SMD N 00080000
Po -235 -235
$EndPAD
$PAD
Sh " " R 295 295 0 0 0
At SMD N 00080000
Po 235 235
$EndPAD
$PAD
Sh " " R 295 295 0 0 0
At SMD N 00080000
Po 235 -235
$EndPAD
DS -1003 -1003 -868 -1003 50 21
DS -1003 -1003 -1003 -868 50 21
DS -1003 -868 -868 -1003 50 21
DS -1003 1003 -1003 868 50 21
DS -1003 1003 -868 1003 50 21
DS -868 1003 -868 1003 50 21
DS 1003 1003 868 1003 50 21
DS 1003 1003 1003 868 50 21
DS 1003 868 1003 868 50 21
DS 1003 -1003 1003 -868 50 21
DS 1003 -1003 868 -1003 50 21
DS 868 -1003 868 -1003 50 21
$EndMODULE QFN32-VHHD-6
$MODULE QFN32-CC2543
Po 0 0 0 15 5898BEDF 00000000 ~~
Li QFN32-CC2543
Sc 5898BEDF
At SMD
Op 0 0 0
T0 0 -150 200 200 0 40 N V 25 "QFN32-CC2543"
T1 0 150 200 200 0 40 N I 25 "Val*"
$PAD
Sh "1" R 271 103 0 0 0
At SMD N 00888000
Po -1003 -688
$EndPAD
$PAD
Sh "2" R 271 103 0 0 0
At SMD N 00888000
Po -1003 -491
$EndPAD
$PAD
Sh "3" R 271 102 0 0 0
At SMD N 00888000
Po -1003 -295
$EndPAD
$PAD
Sh "4" R 271 102 0 0 0
At SMD N 00888000
Po -1003 -98
$EndPAD
$PAD
Sh "5" R 271 102 0 0 0
At SMD N 00888000
Po -1003 98
$EndPAD
$PAD
Sh "6" R 271 102 0 0 0
At SMD N 00888000
Po -1003 295
$EndPAD
$PAD
Sh "7" R 271 103 0 0 0
At SMD N 00888000
Po -1003 491
$EndPAD
$PAD
Sh "8" R 271 103 0 0 0
At SMD N 00888000
Po -1003 688
$EndPAD
$PAD
Sh "9" R 103 271 0 0 0
At SMD N 00888000
Po -688 1003
$EndPAD
$PAD
Sh "10" R 103 271 0 0 0
At SMD N 00888000
Po -491 1003
$EndPAD
$PAD
Sh "11" R 102 271 0 0 0
At SMD N 00888000
Po -295 1003
$EndPAD
$PAD
Sh "12" R 102 271 0 0 0
At SMD N 00888000
Po -98 1003
$EndPAD
$PAD
Sh "13" R 102 271 0 0 0
At SMD N 00888000
Po 98 1003
$EndPAD
$PAD
Sh "14" R 102 271 0 0 0
At SMD N 00888000
Po 295 1003
$EndPAD
$PAD
Sh "15" R 103 271 0 0 0
At SMD N 00888000
Po 491 1003
$EndPAD
$PAD
Sh "16" R 103 271 0 0 0
At SMD N 00888000
Po 688 1003
$EndPAD
$PAD
Sh "17" R 271 103 0 0 0
At SMD N 00888000
Po 1003 688
$EndPAD
$PAD
Sh "18" R 271 103 0 0 0
At SMD N 00888000
Po 1003 491
$EndPAD
$PAD
Sh "19" R 271 102 0 0 0
At SMD N 00888000
Po 1003 295
$EndPAD
$PAD
Sh "20" R 271 102 0 0 0
At SMD N 00888000
Po 1003 98
$EndPAD
$PAD
Sh "21" R 271 102 0 0 0
At SMD N 00888000
Po 1003 -98
$EndPAD
$PAD
Sh "22" R 271 102 0 0 0
At SMD N 00888000
Po 1003 -295
$EndPAD
$PAD
Sh "23" R 271 103 0 0 0
At SMD N 00888000
Po 1003 -491
$EndPAD
$PAD
Sh "24" R 271 103 0 0 0
At SMD N 00888000
Po 1003 -688
$EndPAD
$PAD
Sh "25" R 103 271 0 0 0
At SMD N 00888000
Po 688 -1003
$EndPAD
$PAD
Sh "26" R 103 271 0 0 0
At SMD N 00888000
Po 491 -1003
$EndPAD
$PAD
Sh "27" R 102 271 0 0 0
At SMD N 00888000
Po 295 -1003
$EndPAD
$PAD
Sh "28" R 102 271 0 0 0
At SMD N 00888000
Po 98 -1003
$EndPAD
$PAD
Sh "29" R 102 271 0 0 0
At SMD N 00888000
Po -98 -1003
$EndPAD
$PAD
Sh "30" R 102 271 0 0 0
At SMD N 00888000
Po -295 -1003
$EndPAD
$PAD
Sh "31" R 103 271 0 0 0
At SMD N 00888000
Po -491 -1003
$EndPAD
$PAD
Sh "32" R 103 271 0 0 0
At SMD N 00888000
Po -688 -1003
$EndPAD
$PAD
Sh "33" R 1338 1338 0 0 0
At SMD N 00808000
Po 0 0
$EndPAD
$PAD
Sh "HOLE" C 628 628 0 0 0
Dr 628 0 0
At HOLE N 00C00000
Po 0 0
$EndPAD
DS -1003 -1003 -868 -1003 50 21
DS -1003 -1003 -1003 -868 50 21
DS -1003 -868 -868 -1003 50 21
DS -1003 1003 -1003 868 50 21
DS -1003 1003 -868 1003 50 21
DS -868 1003 -868 1003 50 21
DS 1003 1003 868 1003 50 21
DS 1003 1003 1003 868 50 21
DS 1003 868 1003 868 50 21
DS 1003 -1003 1003 -868 50 21
DS 1003 -1003 868 -1003 50 21
DS 868 -1003 868 -1003 50 21
$EndMODULE QFN32-CC2543
$MODULE QFN32-HVQFN
Po 0 0 0 15 5898BEDF 00000000 ~~
Li QFN32-HVQFN
Sc 5898BEDF
At SMD
Op 0 0 0
T0 0 -150 200 200 0 40 N V 25 "QFN32-HVQFN"
T1 0 150 200 200 0 40 N I 25 "Val*"
$PAD
Sh "1" R 425 118 0 0 0
At SMD N 00888000
Po -1357 -895
$EndPAD
$PAD
Sh "2" R 425 118 0 0 0
At SMD N 00888000
Po -1357 -639
$EndPAD
$PAD
Sh "3" R 425 118 0 0 0
At SMD N 00888000
Po -1357 -383
$EndPAD
$PAD
Sh "4" R 425 119 0 0 0
At SMD N 00888000
Po -1357 -127
$EndPAD
$PAD
Sh "5" R 425 119 0 0 0
At SMD N 00888000
Po -1357 127
$EndPAD
$PAD
Sh "6" R 425 118 0 0 0
At SMD N 00888000
Po -1357 383
$EndPAD
$PAD
Sh "7" R 425 118 0 0 0
At SMD N 00888000
Po -1357 639
$EndPAD
$PAD
Sh "8" R 425 118 0 0 0
At SMD N 00888000
Po -1357 895
$EndPAD
$PAD
Sh "9" R 118 425 0 0 0
At SMD N 00888000
Po -895 1357
$EndPAD
$PAD
Sh "10" R 118 425 0 0 0
At SMD N 00888000
Po -639 1357
$EndPAD
$PAD
Sh "11" R 118 425 0 0 0
At SMD N 00888000
Po -383 1357
$EndPAD
$PAD
Sh "12" R 119 425 0 0 0
At SMD N 00888000
Po -127 1357
$EndPAD
$PAD
Sh "13" R 119 425 0 0 0
At SMD N 00888000
Po 127 1357
$EndPAD
$PAD
Sh "14" R 118 425 0 0 0
At SMD N 00888000
Po 383 1357
$EndPAD
$PAD
Sh "15" R 118 425 0 0 0
At SMD N 00888000
Po 639 1357
$EndPAD
$PAD
Sh "16" R 118 425 0 0 0
At SMD N 00888000
Po 895 1357
$EndPAD
$PAD
Sh "17" R 425 118 0 0 0
At SMD N 00888000
Po 1357 895
$EndPAD
$PAD
Sh "18" R 425 118 0 0 0
At SMD N 00888000
Po 1357 639
$EndPAD
$PAD
Sh "19" R 425 118 0 0 0
At SMD N 00888000
Po 1357 383
$EndPAD
$PAD
Sh "20" R 425 119 0 0 0
At SMD N 00888000
Po 1357 127
$EndPAD
$PAD
Sh "21" R 425 119 0 0 0
At SMD N 00888000
Po 1357 -127
$EndPAD
$PAD
Sh "22" R 425 118 0 0 0
At SMD N 00888000
Po 1357 -383
$EndPAD
$PAD
Sh "23" R 425 118 0 0 0
At SMD N 00888000
Po 1357 -639
$EndPAD
$PAD
Sh "24" R 425 118 0 0 0
At SMD N 00888000
Po 1357 -895
$EndPAD
$PAD
Sh "25" R 118 425 0 0 0
At SMD N 00888000
Po 895 -1357
$EndPAD
$PAD
Sh "26" R 118 425 0 0 0
At SMD N 00888000
Po 639 -1357
$EndPAD
$PAD
Sh "27" R 118 425 0 0 0
At SMD N 00888000
Po 383 -1357
$EndPAD
$PAD
Sh "28" R 119 425 0 0 0
At SMD N 00888000
Po 127 -1357
$EndPAD
$PAD
Sh "29" R 119 425 0 0 0
At SMD N 00888000
Po -127 -1357
$EndPAD
$PAD
Sh "30" R 118 425 0 0 0
At SMD N 00888000
Po -383 -1357
$EndPAD
$PAD
Sh "31" R 118 425 0 0 0
At SMD N 00888000
Po -639 -1357
$EndPAD
$PAD
Sh "32" R 118 425 0 0 0
At SMD N 00888000
Po -895 -1357
$EndPAD
$PAD
Sh "33" R 1908 1908 0 0 0
At SMD N 00808000
Po 0 0
$EndPAD
$PAD
Sh " " R 394 394 0 0 0
At SMD N 00080000
Po -334 334
$EndPAD
$PAD
Sh " " R 394 394 0 0 0
At SMD N 00080000
Po -334 -334
$EndPAD
$PAD
Sh " " R 394 394 0 0 0
At SMD N 00080000
Po 334 334
$EndPAD
$PAD
Sh " " R 394 394 0 0 0
At SMD N 00080000
Po 334 -334
$EndPAD
$PAD
Sh "HOLE" C 118 118 0 0 0
Dr 118 0 0
At HOLE N 00C00000
Po -826 -826
$EndPAD
$PAD
Sh "HOLE" C 118 118 0 0 0
Dr 118 0 0
At HOLE N 00C00000
Po -413 -826
$EndPAD
$PAD
Sh "HOLE" C 118 118 0 0 0
Dr 118 0 0
At HOLE N 00C00000
Po 0 -826
$EndPAD
$PAD
Sh "HOLE" C 118 118 0 0 0
Dr 118 0 0
At HOLE N 00C00000
Po 413 -826
$EndPAD
$PAD
Sh "HOLE" C 118 118 0 0 0
Dr 118 0 0
At HOLE N 00C00000
Po 826 -826
$EndPAD
$PAD
Sh "HOLE" C 118 118 0 0 0
Dr 118 0 0
At HOLE N 00C00000
Po -826 826
$EndPAD
$PAD
Sh "HOLE" C 118 118 0 0 0
Dr 118 0 0
At HOLE N 00C00000
Po -826 413
$EndPAD
$PAD
Sh "HOLE" C 118 118 0 0 0
Dr 118 0 0
At HOLE N 00C00000
Po -826 0
$EndPAD
$PAD
Sh "HOLE" C 118 118 0 0 0
Dr 118 0 0
At HOLE N 00C00000
Po -826 -413
$EndPAD
$PAD
Sh "HOLE" C 118 118 0 0 0
Dr 118 0 0
At HOLE N 00C00000
Po -826 -826
$EndPAD
$PAD
Sh "HOLE" C 118 118 0 0 0
Dr 118 0 0
At HOLE N 00C00000
Po 826 826
$EndPAD
$PAD
Sh "HOLE" C 118 118 0 0 0
Dr 118 0 0
At HOLE N 00C00000
Po 413 826
$EndPAD
$PAD
Sh "HOLE" C 118 118 0 0 0
Dr 118 0 0
At HOLE N 00C00000
Po 0 826
$EndPAD
$PAD
Sh "HOLE" C 118 118 0 0 0
Dr 118 0 0
At HOLE N 00C00000
Po -413 826
$EndPAD
$PAD
Sh "HOLE" C 118 118 0 0 0
Dr 118 0 0
At HOLE N 00C00000
Po -826 826
$EndPAD
$PAD
Sh "HOLE" C 118 118 0 0 0
Dr 118 0 0
At HOLE N 00C00000
Po 826 -826
$EndPAD
$PAD
Sh "HOLE" C 118 118 0 0 0
Dr 118 0 0
At HOLE N 00C00000
Po 826 -413
$EndPAD
$PAD
Sh "HOLE" C 118 118 0 0 0
Dr 118 0 0
At HOLE N 00C00000
Po 826 0
$EndPAD
$PAD
Sh "HOLE" C 118 118 0 0 0
Dr 118 0 0
At HOLE N 00C00000
Po 826 413
$EndPAD
$PAD
Sh "HOLE" C 118 118 0 0 0
Dr 118 0 0
At HOLE N 00C00000
Po 826 826
$EndPAD
DS -1358 -1358 -1145 -1358 50 21
DS -1358 -1358 -1358 -1145 50 21
DS -1358 -1145 -1145 -1358 50 21
DS -1358 1358 -1358 1145 50 21
DS -1358 1358 -1145 1358 50 21
DS -1145 1358 -1145 1358 50 21
DS 1358 1358 1145 1358 50 21
DS 1358 1358 1358 1145 50 21
DS 1358 1145 1358 1145 50 21
DS 1358 -1358 1358 -1145 50 21
DS 1358 -1358 1145 -1358 50 21
DS 1145 -1358 1145 -1358 50 21
$EndMODULE QFN32-HVQFN
$MODULE QFN32-Freescale
Po 0 0 0 15 5898BEDF 00000000 ~~
Li QFN32-Freescale
Sc 5898BEDF
At SMD
Op 0 0 0
T0 0 -150 200 200 0 40 N V 25 "QFN32-Freescale"
T1 0 150 200 200 0 40 N I 25 "Val*"
$PAD
Sh "1" O 354 99 0 0 0
At SMD N 00888000
Po -984 -688
$EndPAD
$PAD
Sh "2" O 354 99 0 0 0
At SMD N 00888000
Po -984 -491
$EndPAD
$PAD
Sh "3" O 354 98 0 0 0
At SMD N 00888000
Po -984 -295
$EndPAD
$PAD
Sh "4" O 354 98 0 0 0
At SMD N 00888000
Po -984 -98
$EndPAD
$PAD
Sh "5" O 354 98 0 0 0
At SMD N 00888000
Po -984 98
$EndPAD
$PAD
Sh "6" O 354 98 0 0 0
At SMD N 00888000
Po -984 295
$EndPAD
$PAD
Sh "7" O 354 99 0 0 0
At SMD N 00888000
Po -984 491
$EndPAD
$PAD
Sh "8" O 354 99 0 0 0
At SMD N 00888000
Po -984 688
$EndPAD
$PAD
Sh "9" O 99 354 0 0 0
At SMD N 00888000
Po -688 984
$EndPAD
$PAD
Sh "10" O 99 354 0 0 0
At SMD N 00888000
Po -491 984
$EndPAD
$PAD
Sh "11" O 98 354 0 0 0
At SMD N 00888000
Po -295 984
$EndPAD
$PAD
Sh "12" O 98 354 0 0 0
At SMD N 00888000
Po -98 984
$EndPAD
$PAD
Sh "13" O 98 354 0 0 0
At SMD N 00888000
Po 98 984
$EndPAD
$PAD
Sh "14" O 98 354 0 0 0
At SMD N 00888000
Po 295 984
$EndPAD
$PAD
Sh "15" O 99 354 0 0 0
At SMD N 00888000
Po 491 984
$EndPAD
$PAD
Sh "16" O 99 354 0 0 0
At SMD N 00888000
Po 688 984
$EndPAD
$PAD
Sh "17" O 354 99 0 0 0
At SMD N 00888000
Po 984 688
$EndPAD
$PAD
Sh "18" O 354 99 0 0 0
At SMD N 00888000
Po 984 491
$EndPAD
$PAD
Sh "19" O 354 98 0 0 0
At SMD N 00888000
Po 984 295
$EndPAD
$PAD
Sh "20" O 354 98 0 0 0
At SMD N 00888000
Po 984 98
$EndPAD
$PAD
Sh "21" O 354 98 0 0 0
At SMD N 00888000
Po 984 -98
$EndPAD
$PAD
Sh "22" O 354 98 0 0 0
At SMD N 00888000
Po 984 -295
$EndPAD
$PAD
Sh "23" O 354 99 0 0 0
At SMD N 00888000
Po 984 -491
$EndPAD
$PAD
Sh "24" O 354 99 0 0 0
At SMD N 00888000
Po 984 -688
$EndPAD
$PAD
Sh "25" O 99 354 0 0 0
At SMD N 00888000
Po 688 -984
$EndPAD
$PAD
Sh "26" O 99 354 0 0 0
At SMD N 00888000
Po 491 -984
$EndPAD
$PAD
Sh "27" O 98 354 0 0 0
At SMD N 00888000
Po 295 -984
$EndPAD
$PAD
Sh "28" O 98 354 0 0 0
At SMD N 00888000
Po 98 -984
$EndPAD
$PAD
Sh "29" O 98 354 0 0 0
At SMD N 00888000
Po -98 -984
$EndPAD
$PAD
Sh "30" O 98 354 0 0 0
At SMD N 00888000
Po -295 -984
$EndPAD
$PAD
Sh "31" O 99 354 0 0 0
At SMD N 00888000
Po -491 -984
$EndPAD
$PAD
Sh "32" O 99 354 0 0 0
At SMD N 00888000
Po -688 -984
$EndPAD
$PAD
Sh "33" R 1416 1416 0 0 0
At SMD N 00808000
Po 0 0
$EndPAD
$PAD
Sh " " R 354 354 0 0 0
At SMD N 00080000
Po -236 236
$EndPAD
$PAD
Sh " " R 354 354 0 0 0
At SMD N 00080000
Po -236 -236
$EndPAD
$PAD
Sh " " R 354 354 0 0 0
At SMD N 00080000
Po 236 236
$EndPAD
$PAD
Sh " " R 354 354 0 0 0
At SMD N 00080000
Po 236 -236
$EndPAD
DS -984 -984 -807 -984 50 21
DS -984 -984 -984 -807 50 21
DS -984 -807 -807 -984 50 21
DS -984 984 -984 807 50 21
DS -984 984 -807 984 50 21
DS -807 984 -807 984 50 21
DS 984 984 807 984 50 21
DS 984 984 984 807 50 21
DS 984 807 984 807 50 21
DS 984 -984 984 -807 50 21
DS 984 -984 807 -984 50 21
DS 807 -984 807 -984 50 21
$EndMODULE QFN32-Freescale
$MODULE QFN48-Freescale
Po 0 0 0 15 5898BEDF 00000000 ~~
Li QFN48-Freescale
Sc 5898BEDF
At SMD
Op 0 0 0
T0 0 -150 200 200 0 40 N V 25 "QFN48-Freescale"
T1 0 150 200 200 0 40 N I 25 "Val*"
$PAD
Sh "1" R 355 98 0 0 0
At SMD N 00888000
Po -1377 -1082
$EndPAD
$PAD
Sh "2" R 355 99 0 0 0
At SMD N 00888000
Po -1377 -885
$EndPAD
$PAD
Sh "3" R 355 99 0 0 0
At SMD N 00888000
Po -1377 -688
$EndPAD
$PAD
Sh "4" R 355 99 0 0 0
At SMD N 00888000
Po -1377 -491
$EndPAD
$PAD
Sh "5" R 355 98 0 0 0
At SMD N 00888000
Po -1377 -295
$EndPAD
$PAD
Sh "6" R 355 98 0 0 0
At SMD N 00888000
Po -1377 -98
$EndPAD
$PAD
Sh "7" R 355 98 0 0 0
At SMD N 00888000
Po -1377 98
$EndPAD
$PAD
Sh "8" R 355 98 0 0 0
At SMD N 00888000
Po -1377 295
$EndPAD
$PAD
Sh "9" R 355 99 0 0 0
At SMD N 00888000
Po -1377 491
$EndPAD
$PAD
Sh "10" R 355 99 0 0 0
At SMD N 00888000
Po -1377 688
$EndPAD
$PAD
Sh "11" R 355 99 0 0 0
At SMD N 00888000
Po -1377 885
$EndPAD
$PAD
Sh "12" R 355 98 0 0 0
At SMD N 00888000
Po -1377 1082
$EndPAD
$PAD
Sh "13" R 98 355 0 0 0
At SMD N 00888000
Po -1082 1377
$EndPAD
$PAD
Sh "14" R 99 355 0 0 0
At SMD N 00888000
Po -885 1377
$EndPAD
$PAD
Sh "15" R 99 355 0 0 0
At SMD N 00888000
Po -688 1377
$EndPAD
$PAD
Sh "16" R 99 355 0 0 0
At SMD N 00888000
Po -491 1377
$EndPAD
$PAD
Sh "17" R 98 355 0 0 0
At SMD N 00888000
Po -295 1377
$EndPAD
$PAD
Sh "18" R 98 355 0 0 0
At SMD N 00888000
Po -98 1377
$EndPAD
$PAD
Sh "19" R 98 355 0 0 0
At SMD N 00888000
Po 98 1377
$EndPAD
$PAD
Sh "20" R 98 355 0 0 0
At SMD N 00888000
Po 295 1377
$EndPAD
$PAD
Sh "21" R 99 355 0 0 0
At SMD N 00888000
Po 491 1377
$EndPAD
$PAD
Sh "22" R 99 355 0 0 0
At SMD N 00888000
Po 688 1377
$EndPAD
$PAD
Sh "23" R 99 355 0 0 0
At SMD N 00888000
Po 885 1377
$EndPAD
$PAD
Sh "24" R 98 355 0 0 0
At SMD N 00888000
Po 1082 1377
$EndPAD
$PAD
Sh "25" R 355 98 0 0 0
At SMD N 00888000
Po 1377 1082
$EndPAD
$PAD
Sh "26" R 355 99 0 0 0
At SMD N 00888000
Po 1377 885
$EndPAD
$PAD
Sh "27" R 355 99 0 0 0
At SMD N 00888000
Po 1377 688
$EndPAD
$PAD
Sh "28" R 355 99 0 0 0
At SMD N 00888000
Po 1377 491
$EndPAD
$PAD
Sh "29" R 355 98 0 0 0
At SMD N 00888000
Po 1377 295
$EndPAD
$PAD
Sh "30" R 355 98 0 0 0
At SMD N 00888000
Po 1377 98
$EndPAD
$PAD
Sh "31" R 355 98 0 0 0
At SMD N 00888000
Po 1377 -98
$EndPAD
$PAD
Sh "32" R 355 98 0 0 0
At SMD N 00888000
Po 1377 -295
$EndPAD
$PAD
Sh "33" R 355 99 0 0 0
At SMD N 00888000
Po 1377 -491
$EndPAD
$PAD
Sh "34" R 355 99 0 0 0
At SMD N 00888000
Po 1377 -688
$EndPAD
$PAD
Sh "35" R 355 99 0 0 0
At SMD N 00888000
Po 1377 -885
$EndPAD
$PAD
Sh "36" R 355 98 0 0 0
At SMD N 00888000
Po 1377 -1082
$EndPAD
$PAD
Sh "37" R 98 355 0 0 0
At SMD N 00888000
Po 1082 -1377
$EndPAD
$PAD
Sh "38" R 99 355 0 0 0
At SMD N 00888000
Po 885 -1377
$EndPAD
$PAD
Sh "39" R 99 355 0 0 0
At SMD N 00888000
Po 688 -1377
$EndPAD
$PAD
Sh "40" R 99 355 0 0 0
At SMD N 00888000
Po 491 -1377
$EndPAD
$PAD
Sh "41" R 98 355 0 0 0
At SMD N 00888000
Po 295 -1377
$EndPAD
$PAD
Sh "42" R 98 355 0 0 0
At SMD N 00888000
Po 98 -1377
$EndPAD
$PAD
Sh "43" R 98 355 0 0 0
At SMD N 00888000
Po -98 -1377
$EndPAD
$PAD
Sh "44" R 98 355 0 0 0
At SMD N 00888000
Po -295 -1377
$EndPAD
$PAD
Sh "45" R 99 355 0 0 0
At SMD N 00888000
Po -491 -1377
$EndPAD
$PAD
Sh "46" R 99 355 0 0 0
At SMD N 00888000
Po -688 -1377
$EndPAD
$PAD
Sh "47" R 99 355 0 0 0
At SMD N 00888000
Po -885 -1377
$EndPAD
$PAD
Sh "48" R 98 355 0 0 0
At SMD N 00888000
Po -1082 -1377
$EndPAD
$PAD
Sh "49" R 2006 2006 0 0 0
At SMD N 00808000
Po 0 0
$EndPAD
$PAD
Sh " " R 315 315 0 0 0
At SMD N 00080000
Po -432 432
$EndPAD
$PAD
Sh " " R 315 314 0 0 0
At SMD N 00080000
Po -432 0
$EndPAD
$PAD
Sh " " R 315 315 0 0 0
At SMD N 00080000
Po -432 -432
$EndPAD
$PAD
Sh " " R 314 315 0 0 0
At SMD N 00080000
Po 0 432
$EndPAD
$PAD
Sh " " R 314 314 0 0 0
At SMD N 00080000
Po 0 0
$EndPAD
$PAD
Sh " " R 314 315 0 0 0
At SMD N 00080000
Po 0 -432
$EndPAD
$PAD
Sh " " R 315 315 0 0 0
At SMD N 00080000
Po 432 432
$EndPAD
$PAD
Sh " " R 315 314 0 0 0
At SMD N 00080000
Po 432 0
$EndPAD
$PAD
Sh " " R 315 315 0 0 0
At SMD N 00080000
Po 432 -432
$EndPAD
DS -1377 -1377 -1200 -1377 50 21
DS -1377 -1377 -1377 -1200 50 21
DS -1377 -1200 -1200 -1377 50 21
DS -1377 1377 -1377 1200 50 21
DS -1377 1377 -1200 1377 50 21
DS -1200 1377 -1200 1377 50 21
DS 1377 1377 1200 1377 50 21
DS 1377 1377 1377 1200 50 21
DS 1377 1200 1377 1200 50 21
DS 1377 -1377 1377 -1200 50 21
DS 1377 -1377 1200 -1377 50 21
DS 1200 -1377 1200 -1377 50 21
$EndMODULE QFN48-Freescale
$MODULE QFN48-nRF51
Po 0 0 0 15 5898BEDF 00000000 ~~
Li QFN48-nRF51
Sc 5898BEDF
At SMD
Op 0 0 0
T0 0 -150 200 200 0 40 N V 25 "QFN48-nRF51"
T1 0 150 200 200 0 40 N I 25 "Val*"
$PAD
Sh "1" R 315 79 0 0 0
At SMD N 00888000
Po -1180 -865
$EndPAD
$PAD
Sh "2" R 315 79 0 0 0
At SMD N 00888000
Po -1180 -708
$EndPAD
$PAD
Sh "3" R 315 79 0 0 0
At SMD N 00888000
Po -1180 -550
$EndPAD
$PAD
Sh "4" R 315 79 0 0 0
At SMD N 00888000
Po -1180 -393
$EndPAD
$PAD
Sh "5" R 315 79 0 0 0
At SMD N 00888000
Po -1180 -235
$EndPAD
$PAD
Sh "6" R 315 79 0 0 0
At SMD N 00888000
Po -1180 -78
$EndPAD
$PAD
Sh "7" R 315 79 0 0 0
At SMD N 00888000
Po -1180 78
$EndPAD
$PAD
Sh "8" R 315 79 0 0 0
At SMD N 00888000
Po -1180 235
$EndPAD
$PAD
Sh "9" R 315 79 0 0 0
At SMD N 00888000
Po -1180 393
$EndPAD
$PAD
Sh "10" R 315 79 0 0 0
At SMD N 00888000
Po -1180 550
$EndPAD
$PAD
Sh "11" R 315 79 0 0 0
At SMD N 00888000
Po -1180 708
$EndPAD
$PAD
Sh "12" R 315 79 0 0 0
At SMD N 00888000
Po -1180 865
$EndPAD
$PAD
Sh "13" R 79 315 0 0 0
At SMD N 00888000
Po -865 1180
$EndPAD
$PAD
Sh "14" R 79 315 0 0 0
At SMD N 00888000
Po -708 1180
$EndPAD
$PAD
Sh "15" R 79 315 0 0 0
At SMD N 00888000
Po -550 1180
$EndPAD
$PAD
Sh "16" R 79 315 0 0 0
At SMD N 00888000
Po -393 1180
$EndPAD
$PAD
Sh "17" R 79 315 0 0 0
At SMD N 00888000
Po -235 1180
$EndPAD
$PAD
Sh "18" R 79 315 0 0 0
At SMD N 00888000
Po -78 1180
$EndPAD
$PAD
Sh "19" R 79 315 0 0 0
At SMD N 00888000
Po 78 1180
$EndPAD
$PAD
Sh "20" R 79 315 0 0 0
At SMD N 00888000
Po 235 1180
$EndPAD
$PAD
Sh "21" R 79 315 0 0 0
At SMD N 00888000
Po 393 1180
$EndPAD
$PAD
Sh "22" R 79 315 0 0 0
At SMD N 00888000
Po 550 1180
$EndPAD
$PAD
Sh "23" R 79 315 0 0 0
At SMD N 00888000
Po 708 1180
$EndPAD
$PAD
Sh "24" R 79 315 0 0 0
At SMD N 00888000
Po 865 1180
$EndPAD
$PAD
Sh "25" R 315 79 0 0 0
At SMD N 00888000
Po 1180 865
$EndPAD
$PAD
Sh "26" R 315 79 0 0 0
At SMD N 00888000
Po 1180 708
$EndPAD
$PAD
Sh "27" R 315 79 0 0 0
At SMD N 00888000
Po 1180 550
$EndPAD
$PAD
Sh "28" R 315 79 0 0 0
At SMD N 00888000
Po 1180 393
$EndPAD
$PAD
Sh "29" R 315 79 0 0 0
At SMD N 00888000
Po 1180 235
$EndPAD
$PAD
Sh "30" R 315 79 0 0 0
At SMD N 00888000
Po 1180 78
$EndPAD
$PAD
Sh "31" R 315 79 0 0 0
At SMD N 00888000
Po 1180 -78
$EndPAD
$PAD
Sh "32" R 315 79 0 0 0
At SMD N 00888000
Po 1180 -235
$EndPAD
$PAD
Sh "33" R 315 79 0 0 0
At SMD N 00888000
Po 1180 -393
$EndPAD
$PAD
Sh "34" R 315 79 0 0 0
At SMD N 00888000
Po 1180 -550
$EndPAD
$PAD
Sh "35" R 315 79 0 0 0
At SMD N 00888000
Po 1180 -708
$EndPAD
$PAD
Sh "36" R 315 79 0 0 0
At SMD N 00888000
Po 1180 -865
$EndPAD
$PAD
Sh "37" R 79 315 0 0 0
At SMD N 00888000
Po 865 -1180
$EndPAD
$PAD
Sh "38" R 79 315 0 0 0
At SMD N 00888000
Po 708 -1180
$EndPAD
$PAD
Sh "39" R 79 315 0 0 0
At SMD N 00888000
Po 550 -1180
$EndPAD
$PAD
Sh "40" R 79 315 0 0 0
At SMD N 00888000
Po 393 -1180
$EndPAD
$PAD
Sh "41" R 79 315 0 0 0
At SMD N 00888000
Po 235 -1180
$EndPAD
$PAD
Sh "42" R 79 315 0 0 0
At SMD N 00888000
Po 78 -1180
$EndPAD
$PAD
Sh "43" R 79 315 0 0 0
At SMD N 00888000
Po -78 -1180
$EndPAD
$PAD
Sh "44" R 79 315 0 0 0
At SMD N 00888000
Po -235 -1180
$EndPAD
$PAD
Sh "45" R 79 315 0 0 0
At SMD N 00888000
Po -393 -1180
$EndPAD
$PAD
Sh "46" R 79 315 0 0 0
At SMD N 00888000
Po -550 -1180
$EndPAD
$PAD
Sh "47" R 79 315 0 0 0
At SMD N 00888000
Po -708 -1180
$EndPAD
$PAD
Sh "48" R 79 315 0 0 0
At SMD N 00888000
Po -865 -1180
$EndPAD
$PAD
Sh "49" R 1810 1810 0 0 0
At SMD N 00808000
Po 0 0
$EndPAD
$PAD
Sh " " R 276 276 0 0 0
At SMD N 00080000
Po -393 393
$EndPAD
$PAD
Sh " " R 276 274 0 0 0
At SMD N 00080000
Po -393 0
$EndPAD
$PAD
Sh " " R 276 276 0 0 0
At SMD N 00080000
Po -393 -393
$EndPAD
$PAD
Sh " " R 274 276 0 0 0
At SMD N 00080000
Po 0 393
$EndPAD
$PAD
Sh " " R 274 274 0 0 0
At SMD N 00080000
Po 0 0
$EndPAD
$PAD
Sh " " R 274 276 0 0 0
At SMD N 00080000
Po 0 -393
$EndPAD
$PAD
Sh " " R 276 276 0 0 0
At SMD N 00080000
Po 393 393
$EndPAD
$PAD
Sh " " R 276 274 0 0 0
At SMD N 00080000
Po 393 0
$EndPAD
$PAD
Sh " " R 276 276 0 0 0
At SMD N 00080000
Po 393 -393
$EndPAD
DS -1181 -1181 -1023 -1181 50 21
DS -1181 -1181 -1181 -1023 50 21
DS -1181 -1023 -1023 -1181 50 21
DS -1181 1181 -1181 1023 50 21
DS -1181 1181 -1023 1181 50 21
DS -1023 1181 -1023 1181 50 21
DS 1181 1181 1023 1181 50 21
DS 1181 1181 1181 1023 50 21
DS 1181 1023 1181 1023 50 21
DS 1181 -1181 1181 -1023 50 21
DS 1181 -1181 1023 -1181 50 21
DS 1023 -1181 1023 -1181 50 21
$EndMODULE QFN48-nRF51
$EndLIBRARY
