PCBNEW-LibModule-V1 Sun Feb  5 17:36:03 2017
$INDEX
SMD-DIL-TMD2671
SMD-DIL-6-0.35
SMD-DIL-8-0.35
SMD-DIL-6-0.5
$EndINDEX
$MODULE SMD-DIL-TMD2671
Po 0 0 0 15 58975473 00000000 ~~
Li SMD-DIL-TMD2671
Sc 58975473
At SMD
Op 0 0 0
T0 0 -150 200 200 0 40 N V 25 "SMD-DIL-TMD2671"
T1 0 150 200 200 0 40 N I 25 "Val*"
$PAD
Sh "1" R 236 283 0 0 0
At SMD N 00888000
Po -275 -572
$EndPAD
$PAD
Sh "2" R 236 283 0 0 0
At SMD N 00888000
Po -275 -190
$EndPAD
$PAD
Sh "3" R 236 283 0 0 0
At SMD N 00888000
Po -275 190
$EndPAD
$PAD
Sh "4" R 236 283 0 0 0
At SMD N 00888000
Po -275 572
$EndPAD
$PAD
Sh "5" R 236 283 0 0 0
At SMD N 00888000
Po 275 572
$EndPAD
$PAD
Sh "6" R 236 283 0 0 0
At SMD N 00888000
Po 275 190
$EndPAD
$PAD
Sh "7" R 236 283 0 0 0
At SMD N 00888000
Po 275 -190
$EndPAD
$PAD
Sh "8" R 236 283 0 0 0
At SMD N 00888000
Po 275 -572
$EndPAD
DC -450 -889 -450 -929 50 21
DS -489 800 489 800 50 21
DS -489 -800 489 -800 50 21
DS -489 -800 -489 800 50 21
DS 489 -800 489 800 50 21
$EndMODULE SMD-DIL-TMD2671
$MODULE SMD-DIL-6-0.35
Po 0 0 0 15 58975473 00000000 ~~
Li SMD-DIL-6-0.35
Sc 58975473
At SMD
Op 0 0 0
T0 0 -150 200 200 0 40 N V 25 "SMD-DIL-6-0.35"
T1 0 150 200 200 0 40 N I 25 "Val*"
$PAD
Sh "1" R 209 79 0 0 0
At SMD N 00888000
Po -133 -137
$EndPAD
$PAD
Sh "2" R 209 78 0 0 0
At SMD N 00888000
Po -133 0
$EndPAD
$PAD
Sh "3" R 209 79 0 0 0
At SMD N 00888000
Po -133 137
$EndPAD
$PAD
Sh "4" R 209 79 0 0 0
At SMD N 00888000
Po 133 137
$EndPAD
$PAD
Sh "5" R 209 78 0 0 0
At SMD N 00888000
Po 133 0
$EndPAD
$PAD
Sh "6" R 209 79 0 0 0
At SMD N 00888000
Po 133 -137
$EndPAD
DC -182 -330 -182 -370 50 21
DS -221 241 221 241 50 21
DS -221 -241 221 -241 50 21
$EndMODULE SMD-DIL-6-0.35
$MODULE SMD-DIL-8-0.35
Po 0 0 0 15 58975473 00000000 ~~
Li SMD-DIL-8-0.35
Sc 58975473
At SMD
Op 0 0 0
T0 0 -150 200 200 0 40 N V 25 "SMD-DIL-8-0.35"
T1 0 150 200 200 0 40 N I 25 "Val*"
$PAD
Sh "1" R 209 79 0 0 0
At SMD N 00888000
Po -131 -206
$EndPAD
$PAD
Sh "2" R 209 79 0 0 0
At SMD N 00888000
Po -131 -68
$EndPAD
$PAD
Sh "3" R 209 79 0 0 0
At SMD N 00888000
Po -131 68
$EndPAD
$PAD
Sh "4" R 209 79 0 0 0
At SMD N 00888000
Po -131 206
$EndPAD
$PAD
Sh "5" R 209 79 0 0 0
At SMD N 00888000
Po 131 206
$EndPAD
$PAD
Sh "6" R 209 79 0 0 0
At SMD N 00888000
Po 131 68
$EndPAD
$PAD
Sh "7" R 209 79 0 0 0
At SMD N 00888000
Po 131 -68
$EndPAD
$PAD
Sh "8" R 209 79 0 0 0
At SMD N 00888000
Po 131 -206
$EndPAD
DC -182 -409 -182 -449 50 21
DS -221 320 221 320 50 21
DS -221 -320 221 -320 50 21
$EndMODULE SMD-DIL-8-0.35
$MODULE SMD-DIL-6-0.5
Po 0 0 0 15 58975473 00000000 ~~
Li SMD-DIL-6-0.5
Sc 58975473
At SMD
Op 0 0 0
T0 0 -150 200 200 0 40 N V 25 "SMD-DIL-6-0.5"
T1 0 150 200 200 0 40 N I 25 "Val*"
$PAD
Sh "1" R 167 145 0 0 0
At SMD N 00888000
Po -132 -196
$EndPAD
$PAD
Sh "2" R 167 144 0 0 0
At SMD N 00888000
Po -132 0
$EndPAD
$PAD
Sh "3" R 167 145 0 0 0
At SMD N 00888000
Po -132 196
$EndPAD
$PAD
Sh "4" R 167 145 0 0 0
At SMD N 00888000
Po 132 196
$EndPAD
$PAD
Sh "5" R 167 144 0 0 0
At SMD N 00888000
Po 132 0
$EndPAD
$PAD
Sh "6" R 167 145 0 0 0
At SMD N 00888000
Po 132 -196
$EndPAD
DC -182 -429 -182 -468 50 21
DS -221 339 221 339 50 21
DS -221 -339 221 -339 50 21
$EndMODULE SMD-DIL-6-0.5
$EndLIBRARY
