PCBNEW-LibModule-V1 Sun Feb  5 17:36:04 2017
$INDEX
SOT-235
SOT-236
SOT-323
SOT-363
SOT-523
SOT-563
$EndINDEX
$MODULE SOT-235
Po 0 0 0 15 58975474 00000000 ~~
Li SOT-235
Sc 58975474
At SMD
Op 0 0 0
T0 0 -150 200 200 0 40 N V 25 "SOT-235"
T1 0 150 200 200 0 40 N I 25 "Val*"
$PAD
Sh "1" R 237 414 0 0 0
At SMD N 00888000
Po -373 531
$EndPAD
$PAD
Sh "2" R 236 414 0 0 0
At SMD N 00888000
Po 0 531
$EndPAD
$PAD
Sh "3" R 237 414 0 0 0
At SMD N 00888000
Po 373 531
$EndPAD
$PAD
Sh "4" R 237 414 0 0 0
At SMD N 00888000
Po 373 -531
$EndPAD
$PAD
Sh "5" R 237 414 0 0 0
At SMD N 00888000
Po -373 -531
$EndPAD
DC -802 531 -802 438 50 21
DC -802 531 -802 438 50 21
DC -802 531 -802 438 50 21
DC -802 531 -802 438 50 21
DC -802 531 -802 438 50 21
DS 600 -324 600 324 50 21
DS -600 324 -600 -324 50 21
DS 600 -324 600 324 50 21
DS -600 324 -600 -324 50 21
DS 600 -324 600 324 50 21
DS -600 324 -600 -324 50 21
DS 600 -324 600 324 50 21
DS -600 324 -600 -324 50 21
DS 600 -324 600 324 50 21
DS -600 324 -600 -324 50 21
$EndMODULE SOT-235
$MODULE SOT-236
Po 0 0 0 15 58975474 00000000 ~~
Li SOT-236
Sc 58975474
At SMD
Op 0 0 0
T0 0 -150 200 200 0 40 N V 25 "SOT-236"
T1 0 150 200 200 0 40 N I 25 "Val*"
$PAD
Sh "1" R 237 414 0 0 0
At SMD N 00888000
Po -373 531
$EndPAD
$PAD
Sh "2" R 236 414 0 0 0
At SMD N 00888000
Po 0 531
$EndPAD
$PAD
Sh "3" R 237 414 0 0 0
At SMD N 00888000
Po 373 531
$EndPAD
$PAD
Sh "4" R 237 414 0 0 0
At SMD N 00888000
Po 373 -531
$EndPAD
$PAD
Sh "5" R 236 414 0 0 0
At SMD N 00888000
Po 0 -531
$EndPAD
$PAD
Sh "6" R 237 414 0 0 0
At SMD N 00888000
Po -373 -531
$EndPAD
DC -802 531 -802 438 50 21
DC -802 531 -802 438 50 21
DC -802 531 -802 438 50 21
DC -802 531 -802 438 50 21
DC -802 531 -802 438 50 21
DC -802 531 -802 438 50 21
DS 600 -324 600 324 50 21
DS -600 324 -600 -324 50 21
DS 600 -324 600 324 50 21
DS -600 324 -600 -324 50 21
DS 600 -324 600 324 50 21
DS -600 324 -600 -324 50 21
DS 600 -324 600 324 50 21
DS -600 324 -600 -324 50 21
DS 600 -324 600 324 50 21
DS -600 324 -600 -324 50 21
DS 600 -324 600 324 50 21
DS -600 324 -600 -324 50 21
$EndMODULE SOT-236
$MODULE SOT-323
Po 0 0 0 15 58975474 00000000 ~~
Li SOT-323
Sc 58975474
At SMD
Op 0 0 0
T0 0 -150 200 200 0 40 N V 25 "SOT-323"
T1 0 150 200 200 0 40 N I 25 "Val*"
$PAD
Sh "1" R 275 355 0 0 0
At SMD N 00888000
Po -255 373
$EndPAD
$PAD
Sh "2" R 275 355 0 0 0
At SMD N 00888000
Po 255 373
$EndPAD
$PAD
Sh "3" R 274 355 0 0 0
At SMD N 00888000
Po 0 -373
$EndPAD
DS 393 -246 393 246 50 21
DS -393 246 -393 -246 50 21
DS 393 -246 393 246 50 21
DS -393 246 -393 -246 50 21
DS 393 -246 393 246 50 21
DS -393 246 -393 -246 50 21
$EndMODULE SOT-323
$MODULE SOT-363
Po 0 0 0 15 58975474 00000000 ~~
Li SOT-363
Sc 58975474
At SMD
Op 0 0 0
T0 0 -150 200 200 0 40 N V 25 "SOT-363"
T1 0 150 200 200 0 40 N I 25 "Val*"
$PAD
Sh "1" R 157 197 0 0 0
At SMD N 00888000
Po -255 373
$EndPAD
$PAD
Sh "2" R 156 197 0 0 0
At SMD N 00888000
Po 0 373
$EndPAD
$PAD
Sh "3" R 157 197 0 0 0
At SMD N 00888000
Po 255 373
$EndPAD
$PAD
Sh "4" R 157 197 0 0 0
At SMD N 00888000
Po 255 -373
$EndPAD
$PAD
Sh "5" R 156 197 0 0 0
At SMD N 00888000
Po 0 -373
$EndPAD
$PAD
Sh "6" R 157 197 0 0 0
At SMD N 00888000
Po -255 -373
$EndPAD
DC -556 374 -556 320 50 21
DC -556 374 -556 320 50 21
DC -556 374 -556 320 50 21
DC -556 374 -556 320 50 21
DC -556 374 -556 320 50 21
DC -556 374 -556 320 50 21
DS 393 -246 393 246 50 21
DS -393 246 -393 -246 50 21
DS 393 -246 393 246 50 21
DS -393 246 -393 -246 50 21
DS 393 -246 393 246 50 21
DS -393 246 -393 -246 50 21
DS 393 -246 393 246 50 21
DS -393 246 -393 -246 50 21
DS 393 -246 393 246 50 21
DS -393 246 -393 -246 50 21
DS 393 -246 393 246 50 21
DS -393 246 -393 -246 50 21
$EndMODULE SOT-363
$MODULE SOT-523
Po 0 0 0 15 58975474 00000000 ~~
Li SOT-523
Sc 58975474
At SMD
Op 0 0 0
T0 0 -150 200 200 0 40 N V 25 "SOT-523"
T1 0 150 200 200 0 40 N I 25 "Val*"
$PAD
Sh "1" R 157 201 0 0 0
At SMD N 00888000
Po -196 255
$EndPAD
$PAD
Sh "2" R 157 201 0 0 0
At SMD N 00888000
Po 196 255
$EndPAD
$PAD
Sh "3" R 156 201 0 0 0
At SMD N 00888000
Po 0 -255
$EndPAD
DS 314 -157 314 157 50 21
DS -314 157 -314 -157 50 21
DS 314 -157 314 157 50 21
DS -314 157 -314 -157 50 21
DS 314 -157 314 157 50 21
DS -314 157 -314 -157 50 21
$EndMODULE SOT-523
$MODULE SOT-563
Po 0 0 0 15 58975474 00000000 ~~
Li SOT-563
Sc 58975474
At SMD
Op 0 0 0
T0 0 -150 200 200 0 40 N V 25 "SOT-563"
T1 0 150 200 200 0 40 N I 25 "Val*"
$PAD
Sh "1" R 118 177 0 0 0
At SMD N 00888000
Po -196 265
$EndPAD
$PAD
Sh "2" R 118 177 0 0 0
At SMD N 00888000
Po 0 265
$EndPAD
$PAD
Sh "3" R 118 177 0 0 0
At SMD N 00888000
Po 196 265
$EndPAD
$PAD
Sh "4" R 118 177 0 0 0
At SMD N 00888000
Po 196 -265
$EndPAD
$PAD
Sh "5" R 118 177 0 0 0
At SMD N 00888000
Po 0 -265
$EndPAD
$PAD
Sh "6" R 118 177 0 0 0
At SMD N 00888000
Po -196 -265
$EndPAD
DC -458 265 -458 231 50 21
DC -458 265 -458 231 50 21
DC -458 265 -458 231 50 21
DC -458 265 -458 231 50 21
DC -458 265 -458 231 50 21
DC -458 265 -458 231 50 21
DS 314 -236 314 236 50 21
DS -314 236 -314 -236 50 21
DS 314 -236 314 236 50 21
DS -314 236 -314 -236 50 21
DS 314 -236 314 236 50 21
DS -314 236 -314 -236 50 21
DS 314 -236 314 236 50 21
DS -314 236 -314 -236 50 21
DS 314 -236 314 236 50 21
DS -314 236 -314 -236 50 21
DS 314 -236 314 236 50 21
DS -314 236 -314 -236 50 21
$EndMODULE SOT-563
$EndLIBRARY
