PCBNEW-LibModule-V1 Sun Feb  5 17:36:04 2017
$INDEX
SSOP-14
SSOP-16
SSOP-20
SSOP-24
SSOP-28
TSSOP-14
TSSOP-16
TSSOP-20
$EndINDEX
$MODULE SSOP-14
Po 0 0 0 15 58975474 00000000 ~~
Li SSOP-14
Sc 58975474
At SMD
Op 0 0 0
T0 0 -150 200 200 0 40 N V 25 "SSOP-14"
T1 0 150 200 200 0 40 N I 25 "Val*"
$PAD
Sh "14" R 158 472 0 0 0
At SMD N 00888000
Po -767 -1358
$EndPAD
$PAD
Sh "1" R 158 472 0 0 0
At SMD N 00888000
Po -767 1358
$EndPAD
$PAD
Sh "13" R 157 472 0 0 0
At SMD N 00888000
Po -511 -1358
$EndPAD
$PAD
Sh "2" R 157 472 0 0 0
At SMD N 00888000
Po -511 1358
$EndPAD
$PAD
Sh "12" R 157 472 0 0 0
At SMD N 00888000
Po -255 -1358
$EndPAD
$PAD
Sh "3" R 157 472 0 0 0
At SMD N 00888000
Po -255 1358
$EndPAD
$PAD
Sh "11" R 156 472 0 0 0
At SMD N 00888000
Po 0 -1358
$EndPAD
$PAD
Sh "4" R 156 472 0 0 0
At SMD N 00888000
Po 0 1358
$EndPAD
$PAD
Sh "10" R 157 472 0 0 0
At SMD N 00888000
Po 255 -1358
$EndPAD
$PAD
Sh "5" R 157 472 0 0 0
At SMD N 00888000
Po 255 1358
$EndPAD
$PAD
Sh "9" R 157 472 0 0 0
At SMD N 00888000
Po 511 -1358
$EndPAD
$PAD
Sh "6" R 157 472 0 0 0
At SMD N 00888000
Po 511 1358
$EndPAD
$PAD
Sh "8" R 158 472 0 0 0
At SMD N 00888000
Po 767 -1358
$EndPAD
$PAD
Sh "7" R 158 472 0 0 0
At SMD N 00888000
Po 767 1358
$EndPAD
DC -1131 1358 -1131 1240 50 21
DS -895 1643 -895 -1643 50 21
DS -895 -1643 895 -1643 50 21
DS 895 -1643 895 1643 50 21
DS 895 1643 -895 1643 50 21
$EndMODULE SSOP-14
$MODULE SSOP-16
Po 0 0 0 15 58975474 00000000 ~~
Li SSOP-16
Sc 58975474
At SMD
Op 0 0 0
T0 0 -150 200 200 0 40 N V 25 "SSOP-16"
T1 0 150 200 200 0 40 N I 25 "Val*"
$PAD
Sh "16" R 158 472 0 0 0
At SMD N 00888000
Po -895 -1358
$EndPAD
$PAD
Sh "1" R 158 472 0 0 0
At SMD N 00888000
Po -895 1358
$EndPAD
$PAD
Sh "15" R 157 472 0 0 0
At SMD N 00888000
Po -639 -1358
$EndPAD
$PAD
Sh "2" R 157 472 0 0 0
At SMD N 00888000
Po -639 1358
$EndPAD
$PAD
Sh "14" R 157 472 0 0 0
At SMD N 00888000
Po -383 -1358
$EndPAD
$PAD
Sh "3" R 157 472 0 0 0
At SMD N 00888000
Po -383 1358
$EndPAD
$PAD
Sh "13" R 157 472 0 0 0
At SMD N 00888000
Po -127 -1358
$EndPAD
$PAD
Sh "4" R 157 472 0 0 0
At SMD N 00888000
Po -127 1358
$EndPAD
$PAD
Sh "12" R 157 472 0 0 0
At SMD N 00888000
Po 127 -1358
$EndPAD
$PAD
Sh "5" R 157 472 0 0 0
At SMD N 00888000
Po 127 1358
$EndPAD
$PAD
Sh "11" R 157 472 0 0 0
At SMD N 00888000
Po 383 -1358
$EndPAD
$PAD
Sh "6" R 157 472 0 0 0
At SMD N 00888000
Po 383 1358
$EndPAD
$PAD
Sh "10" R 157 472 0 0 0
At SMD N 00888000
Po 639 -1358
$EndPAD
$PAD
Sh "7" R 157 472 0 0 0
At SMD N 00888000
Po 639 1358
$EndPAD
$PAD
Sh "9" R 158 472 0 0 0
At SMD N 00888000
Po 895 -1358
$EndPAD
$PAD
Sh "8" R 158 472 0 0 0
At SMD N 00888000
Po 895 1358
$EndPAD
DC -1259 1358 -1259 1240 50 21
DS -1023 1643 -1023 -1643 50 21
DS -1023 -1643 1023 -1643 50 21
DS 1023 -1643 1023 1643 50 21
DS 1023 1643 -1023 1643 50 21
$EndMODULE SSOP-16
$MODULE SSOP-20
Po 0 0 0 15 58975474 00000000 ~~
Li SSOP-20
Sc 58975474
At SMD
Op 0 0 0
T0 0 -150 200 200 0 40 N V 25 "SSOP-20"
T1 0 150 200 200 0 40 N I 25 "Val*"
$PAD
Sh "20" R 158 433 0 0 0
At SMD N 00888000
Po -1151 -1377
$EndPAD
$PAD
Sh "1" R 158 433 0 0 0
At SMD N 00888000
Po -1151 1377
$EndPAD
$PAD
Sh "19" R 158 433 0 0 0
At SMD N 00888000
Po -895 -1377
$EndPAD
$PAD
Sh "2" R 158 433 0 0 0
At SMD N 00888000
Po -895 1377
$EndPAD
$PAD
Sh "18" R 157 433 0 0 0
At SMD N 00888000
Po -639 -1377
$EndPAD
$PAD
Sh "3" R 157 433 0 0 0
At SMD N 00888000
Po -639 1377
$EndPAD
$PAD
Sh "17" R 157 433 0 0 0
At SMD N 00888000
Po -383 -1377
$EndPAD
$PAD
Sh "4" R 157 433 0 0 0
At SMD N 00888000
Po -383 1377
$EndPAD
$PAD
Sh "16" R 157 433 0 0 0
At SMD N 00888000
Po -127 -1377
$EndPAD
$PAD
Sh "5" R 157 433 0 0 0
At SMD N 00888000
Po -127 1377
$EndPAD
$PAD
Sh "15" R 157 433 0 0 0
At SMD N 00888000
Po 127 -1377
$EndPAD
$PAD
Sh "6" R 157 433 0 0 0
At SMD N 00888000
Po 127 1377
$EndPAD
$PAD
Sh "14" R 157 433 0 0 0
At SMD N 00888000
Po 383 -1377
$EndPAD
$PAD
Sh "7" R 157 433 0 0 0
At SMD N 00888000
Po 383 1377
$EndPAD
$PAD
Sh "13" R 157 433 0 0 0
At SMD N 00888000
Po 639 -1377
$EndPAD
$PAD
Sh "8" R 157 433 0 0 0
At SMD N 00888000
Po 639 1377
$EndPAD
$PAD
Sh "12" R 158 433 0 0 0
At SMD N 00888000
Po 895 -1377
$EndPAD
$PAD
Sh "9" R 158 433 0 0 0
At SMD N 00888000
Po 895 1377
$EndPAD
$PAD
Sh "11" R 158 433 0 0 0
At SMD N 00888000
Po 1151 -1377
$EndPAD
$PAD
Sh "10" R 158 433 0 0 0
At SMD N 00888000
Po 1151 1377
$EndPAD
DC -1515 1377 -1515 1259 50 21
DS -1279 1643 -1279 -1643 50 21
DS -1279 -1643 1279 -1643 50 21
DS 1279 -1643 1279 1643 50 21
DS 1279 1643 -1279 1643 50 21
$EndMODULE SSOP-20
$MODULE SSOP-24
Po 0 0 0 15 58975474 00000000 ~~
Li SSOP-24
Sc 58975474
At SMD
Op 0 0 0
T0 0 -150 200 200 0 40 N V 25 "SSOP-24"
T1 0 150 200 200 0 40 N I 25 "Val*"
$PAD
Sh "24" R 158 433 0 0 0
At SMD N 00888000
Po -1407 -1377
$EndPAD
$PAD
Sh "1" R 158 433 0 0 0
At SMD N 00888000
Po -1407 1377
$EndPAD
$PAD
Sh "23" R 158 433 0 0 0
At SMD N 00888000
Po -1151 -1377
$EndPAD
$PAD
Sh "2" R 158 433 0 0 0
At SMD N 00888000
Po -1151 1377
$EndPAD
$PAD
Sh "22" R 158 433 0 0 0
At SMD N 00888000
Po -895 -1377
$EndPAD
$PAD
Sh "3" R 158 433 0 0 0
At SMD N 00888000
Po -895 1377
$EndPAD
$PAD
Sh "21" R 157 433 0 0 0
At SMD N 00888000
Po -639 -1377
$EndPAD
$PAD
Sh "4" R 157 433 0 0 0
At SMD N 00888000
Po -639 1377
$EndPAD
$PAD
Sh "20" R 157 433 0 0 0
At SMD N 00888000
Po -383 -1377
$EndPAD
$PAD
Sh "5" R 157 433 0 0 0
At SMD N 00888000
Po -383 1377
$EndPAD
$PAD
Sh "19" R 157 433 0 0 0
At SMD N 00888000
Po -127 -1377
$EndPAD
$PAD
Sh "6" R 157 433 0 0 0
At SMD N 00888000
Po -127 1377
$EndPAD
$PAD
Sh "18" R 157 433 0 0 0
At SMD N 00888000
Po 127 -1377
$EndPAD
$PAD
Sh "7" R 157 433 0 0 0
At SMD N 00888000
Po 127 1377
$EndPAD
$PAD
Sh "17" R 157 433 0 0 0
At SMD N 00888000
Po 383 -1377
$EndPAD
$PAD
Sh "8" R 157 433 0 0 0
At SMD N 00888000
Po 383 1377
$EndPAD
$PAD
Sh "16" R 157 433 0 0 0
At SMD N 00888000
Po 639 -1377
$EndPAD
$PAD
Sh "9" R 157 433 0 0 0
At SMD N 00888000
Po 639 1377
$EndPAD
$PAD
Sh "15" R 158 433 0 0 0
At SMD N 00888000
Po 895 -1377
$EndPAD
$PAD
Sh "10" R 158 433 0 0 0
At SMD N 00888000
Po 895 1377
$EndPAD
$PAD
Sh "14" R 158 433 0 0 0
At SMD N 00888000
Po 1151 -1377
$EndPAD
$PAD
Sh "11" R 158 433 0 0 0
At SMD N 00888000
Po 1151 1377
$EndPAD
$PAD
Sh "13" R 158 433 0 0 0
At SMD N 00888000
Po 1407 -1377
$EndPAD
$PAD
Sh "12" R 158 433 0 0 0
At SMD N 00888000
Po 1407 1377
$EndPAD
DC -1771 1377 -1771 1259 50 21
DS -1535 1643 -1535 -1643 50 21
DS -1535 -1643 1535 -1643 50 21
DS 1535 -1643 1535 1643 50 21
DS 1535 1643 -1535 1643 50 21
$EndMODULE SSOP-24
$MODULE SSOP-28
Po 0 0 0 15 58975474 00000000 ~~
Li SSOP-28
Sc 58975474
At SMD
Op 0 0 0
T0 0 -150 200 200 0 40 N V 25 "SSOP-28"
T1 0 150 200 200 0 40 N I 25 "Val*"
$PAD
Sh "28" R 158 433 0 0 0
At SMD N 00888000
Po -1663 -1377
$EndPAD
$PAD
Sh "1" R 158 433 0 0 0
At SMD N 00888000
Po -1663 1377
$EndPAD
$PAD
Sh "27" R 158 433 0 0 0
At SMD N 00888000
Po -1407 -1377
$EndPAD
$PAD
Sh "2" R 158 433 0 0 0
At SMD N 00888000
Po -1407 1377
$EndPAD
$PAD
Sh "26" R 158 433 0 0 0
At SMD N 00888000
Po -1151 -1377
$EndPAD
$PAD
Sh "3" R 158 433 0 0 0
At SMD N 00888000
Po -1151 1377
$EndPAD
$PAD
Sh "25" R 158 433 0 0 0
At SMD N 00888000
Po -895 -1377
$EndPAD
$PAD
Sh "4" R 158 433 0 0 0
At SMD N 00888000
Po -895 1377
$EndPAD
$PAD
Sh "24" R 157 433 0 0 0
At SMD N 00888000
Po -639 -1377
$EndPAD
$PAD
Sh "5" R 157 433 0 0 0
At SMD N 00888000
Po -639 1377
$EndPAD
$PAD
Sh "23" R 157 433 0 0 0
At SMD N 00888000
Po -383 -1377
$EndPAD
$PAD
Sh "6" R 157 433 0 0 0
At SMD N 00888000
Po -383 1377
$EndPAD
$PAD
Sh "22" R 157 433 0 0 0
At SMD N 00888000
Po -127 -1377
$EndPAD
$PAD
Sh "7" R 157 433 0 0 0
At SMD N 00888000
Po -127 1377
$EndPAD
$PAD
Sh "21" R 157 433 0 0 0
At SMD N 00888000
Po 127 -1377
$EndPAD
$PAD
Sh "8" R 157 433 0 0 0
At SMD N 00888000
Po 127 1377
$EndPAD
$PAD
Sh "20" R 157 433 0 0 0
At SMD N 00888000
Po 383 -1377
$EndPAD
$PAD
Sh "9" R 157 433 0 0 0
At SMD N 00888000
Po 383 1377
$EndPAD
$PAD
Sh "19" R 157 433 0 0 0
At SMD N 00888000
Po 639 -1377
$EndPAD
$PAD
Sh "10" R 157 433 0 0 0
At SMD N 00888000
Po 639 1377
$EndPAD
$PAD
Sh "18" R 158 433 0 0 0
At SMD N 00888000
Po 895 -1377
$EndPAD
$PAD
Sh "11" R 158 433 0 0 0
At SMD N 00888000
Po 895 1377
$EndPAD
$PAD
Sh "17" R 158 433 0 0 0
At SMD N 00888000
Po 1151 -1377
$EndPAD
$PAD
Sh "12" R 158 433 0 0 0
At SMD N 00888000
Po 1151 1377
$EndPAD
$PAD
Sh "16" R 158 433 0 0 0
At SMD N 00888000
Po 1407 -1377
$EndPAD
$PAD
Sh "13" R 158 433 0 0 0
At SMD N 00888000
Po 1407 1377
$EndPAD
$PAD
Sh "15" R 158 433 0 0 0
At SMD N 00888000
Po 1663 -1377
$EndPAD
$PAD
Sh "14" R 158 433 0 0 0
At SMD N 00888000
Po 1663 1377
$EndPAD
DC -2027 1377 -2027 1259 50 21
DS -1791 1643 -1791 -1643 50 21
DS -1791 -1643 1791 -1643 50 21
DS 1791 -1643 1791 1643 50 21
DS 1791 1643 -1791 1643 50 21
$EndMODULE SSOP-28
$MODULE TSSOP-14
Po 0 0 0 15 58975474 00000000 ~~
Li TSSOP-14
Sc 58975474
At SMD
Op 0 0 0
T0 0 -150 200 200 0 40 N V 25 "TSSOP-14"
T1 0 150 200 200 0 40 N I 25 "Val*"
$PAD
Sh "14" R 158 433 0 0 0
At SMD N 00888000
Po -767 -1121
$EndPAD
$PAD
Sh "1" R 158 433 0 0 0
At SMD N 00888000
Po -767 1121
$EndPAD
$PAD
Sh "13" R 157 433 0 0 0
At SMD N 00888000
Po -511 -1121
$EndPAD
$PAD
Sh "2" R 157 433 0 0 0
At SMD N 00888000
Po -511 1121
$EndPAD
$PAD
Sh "12" R 157 433 0 0 0
At SMD N 00888000
Po -255 -1121
$EndPAD
$PAD
Sh "3" R 157 433 0 0 0
At SMD N 00888000
Po -255 1121
$EndPAD
$PAD
Sh "11" R 156 433 0 0 0
At SMD N 00888000
Po 0 -1121
$EndPAD
$PAD
Sh "4" R 156 433 0 0 0
At SMD N 00888000
Po 0 1121
$EndPAD
$PAD
Sh "10" R 157 433 0 0 0
At SMD N 00888000
Po 255 -1121
$EndPAD
$PAD
Sh "5" R 157 433 0 0 0
At SMD N 00888000
Po 255 1121
$EndPAD
$PAD
Sh "9" R 157 433 0 0 0
At SMD N 00888000
Po 511 -1121
$EndPAD
$PAD
Sh "6" R 157 433 0 0 0
At SMD N 00888000
Po 511 1121
$EndPAD
$PAD
Sh "8" R 158 433 0 0 0
At SMD N 00888000
Po 767 -1121
$EndPAD
$PAD
Sh "7" R 158 433 0 0 0
At SMD N 00888000
Po 767 1121
$EndPAD
DC -1220 1122 -1220 1003 50 21
DS -984 1387 -984 -1387 50 21
DS -984 -1387 984 -1387 50 21
DS 984 -1387 984 1387 50 21
DS 984 1387 -984 1387 50 21
$EndMODULE TSSOP-14
$MODULE TSSOP-16
Po 0 0 0 15 58975474 00000000 ~~
Li TSSOP-16
Sc 58975474
At SMD
Op 0 0 0
T0 0 -150 200 200 0 40 N V 25 "TSSOP-16"
T1 0 150 200 200 0 40 N I 25 "Val*"
$PAD
Sh "16" R 158 433 0 0 0
At SMD N 00888000
Po -895 -1121
$EndPAD
$PAD
Sh "1" R 158 433 0 0 0
At SMD N 00888000
Po -895 1121
$EndPAD
$PAD
Sh "15" R 157 433 0 0 0
At SMD N 00888000
Po -639 -1121
$EndPAD
$PAD
Sh "2" R 157 433 0 0 0
At SMD N 00888000
Po -639 1121
$EndPAD
$PAD
Sh "14" R 157 433 0 0 0
At SMD N 00888000
Po -383 -1121
$EndPAD
$PAD
Sh "3" R 157 433 0 0 0
At SMD N 00888000
Po -383 1121
$EndPAD
$PAD
Sh "13" R 157 433 0 0 0
At SMD N 00888000
Po -127 -1121
$EndPAD
$PAD
Sh "4" R 157 433 0 0 0
At SMD N 00888000
Po -127 1121
$EndPAD
$PAD
Sh "12" R 157 433 0 0 0
At SMD N 00888000
Po 127 -1121
$EndPAD
$PAD
Sh "5" R 157 433 0 0 0
At SMD N 00888000
Po 127 1121
$EndPAD
$PAD
Sh "11" R 157 433 0 0 0
At SMD N 00888000
Po 383 -1121
$EndPAD
$PAD
Sh "6" R 157 433 0 0 0
At SMD N 00888000
Po 383 1121
$EndPAD
$PAD
Sh "10" R 157 433 0 0 0
At SMD N 00888000
Po 639 -1121
$EndPAD
$PAD
Sh "7" R 157 433 0 0 0
At SMD N 00888000
Po 639 1121
$EndPAD
$PAD
Sh "9" R 158 433 0 0 0
At SMD N 00888000
Po 895 -1121
$EndPAD
$PAD
Sh "8" R 158 433 0 0 0
At SMD N 00888000
Po 895 1121
$EndPAD
DC -1318 1122 -1318 1003 50 21
DS -1082 1387 -1082 -1387 50 21
DS -1082 -1387 1082 -1387 50 21
DS 1082 -1387 1082 1387 50 21
DS 1082 1387 -1082 1387 50 21
$EndMODULE TSSOP-16
$MODULE TSSOP-20
Po 0 0 0 15 58975474 00000000 ~~
Li TSSOP-20
Sc 58975474
At SMD
Op 0 0 0
T0 0 -150 200 200 0 40 N V 25 "TSSOP-20"
T1 0 150 200 200 0 40 N I 25 "Val*"
$PAD
Sh "20" R 158 433 0 0 0
At SMD N 00888000
Po -1151 -1121
$EndPAD
$PAD
Sh "1" R 158 433 0 0 0
At SMD N 00888000
Po -1151 1121
$EndPAD
$PAD
Sh "19" R 158 433 0 0 0
At SMD N 00888000
Po -895 -1121
$EndPAD
$PAD
Sh "2" R 158 433 0 0 0
At SMD N 00888000
Po -895 1121
$EndPAD
$PAD
Sh "18" R 157 433 0 0 0
At SMD N 00888000
Po -639 -1121
$EndPAD
$PAD
Sh "3" R 157 433 0 0 0
At SMD N 00888000
Po -639 1121
$EndPAD
$PAD
Sh "17" R 157 433 0 0 0
At SMD N 00888000
Po -383 -1121
$EndPAD
$PAD
Sh "4" R 157 433 0 0 0
At SMD N 00888000
Po -383 1121
$EndPAD
$PAD
Sh "16" R 157 433 0 0 0
At SMD N 00888000
Po -127 -1121
$EndPAD
$PAD
Sh "5" R 157 433 0 0 0
At SMD N 00888000
Po -127 1121
$EndPAD
$PAD
Sh "15" R 157 433 0 0 0
At SMD N 00888000
Po 127 -1121
$EndPAD
$PAD
Sh "6" R 157 433 0 0 0
At SMD N 00888000
Po 127 1121
$EndPAD
$PAD
Sh "14" R 157 433 0 0 0
At SMD N 00888000
Po 383 -1121
$EndPAD
$PAD
Sh "7" R 157 433 0 0 0
At SMD N 00888000
Po 383 1121
$EndPAD
$PAD
Sh "13" R 157 433 0 0 0
At SMD N 00888000
Po 639 -1121
$EndPAD
$PAD
Sh "8" R 157 433 0 0 0
At SMD N 00888000
Po 639 1121
$EndPAD
$PAD
Sh "12" R 158 433 0 0 0
At SMD N 00888000
Po 895 -1121
$EndPAD
$PAD
Sh "9" R 158 433 0 0 0
At SMD N 00888000
Po 895 1121
$EndPAD
$PAD
Sh "11" R 158 433 0 0 0
At SMD N 00888000
Po 1151 -1121
$EndPAD
$PAD
Sh "10" R 158 433 0 0 0
At SMD N 00888000
Po 1151 1121
$EndPAD
DC -1564 1122 -1564 1003 50 21
DS -1328 1387 -1328 -1387 50 21
DS -1328 -1387 1328 -1387 50 21
DS 1328 -1387 1328 1387 50 21
DS 1328 1387 -1328 1387 50 21
$EndMODULE TSSOP-20
$EndLIBRARY
