PCBNEW-LibModule-V1 Sun Feb  5 17:36:04 2017
$INDEX
0201
0402
0603
0603P
0805
0805P
1008
1206
1206P
1210
1210P
1812
1812P
2010
2010P
2512
2512P
xtal2-3.2mmx1.5mm
$EndINDEX
$MODULE 0201
Po 0 0 0 15 58975474 00000000 ~~
Li 0201
Sc 58975474
At SMD
Op 0 0 0
T0 0 -150 200 200 0 40 N V 25 "0201"
T1 0 150 200 200 0 40 N I 25 "Val*"
$PAD
Sh "1" R 110 168 0 0 0
At SMD N 00888000
Po -100 0
$EndPAD
$PAD
Sh "2" R 110 168 0 0 0
At SMD N 00888000
Po 100 0
$EndPAD
DS -214 143 -214 -143 30 21
DS -214 -143 214 -143 30 21
DS 214 -143 214 143 30 21
DS 214 143 -214 143 30 21
$EndMODULE 0201
$MODULE 0402
Po 0 0 0 15 58975474 00000000 ~~
Li 0402
Sc 58975474
At SMD
Op 0 0 0
T0 0 -150 200 200 0 40 N V 25 "0402"
T1 0 150 200 200 0 40 N I 25 "Val*"
$PAD
Sh "1" R 197 236 0 0 0
At SMD N 00888000
Po -196 0
$EndPAD
$PAD
Sh "2" R 197 236 0 0 0
At SMD N 00888000
Po 196 0
$EndPAD
DS -354 177 -354 -177 30 21
DS -354 -177 354 -177 30 21
DS 354 -177 354 177 30 21
DS 354 177 -354 177 30 21
$EndMODULE 0402
$MODULE 0603
Po 0 0 0 15 58975474 00000000 ~~
Li 0603
Sc 58975474
At SMD
Op 0 0 0
T0 0 -150 200 200 0 40 N V 25 "0603"
T1 0 150 200 200 0 40 N I 25 "Val*"
$PAD
Sh "1" R 276 354 0 0 0
At SMD N 00888000
Po -295 0
$EndPAD
$PAD
Sh "2" R 276 354 0 0 0
At SMD N 00888000
Po 295 0
$EndPAD
DS -531 275 -531 -275 30 21
DS -531 -275 531 -275 30 21
DS 531 -275 531 275 30 21
DS 531 275 -531 275 30 21
$EndMODULE 0603
$MODULE 0603P
Po 0 0 0 15 58975474 00000000 ~~
Li 0603P
Sc 58975474
At SMD
Op 0 0 0
T0 0 -150 200 200 0 40 N V 25 "0603P"
T1 0 150 200 200 0 40 N I 25 "Val*"
$PAD
Sh "1" R 276 354 0 0 0
At SMD N 00888000
Po -295 0
$EndPAD
$PAD
Sh "2" R 276 354 0 0 0
At SMD N 00888000
Po 295 0
$EndPAD
DS -531 275 -531 -275 30 21
DS -531 -275 531 -275 30 21
DS 531 -275 531 275 30 21
DS 531 275 -531 275 30 21
DS 679 226 679 -226 100 21
$EndMODULE 0603P
$MODULE 0805
Po 0 0 0 15 58975474 00000000 ~~
Li 0805
Sc 58975474
At SMD
Op 0 0 0
T0 0 -150 200 200 0 40 N V 25 "0805"
T1 0 150 200 200 0 40 N I 25 "Val*"
$PAD
Sh "1" R 275 510 0 0 0
At SMD N 00888000
Po -373 0
$EndPAD
$PAD
Sh "2" R 275 510 0 0 0
At SMD N 00888000
Po 373 0
$EndPAD
DS -610 354 -610 -354 30 21
DS -610 -354 610 -354 30 21
DS 610 -354 610 354 30 21
DS 610 354 -610 354 30 21
$EndMODULE 0805
$MODULE 0805P
Po 0 0 0 15 58975474 00000000 ~~
Li 0805P
Sc 58975474
At SMD
Op 0 0 0
T0 0 -150 200 200 0 40 N V 25 "0805P"
T1 0 150 200 200 0 40 N I 25 "Val*"
$PAD
Sh "1" R 275 510 0 0 0
At SMD N 00888000
Po -373 0
$EndPAD
$PAD
Sh "2" R 275 510 0 0 0
At SMD N 00888000
Po 373 0
$EndPAD
DS -610 354 -610 -354 30 21
DS -610 -354 610 -354 30 21
DS 610 -354 610 354 30 21
DS 610 354 -610 354 30 21
DS 757 305 757 -305 100 21
$EndMODULE 0805P
$MODULE 1008
Po 0 0 0 15 58975474 00000000 ~~
Li 1008
Sc 58975474
At SMD
Op 0 0 0
T0 0 -150 200 200 0 40 N V 25 "1008"
T1 0 150 200 200 0 40 N I 25 "Val*"
$PAD
Sh "1" R 335 984 0 0 0
At SMD N 00888000
Po -481 0
$EndPAD
$PAD
Sh "2" R 335 984 0 0 0
At SMD N 00888000
Po 481 0
$EndPAD
DS -748 590 -748 -590 30 21
DS -748 -590 748 -590 30 21
DS 748 -590 748 590 30 21
DS 748 590 -748 590 30 21
$EndMODULE 1008
$MODULE 1206
Po 0 0 0 15 58975474 00000000 ~~
Li 1206
Sc 58975474
At SMD
Op 0 0 0
T0 0 -150 200 200 0 40 N V 25 "1206"
T1 0 150 200 200 0 40 N I 25 "Val*"
$PAD
Sh "1" R 355 668 0 0 0
At SMD N 00888000
Po -570 0
$EndPAD
$PAD
Sh "2" R 355 668 0 0 0
At SMD N 00888000
Po 570 0
$EndPAD
DS -846 433 -846 -433 30 21
DS -846 -433 846 -433 30 21
DS 846 -433 846 433 30 21
DS 846 433 -846 433 30 21
$EndMODULE 1206
$MODULE 1206P
Po 0 0 0 15 58975474 00000000 ~~
Li 1206P
Sc 58975474
At SMD
Op 0 0 0
T0 0 -150 200 200 0 40 N V 25 "1206P"
T1 0 150 200 200 0 40 N I 25 "Val*"
$PAD
Sh "1" R 355 668 0 0 0
At SMD N 00888000
Po -570 0
$EndPAD
$PAD
Sh "2" R 355 668 0 0 0
At SMD N 00888000
Po 570 0
$EndPAD
DS -846 433 -846 -433 30 21
DS -846 -433 846 -433 30 21
DS 846 -433 846 433 30 21
DS 846 433 -846 433 30 21
DS 994 383 994 -383 100 21
$EndMODULE 1206P
$MODULE 1210
Po 0 0 0 15 58975474 00000000 ~~
Li 1210
Sc 58975474
At SMD
Op 0 0 0
T0 0 -150 200 200 0 40 N V 25 "1210"
T1 0 150 200 200 0 40 N I 25 "Val*"
$PAD
Sh "1" R 355 984 0 0 0
At SMD N 00888000
Po -570 0
$EndPAD
$PAD
Sh "2" R 355 984 0 0 0
At SMD N 00888000
Po 570 0
$EndPAD
DS -846 590 -846 -590 30 21
DS -846 -590 846 -590 30 21
DS 846 -590 846 590 30 21
DS 846 590 -846 590 30 21
$EndMODULE 1210
$MODULE 1210P
Po 0 0 0 15 58975474 00000000 ~~
Li 1210P
Sc 58975474
At SMD
Op 0 0 0
T0 0 -150 200 200 0 40 N V 25 "1210P"
T1 0 150 200 200 0 40 N I 25 "Val*"
$PAD
Sh "1" R 355 984 0 0 0
At SMD N 00888000
Po -570 0
$EndPAD
$PAD
Sh "2" R 355 984 0 0 0
At SMD N 00888000
Po 570 0
$EndPAD
DS -846 590 -846 -590 30 21
DS -846 -590 846 -590 30 21
DS 846 -590 846 590 30 21
DS 846 590 -846 590 30 21
DS 994 541 994 -541 100 21
$EndMODULE 1210P
$MODULE 1812
Po 0 0 0 15 58975474 00000000 ~~
Li 1812
Sc 58975474
At SMD
Op 0 0 0
T0 0 -150 200 200 0 40 N V 25 "1812"
T1 0 150 200 200 0 40 N I 25 "Val*"
$PAD
Sh "1" R 661 1240 0 0 0
At SMD N 00888000
Po -940 0
$EndPAD
$PAD
Sh "2" R 661 1240 0 0 0
At SMD N 00888000
Po 940 0
$EndPAD
DS -1370 718 -1370 -718 30 21
DS -1370 -718 1370 -718 30 21
DS 1370 -718 1370 718 30 21
DS 1370 718 -1370 718 30 21
$EndMODULE 1812
$MODULE 1812P
Po 0 0 0 15 58975474 00000000 ~~
Li 1812P
Sc 58975474
At SMD
Op 0 0 0
T0 0 -150 200 200 0 40 N V 25 "1812P"
T1 0 150 200 200 0 40 N I 25 "Val*"
$PAD
Sh "1" R 661 1240 0 0 0
At SMD N 00888000
Po -940 0
$EndPAD
$PAD
Sh "2" R 661 1240 0 0 0
At SMD N 00888000
Po 940 0
$EndPAD
DS -1370 718 -1370 -718 30 21
DS -1370 -718 1370 -718 30 21
DS 1370 -718 1370 718 30 21
DS 1370 718 -1370 718 30 21
DS 1517 669 1517 -669 100 21
$EndMODULE 1812P
$MODULE 2010
Po 0 0 0 15 58975474 00000000 ~~
Li 2010
Sc 58975474
At SMD
Op 0 0 0
T0 0 -150 200 200 0 40 N V 25 "2010"
T1 0 150 200 200 0 40 N I 25 "Val*"
$PAD
Sh "1" R 394 984 0 0 0
At SMD N 00888000
Po -905 0
$EndPAD
$PAD
Sh "2" R 394 984 0 0 0
At SMD N 00888000
Po 905 0
$EndPAD
DS -1200 590 -1200 -590 30 21
DS -1200 -590 1200 -590 30 21
DS 1200 -590 1200 590 30 21
DS 1200 590 -1200 590 30 21
$EndMODULE 2010
$MODULE 2010P
Po 0 0 0 15 58975474 00000000 ~~
Li 2010P
Sc 58975474
At SMD
Op 0 0 0
T0 0 -150 200 200 0 40 N V 25 "2010P"
T1 0 150 200 200 0 40 N I 25 "Val*"
$PAD
Sh "1" R 394 984 0 0 0
At SMD N 00888000
Po -905 0
$EndPAD
$PAD
Sh "2" R 394 984 0 0 0
At SMD N 00888000
Po 905 0
$EndPAD
DS -1200 590 -1200 -590 30 21
DS -1200 -590 1200 -590 30 21
DS 1200 -590 1200 590 30 21
DS 1200 590 -1200 590 30 21
DS 1348 541 1348 -541 100 21
$EndMODULE 2010P
$MODULE 2512
Po 0 0 0 15 58975474 00000000 ~~
Li 2512
Sc 58975474
At SMD
Op 0 0 0
T0 0 -150 200 200 0 40 N V 25 "2512"
T1 0 150 200 200 0 40 N I 25 "Val*"
$PAD
Sh "1" R 393 1258 0 0 0
At SMD N 00888000
Po -1180 0
$EndPAD
$PAD
Sh "2" R 393 1258 0 0 0
At SMD N 00888000
Po 1180 0
$EndPAD
DS -1476 728 -1476 -728 30 21
DS -1476 -728 1476 -728 30 21
DS 1476 -728 1476 728 30 21
DS 1476 728 -1476 728 30 21
$EndMODULE 2512
$MODULE 2512P
Po 0 0 0 15 58975474 00000000 ~~
Li 2512P
Sc 58975474
At SMD
Op 0 0 0
T0 0 -150 200 200 0 40 N V 25 "2512P"
T1 0 150 200 200 0 40 N I 25 "Val*"
$PAD
Sh "1" R 393 1258 0 0 0
At SMD N 00888000
Po -1180 0
$EndPAD
$PAD
Sh "2" R 393 1258 0 0 0
At SMD N 00888000
Po 1180 0
$EndPAD
DS -1476 728 -1476 -728 30 21
DS -1476 -728 1476 -728 30 21
DS 1476 -728 1476 728 30 21
DS 1476 728 -1476 728 30 21
DS 1624 679 1624 -679 100 21
$EndMODULE 2512P
$MODULE xtal2-3.2mmx1.5mm
Po 0 0 0 15 58975474 00000000 ~~
Li xtal2-3.2mmx1.5mm
Sc 58975474
At SMD
Op 0 0 0
T0 0 -150 200 200 0 40 N V 25 "xtal2-3.2mmx1.5mm"
T1 0 150 200 200 0 40 N I 25 "Val*"
$PAD
Sh "1" R 393 708 0 0 0
At SMD N 00888000
Po -491 0
$EndPAD
$PAD
Sh "2" R 393 708 0 0 0
At SMD N 00888000
Po 491 0
$EndPAD
DS -767 433 -767 -433 30 21
DS -767 -433 767 -433 30 21
DS 767 -433 767 433 30 21
DS 767 433 -767 433 30 21
$EndMODULE xtal2-3.2mmx1.5mm
$EndLIBRARY
