PCBNEW-LibModule-V1 Sun Feb  5 17:36:04 2017
$INDEX
STQFN-20
$EndINDEX
$MODULE STQFN-20
Po 0 0 0 15 58975474 00000000 ~~
Li STQFN-20
Sc 58975474
At SMD
Op 0 0 0
T0 0 -150 200 200 0 40 N V 25 "STQFN-20"
T1 0 150 200 200 0 40 N I 25 "Val*"
$PAD
Sh "1" R 191 90 0 0 0
At SMD N 00888000
Po -356 -472
$EndPAD
$PAD
Sh "2" R 191 91 0 0 0
At SMD N 00888000
Po -356 -314
$EndPAD
$PAD
Sh "3" R 384 90 0 0 0
At SMD N 00888000
Po -260 -157
$EndPAD
$PAD
Sh "4" R 305 90 0 0 0
At SMD N 00888000
Po -299 0
$EndPAD
$PAD
Sh "5" R 305 90 0 0 0
At SMD N 00888000
Po -299 157
$EndPAD
$PAD
Sh "6" R 191 91 0 0 0
At SMD N 00888000
Po -356 314
$EndPAD
$PAD
Sh "7" R 191 90 0 0 0
At SMD N 00888000
Po -356 472
$EndPAD
$PAD
Sh "8" R 90 305 0 0 0
At SMD N 00888000
Po -157 496
$EndPAD
$PAD
Sh "9" R 90 305 0 0 0
At SMD N 00888000
Po 0 496
$EndPAD
$PAD
Sh "10" R 90 305 0 0 0
At SMD N 00888000
Po 157 496
$EndPAD
$PAD
Sh "11" R 191 90 0 0 0
At SMD N 00888000
Po 356 472
$EndPAD
$PAD
Sh "12" R 191 91 0 0 0
At SMD N 00888000
Po 356 314
$EndPAD
$PAD
Sh "13" R 305 90 0 0 0
At SMD N 00888000
Po 299 157
$EndPAD
$PAD
Sh "14" R 305 90 0 0 0
At SMD N 00888000
Po 299 0
$EndPAD
$PAD
Sh "15" R 305 90 0 0 0
At SMD N 00888000
Po 299 -157
$EndPAD
$PAD
Sh "16" R 191 91 0 0 0
At SMD N 00888000
Po 356 -314
$EndPAD
$PAD
Sh "17" R 191 90 0 0 0
At SMD N 00888000
Po 356 -472
$EndPAD
$PAD
Sh "18" R 90 305 0 0 0
At SMD N 00888000
Po 157 -496
$EndPAD
$PAD
Sh "19" R 90 305 0 0 0
At SMD N 00888000
Po 0 -496
$EndPAD
$PAD
Sh "20" R 90 305 0 0 0
At SMD N 00888000
Po -157 -496
$EndPAD
DS -393 -590 -285 -590 39 21
DS 393 -590 285 -590 39 21
DS -393 590 -285 590 39 21
DS 393 590 285 590 39 21
$EndMODULE STQFN-20
$EndLIBRARY
