PCBNEW-LibModule-V1 Sun Jul  2 19:01:24 2017
$INDEX
uDFN-9
$EndINDEX
$MODULE uDFN-9
Po 0 0 0 15 595926E4 00000000 ~~
Li uDFN-9
Sc 595926E4
At SMD
Op 0 0 0
T0 0 -150 200 200 0 40 N V 25 "uDFN-9"
T1 0 150 200 200 0 40 N I 25 "Val*"
$PAD
Sh "1" R 79 118 0 0 0
At SMD N 00888000
Po -668 -137
$EndPAD
$PAD
Sh "2" R 79 118 0 0 0
At SMD N 00888000
Po -314 -137
$EndPAD
$PAD
Sh "3" R 78 118 0 0 0
At SMD N 00888000
Po 0 -137
$EndPAD
$PAD
Sh "4" R 79 118 0 0 0
At SMD N 00888000
Po 314 -137
$EndPAD
$PAD
Sh "5" R 79 118 0 0 0
At SMD N 00888000
Po 668 -137
$EndPAD
$PAD
Sh "6" R 79 118 0 0 0
At SMD N 00888000
Po 511 137
$EndPAD
$PAD
Sh "7" R 78 118 0 0 0
At SMD N 00888000
Po 157 137
$EndPAD
$PAD
Sh "8" R 78 118 0 0 0
At SMD N 00888000
Po -157 137
$EndPAD
$PAD
Sh "9" R 79 118 0 0 0
At SMD N 00888000
Po -511 137
$EndPAD
DS -748 196 -748 -196 19 21
DS -748 -196 748 -196 19 21
DS 748 -196 748 196 19 21
DS 748 196 -748 196 19 21
$EndMODULE uDFN-9
$EndLIBRARY
