PCBNEW-LibModule-V1 Sun Jul  2 19:01:24 2017
$INDEX
VEMD10940F
$EndINDEX
$MODULE VEMD10940F
Po 0 0 0 15 595926E4 00000000 ~~
Li VEMD10940F
Sc 595926E4
At SMD
Op 0 0 0
T0 0 -150 200 200 0 40 N V 25 "VEMD10940F"
T1 0 150 200 200 0 40 N I 25 "Val*"
$PAD
Sh "A" R 590 591 0 0 0
At SMD N 00888000
Po 0 688
$EndPAD
$PAD
Sh "K" R 590 591 0 0 0
At SMD N 00888000
Po 0 -688
$EndPAD
$PAD
Sh "C" R 355 354 0 0 0
At SMD N 00888000
Po -255 0
$EndPAD
DA 196 0 475 -278 900 47 21
$EndMODULE VEMD10940F
$EndLIBRARY
