PCBNEW-LibModule-V1 Sun Jul  2 19:01:24 2017
$INDEX
YFC-12
$EndINDEX
$MODULE YFC-12
Po 0 0 0 15 595926E4 00000000 ~~
Li YFC-12
Sc 595926E4
At SMD
Op 0 0 0
T0 0 -150 200 200 0 40 N V 25 "YFC-12"
T1 0 150 200 200 0 40 N I 25 "Val*"
$PAD
Sh "A3" O 90 90 0 0 0
At SMD N 00888000
Po 0 472
$EndPAD
$PAD
Sh "A2" O 90 90 0 0 0
At SMD N 00888000
Po 157 472
$EndPAD
$PAD
Sh "A1" O 91 90 0 0 0
At SMD N 00888000
Po 314 472
$EndPAD
$PAD
Sh "B3" O 90 91 0 0 0
At SMD N 00888000
Po 0 314
$EndPAD
$PAD
Sh "B2" O 90 91 0 0 0
At SMD N 00888000
Po 157 314
$EndPAD
$PAD
Sh "B1" O 91 91 0 0 0
At SMD N 00888000
Po 314 314
$EndPAD
$PAD
Sh "C3" O 90 90 0 0 0
At SMD N 00888000
Po 0 157
$EndPAD
$PAD
Sh "C2" O 90 90 0 0 0
At SMD N 00888000
Po 157 157
$EndPAD
$PAD
Sh "C1" O 91 90 0 0 0
At SMD N 00888000
Po 314 157
$EndPAD
$PAD
Sh "D3" O 90 90 0 0 0
At SMD N 00888000
Po 0 0
$EndPAD
$PAD
Sh "D2" O 90 90 0 0 0
At SMD N 00888000
Po 157 0
$EndPAD
$PAD
Sh "D1" O 91 90 0 0 0
At SMD N 00888000
Po 314 0
$EndPAD
DS 387 -72 387 545 50 21
DS 387 545 -72 545 50 21
DS -72 545 -72 -72 50 21
DS -72 -72 387 -72 50 21
DS 0 -72 -72 0 50 21
$EndMODULE YFC-12
$EndLIBRARY
