(module C_0402 (layer F.Cu) (tedit 59AC225B)
  (descr "Resistor SMD 0402, reflow soldering, Vishay (see dcrcw.pdf)")
  (tags "resistor 0402")
  (solder_mask_margin 0.07)
  (solder_paste_ratio -0.002)
  (attr smd)
  (fp_text reference REF** (at -0.65 0 90) (layer F.Fab)
    (effects (font (size 0.127 0.127) (thickness 0.025)))
  )
  (fp_text value Val** (at 0.65 0 270) (layer F.Fab)
    (effects (font (size 0.127 0.127) (thickness 0.025)))
  )
  (fp_line (start -0.25 -0.275) (end 0.25 -0.275) (layer F.Fab) (width 0.05))
  (fp_line (start -0.4 -0.25) (end -0.4 0.15) (layer F.Fab) (width 0.1))
  (fp_line (start -0.3 -0.25) (end -0.4 -0.25) (layer F.Fab) (width 0.1))
  (fp_line (start -0.3 0.2) (end -0.3 -0.25) (layer F.Fab) (width 0.1))
  (fp_line (start -0.45 0.2) (end -0.3 0.2) (layer F.Fab) (width 0.1))
  (fp_line (start -0.45 -0.25) (end -0.45 0.2) (layer F.Fab) (width 0.1))
  (fp_line (start -0.25 -0.25) (end -0.5 -0.25) (layer F.Fab) (width 0.1))
  (fp_line (start -0.25 0.25) (end -0.25 -0.25) (layer F.Fab) (width 0.1))
  (fp_line (start -0.5 0.25) (end -0.25 0.25) (layer F.Fab) (width 0.1))
  (fp_line (start -0.5 -0.25) (end -0.5 0.25) (layer F.Fab) (width 0.1))
  (fp_line (start -0.95 0.5) (end 0.95 0.5) (layer F.CrtYd) (width 0.05))
  (fp_line (start -0.95 -0.5) (end 0.95 -0.5) (layer F.CrtYd) (width 0.05))
  (fp_line (start -0.95 -0.5) (end -0.95 0.5) (layer F.CrtYd) (width 0.05))
  (fp_line (start 0.95 -0.5) (end 0.95 0.5) (layer F.CrtYd) (width 0.05))
  (fp_line (start 0.525 -0.3) (end 0.525 0.3) (layer Dwgs.User) (width 0.05))
  (fp_line (start 0.475 0.3) (end 0.475 -0.3) (layer Dwgs.User) (width 0.05))
  (fp_line (start 0.425 -0.3) (end 0.425 0.3) (layer Dwgs.User) (width 0.05))
  (fp_line (start 0.375 -0.275) (end 0.375 -0.3) (layer Dwgs.User) (width 0.05))
  (fp_line (start 0.375 -0.25) (end 0.375 -0.275) (layer Dwgs.User) (width 0.05))
  (fp_line (start 0.375 0.3) (end 0.375 -0.25) (layer Dwgs.User) (width 0.05))
  (fp_line (start -0.5 -0.3) (end -0.5 0.3) (layer Dwgs.User) (width 0.05))
  (fp_line (start -0.475 0.3) (end -0.475 -0.3) (layer Dwgs.User) (width 0.05))
  (fp_line (start -0.425 -0.3) (end -0.425 0.3) (layer Dwgs.User) (width 0.05))
  (fp_line (start -0.375 0.3) (end -0.375 -0.3) (layer Dwgs.User) (width 0.05))
  (fp_line (start -0.325 -0.3) (end -0.325 0.3) (layer Dwgs.User) (width 0.05))
  (fp_line (start 0.325 0.3) (end 0.325 -0.3) (layer Dwgs.User) (width 0.05))
  (fp_line (start -0.55 0.3) (end -0.55 -0.3) (layer Dwgs.User) (width 0.05))
  (fp_line (start 0.55 0.3) (end -0.55 0.3) (layer Dwgs.User) (width 0.05))
  (fp_line (start 0.55 -0.3) (end 0.55 0.3) (layer Dwgs.User) (width 0.05))
  (fp_line (start -0.55 -0.3) (end 0.55 -0.3) (layer Dwgs.User) (width 0.05))
  (fp_line (start 0 0.325) (end 0 -0.325) (layer F.SilkS) (width 0.15))
  (fp_line (start 0.25 -0.25) (end 0.25 0.25) (layer F.Fab) (width 0.1))
  (fp_line (start 0.25 0.25) (end 0.5 0.25) (layer F.Fab) (width 0.1))
  (fp_line (start 0.5 0.25) (end 0.5 -0.25) (layer F.Fab) (width 0.1))
  (fp_line (start 0.3 0.2) (end 0.45 0.2) (layer F.Fab) (width 0.1))
  (fp_line (start 0.5 -0.25) (end 0.25 -0.25) (layer F.Fab) (width 0.1))
  (fp_line (start 0.3 -0.25) (end 0.3 0.2) (layer F.Fab) (width 0.1))
  (fp_line (start 0.45 0.2) (end 0.45 -0.25) (layer F.Fab) (width 0.1))
  (fp_line (start 0.45 -0.25) (end 0.35 -0.25) (layer F.Fab) (width 0.1))
  (fp_line (start 0.35 -0.25) (end 0.35 0.15) (layer F.Fab) (width 0.1))
  (fp_line (start -0.25 0.275) (end 0.25 0.275) (layer F.Fab) (width 0.05))
  (pad 1 smd roundrect (at -0.5 0) (size 0.6 0.65) (layers F.Cu F.Paste F.Mask)(roundrect_rratio 0.15))
  (pad 2 smd roundrect (at 0.5 0) (size 0.6 0.65) (layers F.Cu F.Paste F.Mask)(roundrect_rratio 0.15))
  (model ${KISYS3DMOD}/Capacitors_SMD.3dshapes/C_0402.step
    (at (xyz 0 0 0))
    (scale (xyz 1 1 1))
    (rotate (xyz 0 0 0))
  )
)
