(module TSX3225 (layer F.Cu) (tedit 5992E80D)
  (descr "crystal Epson Toyocom FA-238 and TSX-3225 series")
  (solder_mask_margin 0.1)
  (fp_text reference X1301 (at -0.1 2.2) (layer F.SilkS)
    (effects (font (size 0.8 0.8) (thickness 0.15)))
  )
  (fp_text value 27.12MHz (at 0.2 2.3) (layer F.Fab) hide
    (effects (font (size 1 1) (thickness 0.15)))
  )
  (fp_line (start -1.6 1.3) (end -1.6 -1.3) (layer F.SilkS) (width 0.15))
  (fp_line (start 1.6 1.3) (end -1.6 1.3) (layer F.SilkS) (width 0.15))
  (fp_line (start 1.6 -1.3) (end 1.6 1.3) (layer F.SilkS) (width 0.15))
  (fp_line (start -1.6 -1.3) (end 1.6 -1.3) (layer F.SilkS) (width 0.15))
  (pad 3 smd rect (at 1.1 -0.8) (size 1.4 1.2) (layers F.Cu F.Paste F.Mask))
  (pad 4 smd rect (at -1.1 -0.8) (size 1.4 1.2) (layers F.Cu F.Paste F.Mask))
  (pad 2 smd rect (at 1.1 0.8) (size 1.4 1.2) (layers F.Cu F.Paste F.Mask))
  (pad 1 smd rect (at -1.1 0.8) (size 1.4 1.2) (layers F.Cu F.Paste F.Mask))
  (model /Volumes/Agamemnon/Documents/KiCad/StepModels/3225.wrl
    (at (xyz 0 0 0))
    (scale (xyz 1 1 1))
    (rotate (xyz 0 0 0))
  )
)
